--------------- Log file for Minesweeper Game Artificial Intelligence with Bayesian Network
--------------- 
--------------- Date: 2018-06-27T14:53:13




------------------------------
Playing Minesweeper with Bayesian Networks
Minesweeper Board: Num x = 5 ; Num y = 5 ; Mines = 7


Resolved Board Created
* 1 1 2 2 
1 1 2 * * 
1 1 2 * 3 
* 2 2 2 2 
* 2 1 * 1 


Board to resolve
? 1 ? ? ? 
? ? ? ? ? 
? ? ? ? ? 
? ? ? ? ? 
? ? ? ? ? 


Decided in 0.016666666666666666 minutes
Revealing Positions: ['x00']
Last board to resolve
? 1 ? ? ? 
? ? ? ? ? 
? ? ? ? ? 
? ? ? ? ? 
? ? ? ? ? 


LOST!
Finished in 0.016666666666666666 minutes


------------------------------
Playing Minesweeper with Bayesian Networks
Minesweeper Board: Num x = 5 ; Num y = 5 ; Mines = 7


Resolved Board Created
1 1 0 1 1 
* 1 0 2 * 
2 2 2 3 * 
2 * 4 * 2 
2 * * 2 1 


Board to resolve
1 ? ? ? ? 
? ? ? ? ? 
? ? ? ? ? 
? ? ? ? ? 
? ? ? ? ? 


Decided in 0.0 minutes
Revealing Positions: ['x02']
New board to resolve
1 1 0 1 ? 
? 1 0 2 ? 
? 2 2 3 ? 
? ? ? ? ? 
? ? ? ? ? 


Board to resolve
1 1 0 1 ? 
? 1 0 2 ? 
? 2 2 3 ? 
? ? ? ? ? 
? ? ? ? ? 


Decided in 0.06666666666666667 minutes
Revealing Positions: ['x20', 'x30']
New board to resolve
1 1 0 1 ? 
? 1 0 2 ? 
2 2 2 3 ? 
2 ? ? ? ? 
? ? ? ? ? 


Board to resolve
1 1 0 1 ? 
? 1 0 2 ? 
2 2 2 3 ? 
2 ? ? ? ? 
? ? ? ? ? 


Decided in 0.03333333333333333 minutes
Revealing Positions: ['x32']
New board to resolve
1 1 0 1 ? 
? 1 0 2 ? 
2 2 2 3 ? 
2 ? 4 ? ? 
? ? ? ? ? 


Board to resolve
1 1 0 1 ? 
? 1 0 2 ? 
2 2 2 3 ? 
2 ? 4 ? ? 
? ? ? ? ? 


Decided in 0.03333333333333333 minutes
Revealing Positions: ['x40']
New board to resolve
1 1 0 1 ? 
? 1 0 2 ? 
2 2 2 3 ? 
2 ? 4 ? ? 
2 ? ? ? ? 


Board to resolve
1 1 0 1 ? 
? 1 0 2 ? 
2 2 2 3 ? 
2 ? 4 ? ? 
2 ? ? ? ? 


Decided in 0.016666666666666666 minutes
Revealing Positions: ['x04']
New board to resolve
1 1 0 1 1 
? 1 0 2 ? 
2 2 2 3 ? 
2 ? 4 ? ? 
2 ? ? ? ? 


Board to resolve
1 1 0 1 1 
? 1 0 2 ? 
2 2 2 3 ? 
2 ? 4 ? ? 
2 ? ? ? ? 


Decided in 0.016666666666666666 minutes
Revealing Positions: ['x34']
New board to resolve
1 1 0 1 1 
? 1 0 2 ? 
2 2 2 3 ? 
2 ? 4 ? 2 
2 ? ? ? ? 


Board to resolve
1 1 0 1 1 
? 1 0 2 ? 
2 2 2 3 ? 
2 ? 4 ? 2 
2 ? ? ? ? 


Decided in 0.016666666666666666 minutes
Revealing Positions: ['x43', 'x44']
New board to resolve
1 1 0 1 1 
? 1 0 2 ? 
2 2 2 3 ? 
2 ? 4 ? 2 
2 ? ? 2 1 


WON!
Times lost: 1
Finished in 0.18333333333333332 minutes


------------------------------
Playing Minesweeper with Bayesian Networks
Minesweeper Board: Num x = 5 ; Num y = 5 ; Mines = 7


Resolved Board Created
0 1 2 * 1 
0 1 * 4 3 
0 2 3 * * 
1 3 * 4 2 
1 * * 2 0 


Board to resolve
0 1 ? ? ? 
0 1 ? ? ? 
0 2 ? ? ? 
1 3 ? ? ? 
? ? ? ? ? 


Decided in 0.03333333333333333 minutes
Revealing Positions: ['x02', 'x22']
New board to resolve
0 1 2 ? ? 
0 1 ? ? ? 
0 2 3 ? ? 
1 3 ? ? ? 
? ? ? ? ? 


Board to resolve
0 1 2 ? ? 
0 1 ? ? ? 
0 2 3 ? ? 
1 3 ? ? ? 
? ? ? ? ? 


Decided in 0.016666666666666666 minutes
Revealing Positions: ['x23']
Last board to resolve
0 1 2 ? ? 
0 1 ? ? ? 
0 2 3 ? ? 
1 3 ? ? ? 
? ? ? ? ? 


LOST!
Finished in 0.05 minutes


------------------------------
Playing Minesweeper with Bayesian Networks
Minesweeper Board: Num x = 5 ; Num y = 5 ; Mines = 7


Resolved Board Created
2 * 3 3 * 
3 * * 3 * 
* 4 3 2 1 
2 * 1 0 0 
1 1 1 0 0 


Board to resolve
2 ? ? ? ? 
? ? ? ? ? 
? ? ? ? ? 
? ? ? ? ? 
? ? ? ? ? 


Decided in 0.016666666666666666 minutes
Revealing Positions: ['x02']
New board to resolve
2 ? 3 ? ? 
? ? ? ? ? 
? ? ? ? ? 
? ? ? ? ? 
? ? ? ? ? 


Board to resolve
2 ? 3 ? ? 
? ? ? ? ? 
? ? ? ? ? 
? ? ? ? ? 
? ? ? ? ? 


Decided in 0.016666666666666666 minutes
Revealing Positions: ['x04']
Last board to resolve
2 ? 3 ? ? 
? ? ? ? ? 
? ? ? ? ? 
? ? ? ? ? 
? ? ? ? ? 


LOST!
Finished in 0.03333333333333333 minutes


------------------------------
Playing Minesweeper with Bayesian Networks
Minesweeper Board: Num x = 5 ; Num y = 5 ; Mines = 7


Resolved Board Created
1 1 1 * * 
* 1 1 2 2 
2 3 2 2 1 
2 * * 2 * 
2 * 3 2 1 


Board to resolve
1 ? ? ? ? 
? ? ? ? ? 
? ? ? ? ? 
? ? ? ? ? 
? ? ? ? ? 


Decided in 0.016666666666666666 minutes
Revealing Positions: ['x02']
New board to resolve
1 ? 1 ? ? 
? ? ? ? ? 
? ? ? ? ? 
? ? ? ? ? 
? ? ? ? ? 


Board to resolve
1 ? 1 ? ? 
? ? ? ? ? 
? ? ? ? ? 
? ? ? ? ? 
? ? ? ? ? 


Decided in 0.016666666666666666 minutes
Revealing Positions: ['x03']
Last board to resolve
1 ? 1 ? ? 
? ? ? ? ? 
? ? ? ? ? 
? ? ? ? ? 
? ? ? ? ? 


LOST!
Finished in 0.03333333333333333 minutes


------------------------------
Playing Minesweeper with Bayesian Networks
Minesweeper Board: Num x = 5 ; Num y = 5 ; Mines = 7


Resolved Board Created
2 * * 1 0 
* 3 2 2 1 
1 1 0 2 * 
1 2 1 3 * 
* 2 * 2 1 


Board to resolve
2 ? ? ? ? 
? ? ? ? ? 
? ? ? ? ? 
? ? ? ? ? 
? ? ? ? ? 


Decided in 0.016666666666666666 minutes
Revealing Positions: ['x02']
Last board to resolve
2 ? ? ? ? 
? ? ? ? ? 
? ? ? ? ? 
? ? ? ? ? 
? ? ? ? ? 


LOST!
Finished in 0.016666666666666666 minutes


------------------------------
Playing Minesweeper with Bayesian Networks
Minesweeper Board: Num x = 5 ; Num y = 5 ; Mines = 7


Resolved Board Created
* 1 1 * * 
2 2 2 2 2 
2 * 2 1 1 
2 * 3 2 * 
1 1 2 * 2 


Board to resolve
? 1 ? ? ? 
? ? ? ? ? 
? ? ? ? ? 
? ? ? ? ? 
? ? ? ? ? 


Decided in 0.016666666666666666 minutes
Revealing Positions: ['x00']
Last board to resolve
? 1 ? ? ? 
? ? ? ? ? 
? ? ? ? ? 
? ? ? ? ? 
? ? ? ? ? 


LOST!
Finished in 0.016666666666666666 minutes


------------------------------
Playing Minesweeper with Bayesian Networks
Minesweeper Board: Num x = 5 ; Num y = 5 ; Mines = 7


Resolved Board Created
0 1 * 3 2 
1 2 2 * * 
* 1 1 3 * 
2 3 2 2 1 
1 * * 1 0 


Board to resolve
0 1 ? ? ? 
1 2 ? ? ? 
? ? ? ? ? 
? ? ? ? ? 
? ? ? ? ? 


Decided in 0.03333333333333333 minutes
Revealing Positions: ['x22']
New board to resolve
0 1 ? ? ? 
1 2 ? ? ? 
? ? 1 ? ? 
? ? ? ? ? 
? ? ? ? ? 


Board to resolve
0 1 ? ? ? 
1 2 ? ? ? 
? ? 1 ? ? 
? ? ? ? ? 
? ? ? ? ? 


Decided in 0.13333333333333333 minutes
Revealing Positions: ['x31']
New board to resolve
0 1 ? ? ? 
1 2 ? ? ? 
? ? 1 ? ? 
? 3 ? ? ? 
? ? ? ? ? 


Board to resolve
0 1 ? ? ? 
1 2 ? ? ? 
? ? 1 ? ? 
? 3 ? ? ? 
? ? ? ? ? 


Decided in 0.4 minutes
Revealing Positions: ['x13']
Last board to resolve
0 1 ? ? ? 
1 2 ? ? ? 
? ? 1 ? ? 
? 3 ? ? ? 
? ? ? ? ? 


LOST!
Finished in 0.5666666666666667 minutes


------------------------------
Playing Minesweeper with Bayesian Networks
Minesweeper Board: Num x = 5 ; Num y = 5 ; Mines = 7


Resolved Board Created
0 1 * 2 1 
1 2 2 3 * 
* 3 2 * 2 
* 3 * 3 2 
1 2 2 * 1 


Board to resolve
0 1 ? ? ? 
1 2 ? ? ? 
? ? ? ? ? 
? ? ? ? ? 
? ? ? ? ? 


Decided in 0.03333333333333333 minutes
Revealing Positions: ['x22']
New board to resolve
0 1 ? ? ? 
1 2 ? ? ? 
? ? 2 ? ? 
? ? ? ? ? 
? ? ? ? ? 


Board to resolve
0 1 ? ? ? 
1 2 ? ? ? 
? ? 2 ? ? 
? ? ? ? ? 
? ? ? ? ? 


Decided in 0.13333333333333333 minutes
Revealing Positions: ['x13']
New board to resolve
0 1 ? ? ? 
1 2 ? 3 ? 
? ? 2 ? ? 
? ? ? ? ? 
? ? ? ? ? 


Board to resolve
0 1 ? ? ? 
1 2 ? 3 ? 
? ? 2 ? ? 
? ? ? ? ? 
? ? ? ? ? 


Decided in 0.16666666666666666 minutes
Revealing Positions: ['x31']
New board to resolve
0 1 ? ? ? 
1 2 ? 3 ? 
? ? 2 ? ? 
? 3 ? ? ? 
? ? ? ? ? 


Board to resolve
0 1 ? ? ? 
1 2 ? 3 ? 
? ? 2 ? ? 
? 3 ? ? ? 
? ? ? ? ? 


Decided in 0.43333333333333335 minutes
Revealing Positions: ['x33']
New board to resolve
0 1 ? ? ? 
1 2 ? 3 ? 
? ? 2 ? ? 
? 3 ? 3 ? 
? ? ? ? ? 


Board to resolve
0 1 ? ? ? 
1 2 ? 3 ? 
? ? 2 ? ? 
? 3 ? 3 ? 
? ? ? ? ? 


Decided in 3.0166666666666666 minutes
Revealing Positions: ['x03']
New board to resolve
0 1 ? 2 ? 
1 2 ? 3 ? 
? ? 2 ? ? 
? 3 ? 3 ? 
? ? ? ? ? 


Board to resolve
0 1 ? 2 ? 
1 2 ? 3 ? 
? ? 2 ? ? 
? 3 ? 3 ? 
? ? ? ? ? 


Decided in 1.3333333333333333 minutes
Revealing Positions: ['x32']
Last board to resolve
0 1 ? 2 ? 
1 2 ? 3 ? 
? ? 2 ? ? 
? 3 ? 3 ? 
? ? ? ? ? 


LOST!
Finished in 5.116666666666666 minutes


------------------------------
Playing Minesweeper with Bayesian Networks
Minesweeper Board: Num x = 5 ; Num y = 5 ; Mines = 7


Resolved Board Created
0 2 * * * 
0 2 * 5 * 
2 3 2 2 1 
* * 1 0 0 
2 2 1 0 0 


Board to resolve
0 2 ? ? ? 
0 2 ? ? ? 
2 3 ? ? ? 
? ? ? ? ? 
? ? ? ? ? 


Decided in 0.03333333333333333 minutes
Revealing Positions: ['x22', 'x32']
New board to resolve
0 2 ? ? ? 
0 2 ? ? ? 
2 3 2 ? ? 
? ? 1 ? ? 
? ? ? ? ? 


Board to resolve
0 2 ? ? ? 
0 2 ? ? ? 
2 3 2 ? ? 
? ? 1 ? ? 
? ? ? ? ? 


Decided in 0.06666666666666667 minutes
Revealing Positions: ['x13', 'x23', 'x33', 'x41', 'x42', 'x43']
New board to resolve
0 2 ? ? ? 
0 2 ? 5 ? 
2 3 2 2 1 
? ? 1 0 0 
? 2 1 0 0 


Board to resolve
0 2 ? ? ? 
0 2 ? 5 ? 
2 3 2 2 1 
? ? 1 0 0 
? 2 1 0 0 


Decided in 0.0 minutes
Revealing Positions: ['x40']
New board to resolve
0 2 ? ? ? 
0 2 ? 5 ? 
2 3 2 2 1 
? ? 1 0 0 
2 2 1 0 0 


WON!
Times lost: 7
Finished in 0.1 minutes


------------------------------
Playing Minesweeper with Bayesian Networks
Minesweeper Board: Num x = 5 ; Num y = 5 ; Mines = 7


Resolved Board Created
1 * * 2 * 
1 3 3 3 1 
0 2 * 3 1 
1 3 * 3 * 
* 2 1 2 1 


Board to resolve
1 ? ? ? ? 
? ? ? ? ? 
? ? ? ? ? 
? ? ? ? ? 
? ? ? ? ? 


Decided in 0.016666666666666666 minutes
Revealing Positions: ['x02']
Last board to resolve
1 ? ? ? ? 
? ? ? ? ? 
? ? ? ? ? 
? ? ? ? ? 
? ? ? ? ? 


LOST!
Finished in 0.016666666666666666 minutes


------------------------------
Playing Minesweeper with Bayesian Networks
Minesweeper Board: Num x = 5 ; Num y = 5 ; Mines = 7


Resolved Board Created
1 1 1 0 0 
2 * 2 1 1 
* 2 2 * 2 
2 2 2 4 * 
* 1 1 * * 


Board to resolve
1 ? ? ? ? 
? ? ? ? ? 
? ? ? ? ? 
? ? ? ? ? 
? ? ? ? ? 


Decided in 0.0 minutes
Revealing Positions: ['x02']
New board to resolve
1 ? 1 ? ? 
? ? ? ? ? 
? ? ? ? ? 
? ? ? ? ? 
? ? ? ? ? 


Board to resolve
1 ? 1 ? ? 
? ? ? ? ? 
? ? ? ? ? 
? ? ? ? ? 
? ? ? ? ? 


Decided in 0.03333333333333333 minutes
Revealing Positions: ['x03']
New board to resolve
1 ? 1 0 0 
? ? 2 1 1 
? ? ? ? ? 
? ? ? ? ? 
? ? ? ? ? 


Board to resolve
1 ? 1 0 0 
? ? 2 1 1 
? ? ? ? ? 
? ? ? ? ? 
? ? ? ? ? 


Decided in 0.016666666666666666 minutes
Revealing Positions: ['x10', 'x22']
New board to resolve
1 ? 1 0 0 
2 ? 2 1 1 
? ? 2 ? ? 
? ? ? ? ? 
? ? ? ? ? 


Board to resolve
1 ? 1 0 0 
2 ? 2 1 1 
? ? 2 ? ? 
? ? ? ? ? 
? ? ? ? ? 


Decided in 0.08333333333333333 minutes
Revealing Positions: ['x31']
New board to resolve
1 ? 1 0 0 
2 ? 2 1 1 
? ? 2 ? ? 
? 2 ? ? ? 
? ? ? ? ? 


Board to resolve
1 ? 1 0 0 
2 ? 2 1 1 
? ? 2 ? ? 
? 2 ? ? ? 
? ? ? ? ? 


Decided in 0.16666666666666666 minutes
Revealing Positions: ['x32']
New board to resolve
1 ? 1 0 0 
2 ? 2 1 1 
? ? 2 ? ? 
? 2 2 ? ? 
? ? ? ? ? 


Board to resolve
1 ? 1 0 0 
2 ? 2 1 1 
? ? 2 ? ? 
? 2 2 ? ? 
? ? ? ? ? 


Decided in 0.15 minutes
Revealing Positions: ['x41']
New board to resolve
1 ? 1 0 0 
2 ? 2 1 1 
? ? 2 ? ? 
? 2 2 ? ? 
? 1 ? ? ? 


Board to resolve
1 ? 1 0 0 
2 ? 2 1 1 
? ? 2 ? ? 
? 2 2 ? ? 
? 1 ? ? ? 


Decided in 0.08333333333333333 minutes
Revealing Positions: ['x42']
New board to resolve
1 ? 1 0 0 
2 ? 2 1 1 
? ? 2 ? ? 
? 2 2 ? ? 
? 1 1 ? ? 


Board to resolve
1 ? 1 0 0 
2 ? 2 1 1 
? ? 2 ? ? 
? 2 2 ? ? 
? 1 1 ? ? 


Decided in 0.03333333333333333 minutes
Revealing Positions: ['x11']
Last board to resolve
1 ? 1 0 0 
2 ? 2 1 1 
? ? 2 ? ? 
? 2 2 ? ? 
? 1 1 ? ? 


LOST!
Finished in 0.5666666666666667 minutes


------------------------------
Playing Minesweeper with Bayesian Networks
Minesweeper Board: Num x = 5 ; Num y = 5 ; Mines = 7


Resolved Board Created
* 2 1 0 0 
2 * 1 0 0 
2 3 4 3 2 
2 * * * * 
2 * 4 3 2 


Board to resolve
? 2 ? ? ? 
? ? ? ? ? 
? ? ? ? ? 
? ? ? ? ? 
? ? ? ? ? 


Decided in 0.03333333333333333 minutes
Revealing Positions: ['x03']
New board to resolve
? 2 1 0 0 
? ? 1 0 0 
? ? 4 3 2 
? ? ? ? ? 
? ? ? ? ? 


Board to resolve
? 2 1 0 0 
? ? 1 0 0 
? ? 4 3 2 
? ? ? ? ? 
? ? ? ? ? 


Decided in 0.016666666666666666 minutes
Revealing Positions: ['x21']
New board to resolve
? 2 1 0 0 
? ? 1 0 0 
? 3 4 3 2 
? ? ? ? ? 
? ? ? ? ? 


Board to resolve
? 2 1 0 0 
? ? 1 0 0 
? 3 4 3 2 
? ? ? ? ? 
? ? ? ? ? 


Decided in 0.03333333333333333 minutes
Revealing Positions: ['x10', 'x20', 'x30']
New board to resolve
? 2 1 0 0 
2 ? 1 0 0 
2 3 4 3 2 
2 ? ? ? ? 
? ? ? ? ? 


Board to resolve
? 2 1 0 0 
2 ? 1 0 0 
2 3 4 3 2 
2 ? ? ? ? 
? ? ? ? ? 


Decided in 0.016666666666666666 minutes
Revealing Positions: ['x42']
New board to resolve
? 2 1 0 0 
2 ? 1 0 0 
2 3 4 3 2 
2 ? ? ? ? 
? ? 4 ? ? 


Board to resolve
? 2 1 0 0 
2 ? 1 0 0 
2 3 4 3 2 
2 ? ? ? ? 
? ? 4 ? ? 


Decided in 0.0 minutes
Revealing Positions: ['x44']
New board to resolve
? 2 1 0 0 
2 ? 1 0 0 
2 3 4 3 2 
2 ? ? ? ? 
? ? 4 ? 2 


Board to resolve
? 2 1 0 0 
2 ? 1 0 0 
2 3 4 3 2 
2 ? ? ? ? 
? ? 4 ? 2 


Decided in 0.016666666666666666 minutes
Revealing Positions: ['x40', 'x43']
New board to resolve
? 2 1 0 0 
2 ? 1 0 0 
2 3 4 3 2 
2 ? ? ? ? 
2 ? 4 3 2 


WON!
Times lost: 2
Finished in 0.11666666666666667 minutes


------------------------------
Playing Minesweeper with Bayesian Networks
Minesweeper Board: Num x = 5 ; Num y = 5 ; Mines = 7


Resolved Board Created
0 0 0 1 1 
0 1 2 4 * 
0 1 * * * 
2 3 4 * 3 
* * 2 1 1 


Board to resolve
0 0 0 1 ? 
0 1 2 4 ? 
0 1 ? ? ? 
2 3 ? ? ? 
? ? ? ? ? 


Decided in 0.03333333333333333 minutes
Revealing Positions: ['x32', 'x42']
New board to resolve
0 0 0 1 ? 
0 1 2 4 ? 
0 1 ? ? ? 
2 3 4 ? ? 
? ? 2 ? ? 


Board to resolve
0 0 0 1 ? 
0 1 2 4 ? 
0 1 ? ? ? 
2 3 4 ? ? 
? ? 2 ? ? 


Decided in 0.016666666666666666 minutes
Revealing Positions: ['x34']
New board to resolve
0 0 0 1 ? 
0 1 2 4 ? 
0 1 ? ? ? 
2 3 4 ? 3 
? ? 2 ? ? 


Board to resolve
0 0 0 1 ? 
0 1 2 4 ? 
0 1 ? ? ? 
2 3 4 ? 3 
? ? 2 ? ? 


Decided in 0.016666666666666666 minutes
Revealing Positions: ['x44']
New board to resolve
0 0 0 1 ? 
0 1 2 4 ? 
0 1 ? ? ? 
2 3 4 ? 3 
? ? 2 ? 1 


Board to resolve
0 0 0 1 ? 
0 1 2 4 ? 
0 1 ? ? ? 
2 3 4 ? 3 
? ? 2 ? 1 


Decided in 0.016666666666666666 minutes
Revealing Positions: ['x04']
New board to resolve
0 0 0 1 1 
0 1 2 4 ? 
0 1 ? ? ? 
2 3 4 ? 3 
? ? 2 ? 1 


Board to resolve
0 0 0 1 1 
0 1 2 4 ? 
0 1 ? ? ? 
2 3 4 ? 3 
? ? 2 ? 1 


Decided in 0.0 minutes
Revealing Positions: ['x33']
Last board to resolve
0 0 0 1 1 
0 1 2 4 ? 
0 1 ? ? ? 
2 3 4 ? 3 
? ? 2 ? 1 


LOST!
Finished in 0.08333333333333333 minutes


------------------------------
Playing Minesweeper with Bayesian Networks
Minesweeper Board: Num x = 5 ; Num y = 5 ; Mines = 7


Resolved Board Created
* 2 2 * 1 
2 * 3 2 2 
1 1 2 * 2 
1 2 2 3 * 
* 2 * 2 1 


Board to resolve
? 2 ? ? ? 
? ? ? ? ? 
? ? ? ? ? 
? ? ? ? ? 
? ? ? ? ? 


Decided in 0.016666666666666666 minutes
Revealing Positions: ['x03']
Last board to resolve
? 2 ? ? ? 
? ? ? ? ? 
? ? ? ? ? 
? ? ? ? ? 
? ? ? ? ? 


LOST!
Finished in 0.016666666666666666 minutes


------------------------------
Playing Minesweeper with Bayesian Networks
Minesweeper Board: Num x = 5 ; Num y = 5 ; Mines = 7


Resolved Board Created
0 0 1 * * 
0 0 1 3 * 
1 2 2 3 2 
* 2 * * 2 
1 2 2 3 * 


Board to resolve
0 0 1 ? ? 
0 0 1 ? ? 
1 2 2 ? ? 
? ? ? ? ? 
? ? ? ? ? 


Decided in 0.03333333333333333 minutes
Revealing Positions: ['x23']
New board to resolve
0 0 1 ? ? 
0 0 1 ? ? 
1 2 2 3 ? 
? ? ? ? ? 
? ? ? ? ? 


Board to resolve
0 0 1 ? ? 
0 0 1 ? ? 
1 2 2 3 ? 
? ? ? ? ? 
? ? ? ? ? 


Decided in 0.05 minutes
Revealing Positions: ['x31']
New board to resolve
0 0 1 ? ? 
0 0 1 ? ? 
1 2 2 3 ? 
? 2 ? ? ? 
? ? ? ? ? 


Board to resolve
0 0 1 ? ? 
0 0 1 ? ? 
1 2 2 3 ? 
? 2 ? ? ? 
? ? ? ? ? 


Decided in 0.05 minutes
Revealing Positions: ['x40', 'x41', 'x42']
New board to resolve
0 0 1 ? ? 
0 0 1 ? ? 
1 2 2 3 ? 
? 2 ? ? ? 
1 2 2 ? ? 


Board to resolve
0 0 1 ? ? 
0 0 1 ? ? 
1 2 2 3 ? 
? 2 ? ? ? 
1 2 2 ? ? 


Decided in 0.03333333333333333 minutes
Revealing Positions: ['x14']
Last board to resolve
0 0 1 ? ? 
0 0 1 ? ? 
1 2 2 3 ? 
? 2 ? ? ? 
1 2 2 ? ? 


LOST!
Finished in 0.16666666666666666 minutes


------------------------------
Playing Minesweeper with Bayesian Networks
Minesweeper Board: Num x = 5 ; Num y = 5 ; Mines = 7


Resolved Board Created
0 1 2 3 2 
0 1 * * * 
0 2 4 6 * 
0 2 * * 2 
0 2 * 3 1 


Board to resolve
0 1 ? ? ? 
0 1 ? ? ? 
0 2 ? ? ? 
0 2 ? ? ? 
0 2 ? ? ? 


Decided in 0.016666666666666666 minutes
Revealing Positions: ['x02', 'x22']
New board to resolve
0 1 2 ? ? 
0 1 ? ? ? 
0 2 4 ? ? 
0 2 ? ? ? 
0 2 ? ? ? 


Board to resolve
0 1 2 ? ? 
0 1 ? ? ? 
0 2 4 ? ? 
0 2 ? ? ? 
0 2 ? ? ? 


Decided in 0.016666666666666666 minutes
Revealing Positions: ['x03']
New board to resolve
0 1 2 3 ? 
0 1 ? ? ? 
0 2 4 ? ? 
0 2 ? ? ? 
0 2 ? ? ? 


Board to resolve
0 1 2 3 ? 
0 1 ? ? ? 
0 2 4 ? ? 
0 2 ? ? ? 
0 2 ? ? ? 


Decided in 0.016666666666666666 minutes
Revealing Positions: ['x24']
Last board to resolve
0 1 2 3 ? 
0 1 ? ? ? 
0 2 4 ? ? 
0 2 ? ? ? 
0 2 ? ? ? 


LOST!
Finished in 0.05 minutes


------------------------------
Playing Minesweeper with Bayesian Networks
Minesweeper Board: Num x = 5 ; Num y = 5 ; Mines = 7


Resolved Board Created
* 1 0 1 1 
1 1 0 2 * 
2 3 2 3 * 
* * * 3 2 
2 3 3 * 1 


Board to resolve
? 1 ? ? ? 
? ? ? ? ? 
? ? ? ? ? 
? ? ? ? ? 
? ? ? ? ? 


Decided in 0.016666666666666666 minutes
Revealing Positions: ['x00']
Last board to resolve
? 1 ? ? ? 
? ? ? ? ? 
? ? ? ? ? 
? ? ? ? ? 
? ? ? ? ? 


LOST!
Finished in 0.016666666666666666 minutes


------------------------------
Playing Minesweeper with Bayesian Networks
Minesweeper Board: Num x = 5 ; Num y = 5 ; Mines = 7


Resolved Board Created
* 2 1 * 2 
* 3 2 3 * 
1 3 * 3 1 
0 3 * 3 0 
0 2 * 2 0 


Board to resolve
? 2 ? ? ? 
? ? ? ? ? 
? ? ? ? ? 
? ? ? ? ? 
? ? ? ? ? 


Decided in 0.016666666666666666 minutes
Revealing Positions: ['x03']
Last board to resolve
? 2 ? ? ? 
? ? ? ? ? 
? ? ? ? ? 
? ? ? ? ? 
? ? ? ? ? 


LOST!
Finished in 0.016666666666666666 minutes


------------------------------
Playing Minesweeper with Bayesian Networks
Minesweeper Board: Num x = 5 ; Num y = 5 ; Mines = 7


Resolved Board Created
1 * 3 3 2 
1 2 * * * 
1 2 4 * 4 
1 * 2 2 * 
1 1 1 1 1 


Board to resolve
1 ? ? ? ? 
? ? ? ? ? 
? ? ? ? ? 
? ? ? ? ? 
? ? ? ? ? 


Decided in 0.016666666666666666 minutes
Revealing Positions: ['x02']
New board to resolve
1 ? 3 ? ? 
? ? ? ? ? 
? ? ? ? ? 
? ? ? ? ? 
? ? ? ? ? 


Board to resolve
1 ? 3 ? ? 
? ? ? ? ? 
? ? ? ? ? 
? ? ? ? ? 
? ? ? ? ? 


Decided in 0.016666666666666666 minutes
Revealing Positions: ['x10']
New board to resolve
1 ? 3 ? ? 
1 ? ? ? ? 
? ? ? ? ? 
? ? ? ? ? 
? ? ? ? ? 


Board to resolve
1 ? 3 ? ? 
1 ? ? ? ? 
? ? ? ? ? 
? ? ? ? ? 
? ? ? ? ? 


Decided in 0.03333333333333333 minutes
Revealing Positions: ['x20', 'x21']
New board to resolve
1 ? 3 ? ? 
1 ? ? ? ? 
1 2 ? ? ? 
? ? ? ? ? 
? ? ? ? ? 


Board to resolve
1 ? 3 ? ? 
1 ? ? ? ? 
1 2 ? ? ? 
? ? ? ? ? 
? ? ? ? ? 


Decided in 0.08333333333333333 minutes
Revealing Positions: ['x22']
New board to resolve
1 ? 3 ? ? 
1 ? ? ? ? 
1 2 4 ? ? 
? ? ? ? ? 
? ? ? ? ? 


Board to resolve
1 ? 3 ? ? 
1 ? ? ? ? 
1 2 4 ? ? 
? ? ? ? ? 
? ? ? ? ? 


Decided in 0.11666666666666667 minutes
Revealing Positions: ['x30']
New board to resolve
1 ? 3 ? ? 
1 ? ? ? ? 
1 2 4 ? ? 
1 ? ? ? ? 
? ? ? ? ? 


Board to resolve
1 ? 3 ? ? 
1 ? ? ? ? 
1 2 4 ? ? 
1 ? ? ? ? 
? ? ? ? ? 


Decided in 0.11666666666666667 minutes
Revealing Positions: ['x32']
New board to resolve
1 ? 3 ? ? 
1 ? ? ? ? 
1 2 4 ? ? 
1 ? 2 ? ? 
? ? ? ? ? 


Board to resolve
1 ? 3 ? ? 
1 ? ? ? ? 
1 2 4 ? ? 
1 ? 2 ? ? 
? ? ? ? ? 


Decided in 0.13333333333333333 minutes
Revealing Positions: ['x03']
New board to resolve
1 ? 3 3 ? 
1 ? ? ? ? 
1 2 4 ? ? 
1 ? 2 ? ? 
? ? ? ? ? 


Board to resolve
1 ? 3 3 ? 
1 ? ? ? ? 
1 2 4 ? ? 
1 ? 2 ? ? 
? ? ? ? ? 


Decided in 0.11666666666666667 minutes
Revealing Positions: ['x42']
New board to resolve
1 ? 3 3 ? 
1 ? ? ? ? 
1 2 4 ? ? 
1 ? 2 ? ? 
? ? 1 ? ? 


Board to resolve
1 ? 3 3 ? 
1 ? ? ? ? 
1 2 4 ? ? 
1 ? 2 ? ? 
? ? 1 ? ? 


Decided in 0.08333333333333333 minutes
Revealing Positions: ['x33']
New board to resolve
1 ? 3 3 ? 
1 ? ? ? ? 
1 2 4 ? ? 
1 ? 2 2 ? 
? ? 1 ? ? 


Board to resolve
1 ? 3 3 ? 
1 ? ? ? ? 
1 2 4 ? ? 
1 ? 2 2 ? 
? ? 1 ? ? 


Decided in 0.11666666666666667 minutes
Revealing Positions: ['x40']
New board to resolve
1 ? 3 3 ? 
1 ? ? ? ? 
1 2 4 ? ? 
1 ? 2 2 ? 
1 ? 1 ? ? 


Board to resolve
1 ? 3 3 ? 
1 ? ? ? ? 
1 2 4 ? ? 
1 ? 2 2 ? 
1 ? 1 ? ? 


Decided in 0.06666666666666667 minutes
Revealing Positions: ['x43']
New board to resolve
1 ? 3 3 ? 
1 ? ? ? ? 
1 2 4 ? ? 
1 ? 2 2 ? 
1 ? 1 1 ? 


Board to resolve
1 ? 3 3 ? 
1 ? ? ? ? 
1 2 4 ? ? 
1 ? 2 2 ? 
1 ? 1 1 ? 


Decided in 0.05 minutes
Revealing Positions: ['x24']
New board to resolve
1 ? 3 3 ? 
1 ? ? ? ? 
1 2 4 ? 4 
1 ? 2 2 ? 
1 ? 1 1 ? 


Board to resolve
1 ? 3 3 ? 
1 ? ? ? ? 
1 2 4 ? 4 
1 ? 2 2 ? 
1 ? 1 1 ? 


Decided in 0.03333333333333333 minutes
Revealing Positions: ['x04', 'x44']
New board to resolve
1 ? 3 3 2 
1 ? ? ? ? 
1 2 4 ? 4 
1 ? 2 2 ? 
1 ? 1 1 1 


Board to resolve
1 ? 3 3 2 
1 ? ? ? ? 
1 2 4 ? 4 
1 ? 2 2 ? 
1 ? 1 1 1 


Decided in 0.016666666666666666 minutes
Revealing Positions: ['x01']
Last board to resolve
1 ? 3 3 2 
1 ? ? ? ? 
1 2 4 ? 4 
1 ? 2 2 ? 
1 ? 1 1 1 


LOST!
Finished in 1.0 minutes


------------------------------
Playing Minesweeper with Bayesian Networks
Minesweeper Board: Num x = 5 ; Num y = 5 ; Mines = 7


Resolved Board Created
0 1 * * * 
0 2 3 4 2 
0 1 * 1 0 
0 2 3 4 2 
0 1 * * * 


Board to resolve
0 1 ? ? ? 
0 2 ? ? ? 
0 1 ? ? ? 
0 2 ? ? ? 
0 1 ? ? ? 


Decided in 0.0 minutes
Revealing Positions: ['x12', 'x32']
New board to resolve
0 1 ? ? ? 
0 2 3 ? ? 
0 1 ? ? ? 
0 2 3 ? ? 
0 1 ? ? ? 


Board to resolve
0 1 ? ? ? 
0 2 3 ? ? 
0 1 ? ? ? 
0 2 3 ? ? 
0 1 ? ? ? 


Decided in 0.03333333333333333 minutes
Revealing Positions: ['x04']
Last board to resolve
0 1 ? ? ? 
0 2 3 ? ? 
0 1 ? ? ? 
0 2 3 ? ? 
0 1 ? ? ? 


LOST!
Finished in 0.03333333333333333 minutes


------------------------------
Playing Minesweeper with Bayesian Networks
Minesweeper Board: Num x = 5 ; Num y = 5 ; Mines = 7


Resolved Board Created
2 * 2 1 1 
3 * 2 1 * 
* 4 2 2 1 
* 3 * 2 1 
1 2 2 * 1 


Board to resolve
2 ? ? ? ? 
? ? ? ? ? 
? ? ? ? ? 
? ? ? ? ? 
? ? ? ? ? 


Decided in 0.0 minutes
Revealing Positions: ['x02']
New board to resolve
2 ? 2 ? ? 
? ? ? ? ? 
? ? ? ? ? 
? ? ? ? ? 
? ? ? ? ? 


Board to resolve
2 ? 2 ? ? 
? ? ? ? ? 
? ? ? ? ? 
? ? ? ? ? 
? ? ? ? ? 


Decided in 0.03333333333333333 minutes
Revealing Positions: ['x03']
New board to resolve
2 ? 2 1 ? 
? ? ? ? ? 
? ? ? ? ? 
? ? ? ? ? 
? ? ? ? ? 


Board to resolve
2 ? 2 1 ? 
? ? ? ? ? 
? ? ? ? ? 
? ? ? ? ? 
? ? ? ? ? 


Decided in 0.016666666666666666 minutes
Revealing Positions: ['x04']
New board to resolve
2 ? 2 1 1 
? ? ? ? ? 
? ? ? ? ? 
? ? ? ? ? 
? ? ? ? ? 


Board to resolve
2 ? 2 1 1 
? ? ? ? ? 
? ? ? ? ? 
? ? ? ? ? 
? ? ? ? ? 


Decided in 0.016666666666666666 minutes
Revealing Positions: ['x12']
New board to resolve
2 ? 2 1 1 
? ? 2 ? ? 
? ? ? ? ? 
? ? ? ? ? 
? ? ? ? ? 


Board to resolve
2 ? 2 1 1 
? ? 2 ? ? 
? ? ? ? ? 
? ? ? ? ? 
? ? ? ? ? 


Decided in 0.05 minutes
Revealing Positions: ['x21', 'x22', 'x23']
New board to resolve
2 ? 2 1 1 
? ? 2 ? ? 
? 4 2 2 ? 
? ? ? ? ? 
? ? ? ? ? 


Board to resolve
2 ? 2 1 1 
? ? 2 ? ? 
? 4 2 2 ? 
? ? ? ? ? 
? ? ? ? ? 


Decided in 0.15 minutes
Revealing Positions: ['x33']
New board to resolve
2 ? 2 1 1 
? ? 2 ? ? 
? 4 2 2 ? 
? ? ? 2 ? 
? ? ? ? ? 


Board to resolve
2 ? 2 1 1 
? ? 2 ? ? 
? 4 2 2 ? 
? ? ? 2 ? 
? ? ? ? ? 


Decided in 0.13333333333333333 minutes
Revealing Positions: ['x31']
New board to resolve
2 ? 2 1 1 
? ? 2 ? ? 
? 4 2 2 ? 
? 3 ? 2 ? 
? ? ? ? ? 


Board to resolve
2 ? 2 1 1 
? ? 2 ? ? 
? 4 2 2 ? 
? 3 ? 2 ? 
? ? ? ? ? 


Decided in 0.35 minutes
Revealing Positions: ['x14']
Last board to resolve
2 ? 2 1 1 
? ? 2 ? ? 
? 4 2 2 ? 
? 3 ? 2 ? 
? ? ? ? ? 


LOST!
Finished in 0.75 minutes


------------------------------
Playing Minesweeper with Bayesian Networks
Minesweeper Board: Num x = 5 ; Num y = 5 ; Mines = 7


Resolved Board Created
1 1 2 * * 
1 * 3 3 2 
1 2 * 2 1 
0 1 2 4 * 
0 0 1 * * 


Board to resolve
1 ? ? ? ? 
? ? ? ? ? 
? ? ? ? ? 
? ? ? ? ? 
? ? ? ? ? 


Decided in 0.016666666666666666 minutes
Revealing Positions: ['x02']
New board to resolve
1 ? 2 ? ? 
? ? ? ? ? 
? ? ? ? ? 
? ? ? ? ? 
? ? ? ? ? 


Board to resolve
1 ? 2 ? ? 
? ? ? ? ? 
? ? ? ? ? 
? ? ? ? ? 
? ? ? ? ? 


Decided in 0.016666666666666666 minutes
Revealing Positions: ['x10']
New board to resolve
1 ? 2 ? ? 
1 ? ? ? ? 
? ? ? ? ? 
? ? ? ? ? 
? ? ? ? ? 


Board to resolve
1 ? 2 ? ? 
1 ? ? ? ? 
? ? ? ? ? 
? ? ? ? ? 
? ? ? ? ? 


Decided in 0.03333333333333333 minutes
Revealing Positions: ['x20', 'x21']
New board to resolve
1 ? 2 ? ? 
1 ? ? ? ? 
1 2 ? ? ? 
? ? ? ? ? 
? ? ? ? ? 


Board to resolve
1 ? 2 ? ? 
1 ? ? ? ? 
1 2 ? ? ? 
? ? ? ? ? 
? ? ? ? ? 


Decided in 0.08333333333333333 minutes
Revealing Positions: ['x30']
New board to resolve
1 ? 2 ? ? 
1 ? ? ? ? 
1 2 ? ? ? 
0 1 2 ? ? 
0 0 1 ? ? 


Board to resolve
1 ? 2 ? ? 
1 ? ? ? ? 
1 2 ? ? ? 
0 1 2 ? ? 
0 0 1 ? ? 


Decided in 0.03333333333333333 minutes
Revealing Positions: ['x01', 'x12', 'x23']
New board to resolve
1 1 2 ? ? 
1 ? 3 ? ? 
1 2 ? 2 ? 
0 1 2 ? ? 
0 0 1 ? ? 


Board to resolve
1 1 2 ? ? 
1 ? 3 ? ? 
1 2 ? 2 ? 
0 1 2 ? ? 
0 0 1 ? ? 


Decided in 0.03333333333333333 minutes
Revealing Positions: ['x14']
New board to resolve
1 1 2 ? ? 
1 ? 3 ? 2 
1 2 ? 2 ? 
0 1 2 ? ? 
0 0 1 ? ? 


Board to resolve
1 1 2 ? ? 
1 ? 3 ? 2 
1 2 ? 2 ? 
0 1 2 ? ? 
0 0 1 ? ? 


Decided in 0.016666666666666666 minutes
Revealing Positions: ['x13']
New board to resolve
1 1 2 ? ? 
1 ? 3 3 2 
1 2 ? 2 ? 
0 1 2 ? ? 
0 0 1 ? ? 


Board to resolve
1 1 2 ? ? 
1 ? 3 3 2 
1 2 ? 2 ? 
0 1 2 ? ? 
0 0 1 ? ? 


Decided in 0.016666666666666666 minutes
Revealing Positions: ['x24']
New board to resolve
1 1 2 ? ? 
1 ? 3 3 2 
1 2 ? 2 1 
0 1 2 ? ? 
0 0 1 ? ? 


Board to resolve
1 1 2 ? ? 
1 ? 3 3 2 
1 2 ? 2 1 
0 1 2 ? ? 
0 0 1 ? ? 


Decided in 0.0 minutes
Revealing Positions: ['x33']
New board to resolve
1 1 2 ? ? 
1 ? 3 3 2 
1 2 ? 2 1 
0 1 2 4 ? 
0 0 1 ? ? 


WON!
Times lost: 9
Finished in 0.25 minutes


------------------------------
Playing Minesweeper with Bayesian Networks
Minesweeper Board: Num x = 5 ; Num y = 5 ; Mines = 7


Resolved Board Created
* 2 2 2 1 
1 2 * * 2 
2 3 5 * 3 
* * 3 * 2 
2 2 2 1 1 


Board to resolve
? 2 ? ? ? 
? ? ? ? ? 
? ? ? ? ? 
? ? ? ? ? 
? ? ? ? ? 


Decided in 0.016666666666666666 minutes
Revealing Positions: ['x03']
New board to resolve
? 2 ? 2 ? 
? ? ? ? ? 
? ? ? ? ? 
? ? ? ? ? 
? ? ? ? ? 


Board to resolve
? 2 ? 2 ? 
? ? ? ? ? 
? ? ? ? ? 
? ? ? ? ? 
? ? ? ? ? 


Decided in 0.05 minutes
Revealing Positions: ['x20']
New board to resolve
? 2 ? 2 ? 
? ? ? ? ? 
2 ? ? ? ? 
? ? ? ? ? 
? ? ? ? ? 


Board to resolve
? 2 ? 2 ? 
? ? ? ? ? 
2 ? ? ? ? 
? ? ? ? ? 
? ? ? ? ? 


Decided in 0.05 minutes
Revealing Positions: ['x00']
Last board to resolve
? 2 ? 2 ? 
? ? ? ? ? 
2 ? ? ? ? 
? ? ? ? ? 
? ? ? ? ? 


LOST!
Finished in 0.11666666666666667 minutes


------------------------------
Playing Minesweeper with Bayesian Networks
Minesweeper Board: Num x = 5 ; Num y = 5 ; Mines = 7


Resolved Board Created
* 1 2 * 2 
2 2 3 * 2 
1 * 3 3 3 
1 1 2 * * 
0 0 1 3 * 


Board to resolve
? 1 ? ? ? 
? ? ? ? ? 
? ? ? ? ? 
? ? ? ? ? 
? ? ? ? ? 


Decided in 0.016666666666666666 minutes
Revealing Positions: ['x00']
Last board to resolve
? 1 ? ? ? 
? ? ? ? ? 
? ? ? ? ? 
? ? ? ? ? 
? ? ? ? ? 


LOST!
Finished in 0.016666666666666666 minutes


------------------------------
Playing Minesweeper with Bayesian Networks
Minesweeper Board: Num x = 5 ; Num y = 5 ; Mines = 7


Resolved Board Created
* 2 * * 1 
2 3 2 2 1 
* 2 1 1 1 
* 3 1 * 1 
* 2 1 1 1 


Board to resolve
? 2 ? ? ? 
? ? ? ? ? 
? ? ? ? ? 
? ? ? ? ? 
? ? ? ? ? 


Decided in 0.016666666666666666 minutes
Revealing Positions: ['x03']
Last board to resolve
? 2 ? ? ? 
? ? ? ? ? 
? ? ? ? ? 
? ? ? ? ? 
? ? ? ? ? 


LOST!
Finished in 0.016666666666666666 minutes


------------------------------
Playing Minesweeper with Bayesian Networks
Minesweeper Board: Num x = 5 ; Num y = 5 ; Mines = 7


Resolved Board Created
0 2 * * 2 
0 3 * * 2 
0 2 * 4 2 
0 1 2 3 * 
0 0 1 * 2 


Board to resolve
0 2 ? ? ? 
0 3 ? ? ? 
0 2 ? ? ? 
0 1 2 ? ? 
0 0 1 ? ? 


Decided in 0.016666666666666666 minutes
Revealing Positions: ['x23']
New board to resolve
0 2 ? ? ? 
0 3 ? ? ? 
0 2 ? 4 ? 
0 1 2 ? ? 
0 0 1 ? ? 


Board to resolve
0 2 ? ? ? 
0 3 ? ? ? 
0 2 ? 4 ? 
0 1 2 ? ? 
0 0 1 ? ? 


Decided in 0.05 minutes
Revealing Positions: ['x03']
Last board to resolve
0 2 ? ? ? 
0 3 ? ? ? 
0 2 ? 4 ? 
0 1 2 ? ? 
0 0 1 ? ? 


LOST!
Finished in 0.06666666666666667 minutes


------------------------------
Playing Minesweeper with Bayesian Networks
Minesweeper Board: Num x = 5 ; Num y = 5 ; Mines = 7


Resolved Board Created
* 3 1 1 1 
* * 1 1 * 
* 3 1 1 1 
1 1 1 2 2 
0 0 1 * * 


Board to resolve
? 3 ? ? ? 
? ? ? ? ? 
? ? ? ? ? 
? ? ? ? ? 
? ? ? ? ? 


Decided in 0.016666666666666666 minutes
Revealing Positions: ['x03']
New board to resolve
? 3 ? 1 ? 
? ? ? ? ? 
? ? ? ? ? 
? ? ? ? ? 
? ? ? ? ? 


Board to resolve
? 3 ? 1 ? 
? ? ? ? ? 
? ? ? ? ? 
? ? ? ? ? 
? ? ? ? ? 


Decided in 0.03333333333333333 minutes
Revealing Positions: ['x04']
New board to resolve
? 3 ? 1 1 
? ? ? ? ? 
? ? ? ? ? 
? ? ? ? ? 
? ? ? ? ? 


Board to resolve
? 3 ? 1 1 
? ? ? ? ? 
? ? ? ? ? 
? ? ? ? ? 
? ? ? ? ? 


Decided in 0.03333333333333333 minutes
Revealing Positions: ['x02', 'x12']
New board to resolve
? 3 1 1 1 
? ? 1 ? ? 
? ? ? ? ? 
? ? ? ? ? 
? ? ? ? ? 


Board to resolve
? 3 1 1 1 
? ? 1 ? ? 
? ? ? ? ? 
? ? ? ? ? 
? ? ? ? ? 


Decided in 0.016666666666666666 minutes
Revealing Positions: ['x13', 'x21', 'x22', 'x23']
New board to resolve
? 3 1 1 1 
? ? 1 1 ? 
? 3 1 1 ? 
? ? ? ? ? 
? ? ? ? ? 


Board to resolve
? 3 1 1 1 
? ? 1 1 ? 
? 3 1 1 ? 
? ? ? ? ? 
? ? ? ? ? 


Decided in 0.06666666666666667 minutes
Revealing Positions: ['x24', 'x31', 'x32', 'x33', 'x34']
New board to resolve
? 3 1 1 1 
? ? 1 1 ? 
? 3 1 1 1 
? 1 1 2 2 
? ? ? ? ? 


Board to resolve
? 3 1 1 1 
? ? 1 1 ? 
? 3 1 1 1 
? 1 1 2 2 
? ? ? ? ? 


Decided in 0.016666666666666666 minutes
Revealing Positions: ['x40', 'x41', 'x42']
New board to resolve
? 3 1 1 1 
? ? 1 1 ? 
? 3 1 1 1 
1 1 1 2 2 
0 0 1 ? ? 


WON!
Times lost: 4
Finished in 0.18333333333333332 minutes


------------------------------
Playing Minesweeper with Bayesian Networks
Minesweeper Board: Num x = 5 ; Num y = 5 ; Mines = 7


Resolved Board Created
* 2 1 * 2 
* 3 1 2 * 
* 3 1 1 1 
2 * 2 1 1 
1 1 2 * 1 


Board to resolve
? 2 ? ? ? 
? ? ? ? ? 
? ? ? ? ? 
? ? ? ? ? 
? ? ? ? ? 


Decided in 0.016666666666666666 minutes
Revealing Positions: ['x03']
Last board to resolve
? 2 ? ? ? 
? ? ? ? ? 
? ? ? ? ? 
? ? ? ? ? 
? ? ? ? ? 


LOST!
Finished in 0.016666666666666666 minutes


------------------------------
Playing Minesweeper with Bayesian Networks
Minesweeper Board: Num x = 5 ; Num y = 5 ; Mines = 7


Resolved Board Created
1 * 2 3 * 
1 2 * 4 * 
0 1 3 * 3 
0 0 3 * 3 
0 0 2 * 2 


Board to resolve
1 ? ? ? ? 
? ? ? ? ? 
? ? ? ? ? 
? ? ? ? ? 
? ? ? ? ? 


Decided in 0.0 minutes
Revealing Positions: ['x02']
New board to resolve
1 ? 2 ? ? 
? ? ? ? ? 
? ? ? ? ? 
? ? ? ? ? 
? ? ? ? ? 


Board to resolve
1 ? 2 ? ? 
? ? ? ? ? 
? ? ? ? ? 
? ? ? ? ? 
? ? ? ? ? 


Decided in 0.03333333333333333 minutes
Revealing Positions: ['x10']
New board to resolve
1 ? 2 ? ? 
1 ? ? ? ? 
? ? ? ? ? 
? ? ? ? ? 
? ? ? ? ? 


Board to resolve
1 ? 2 ? ? 
1 ? ? ? ? 
? ? ? ? ? 
? ? ? ? ? 
? ? ? ? ? 


Decided in 0.03333333333333333 minutes
Revealing Positions: ['x20', 'x21']
New board to resolve
1 ? 2 ? ? 
1 2 ? ? ? 
0 1 3 ? ? 
0 0 3 ? ? 
0 0 2 ? ? 


Board to resolve
1 ? 2 ? ? 
1 2 ? ? ? 
0 1 3 ? ? 
0 0 3 ? ? 
0 0 2 ? ? 


Decided in 0.016666666666666666 minutes
Revealing Positions: ['x03', 'x13']
New board to resolve
1 ? 2 3 ? 
1 2 ? 4 ? 
0 1 3 ? ? 
0 0 3 ? ? 
0 0 2 ? ? 


Board to resolve
1 ? 2 3 ? 
1 2 ? 4 ? 
0 1 3 ? ? 
0 0 3 ? ? 
0 0 2 ? ? 


Decided in 0.0 minutes
Revealing Positions: ['x24']
New board to resolve
1 ? 2 3 ? 
1 2 ? 4 ? 
0 1 3 ? 3 
0 0 3 ? ? 
0 0 2 ? ? 


Board to resolve
1 ? 2 3 ? 
1 2 ? 4 ? 
0 1 3 ? 3 
0 0 3 ? ? 
0 0 2 ? ? 


Decided in 0.0 minutes
Revealing Positions: ['x34', 'x44']
New board to resolve
1 ? 2 3 ? 
1 2 ? 4 ? 
0 1 3 ? 3 
0 0 3 ? 3 
0 0 2 ? 2 


WON!
Times lost: 1
Finished in 0.08333333333333333 minutes


------------------------------
Playing Minesweeper with Bayesian Networks
Minesweeper Board: Num x = 5 ; Num y = 5 ; Mines = 7


Resolved Board Created
2 * 3 2 * 
3 * 4 * 2 
* 4 * 2 1 
2 * 2 1 0 
1 1 1 0 0 


Board to resolve
2 ? ? ? ? 
? ? ? ? ? 
? ? ? ? ? 
? ? ? ? ? 
? ? ? ? ? 


Decided in 0.016666666666666666 minutes
Revealing Positions: ['x02']
New board to resolve
2 ? 3 ? ? 
? ? ? ? ? 
? ? ? ? ? 
? ? ? ? ? 
? ? ? ? ? 


Board to resolve
2 ? 3 ? ? 
? ? ? ? ? 
? ? ? ? ? 
? ? ? ? ? 
? ? ? ? ? 


Decided in 0.016666666666666666 minutes
Revealing Positions: ['x04']
Last board to resolve
2 ? 3 ? ? 
? ? ? ? ? 
? ? ? ? ? 
? ? ? ? ? 
? ? ? ? ? 


LOST!
Finished in 0.03333333333333333 minutes


------------------------------
Playing Minesweeper with Bayesian Networks
Minesweeper Board: Num x = 5 ; Num y = 5 ; Mines = 7


Resolved Board Created
2 2 1 0 0 
* * 2 1 1 
4 * 2 1 * 
* 3 2 2 2 
2 * 1 1 * 


Board to resolve
2 ? ? ? ? 
? ? ? ? ? 
? ? ? ? ? 
? ? ? ? ? 
? ? ? ? ? 


Decided in 0.0 minutes
Revealing Positions: ['x02']
New board to resolve
2 ? 1 ? ? 
? ? ? ? ? 
? ? ? ? ? 
? ? ? ? ? 
? ? ? ? ? 


Board to resolve
2 ? 1 ? ? 
? ? ? ? ? 
? ? ? ? ? 
? ? ? ? ? 
? ? ? ? ? 


Decided in 0.03333333333333333 minutes
Revealing Positions: ['x03', 'x12', 'x13']
New board to resolve
2 ? 1 0 0 
? ? 2 1 1 
? ? ? ? ? 
? ? ? ? ? 
? ? ? ? ? 


Board to resolve
2 ? 1 0 0 
? ? 2 1 1 
? ? ? ? ? 
? ? ? ? ? 
? ? ? ? ? 


Decided in 0.016666666666666666 minutes
Revealing Positions: ['x22']
New board to resolve
2 ? 1 0 0 
? ? 2 1 1 
? ? 2 ? ? 
? ? ? ? ? 
? ? ? ? ? 


Board to resolve
2 ? 1 0 0 
? ? 2 1 1 
? ? 2 ? ? 
? ? ? ? ? 
? ? ? ? ? 


Decided in 0.06666666666666667 minutes
Revealing Positions: ['x31']
New board to resolve
2 ? 1 0 0 
? ? 2 1 1 
? ? 2 ? ? 
? 3 ? ? ? 
? ? ? ? ? 


Board to resolve
2 ? 1 0 0 
? ? 2 1 1 
? ? 2 ? ? 
? 3 ? ? ? 
? ? ? ? ? 


Decided in 0.15 minutes
Revealing Positions: ['x33']
New board to resolve
2 ? 1 0 0 
? ? 2 1 1 
? ? 2 ? ? 
? 3 ? 2 ? 
? ? ? ? ? 


Board to resolve
2 ? 1 0 0 
? ? 2 1 1 
? ? 2 ? ? 
? 3 ? 2 ? 
? ? ? ? ? 


Decided in 0.31666666666666665 minutes
Revealing Positions: ['x34']
New board to resolve
2 ? 1 0 0 
? ? 2 1 1 
? ? 2 ? ? 
? 3 ? 2 2 
? ? ? ? ? 


Board to resolve
2 ? 1 0 0 
? ? 2 1 1 
? ? 2 ? ? 
? 3 ? 2 2 
? ? ? ? ? 


Decided in 0.2 minutes
Revealing Positions: ['x01', 'x32', 'x42']
New board to resolve
2 2 1 0 0 
? ? 2 1 1 
? ? 2 ? ? 
? 3 2 2 2 
? ? 1 ? ? 


Board to resolve
2 2 1 0 0 
? ? 2 1 1 
? ? 2 ? ? 
? 3 2 2 2 
? ? 1 ? ? 


Decided in 0.03333333333333333 minutes
Revealing Positions: ['x43']
New board to resolve
2 2 1 0 0 
? ? 2 1 1 
? ? 2 ? ? 
? 3 2 2 2 
? ? 1 1 ? 


Board to resolve
2 2 1 0 0 
? ? 2 1 1 
? ? 2 ? ? 
? 3 2 2 2 
? ? 1 1 ? 


Decided in 0.016666666666666666 minutes
Revealing Positions: ['x20']
New board to resolve
2 2 1 0 0 
? ? 2 1 1 
4 ? 2 ? ? 
? 3 2 2 2 
? ? 1 1 ? 


Board to resolve
2 2 1 0 0 
? ? 2 1 1 
4 ? 2 ? ? 
? 3 2 2 2 
? ? 1 1 ? 


Decided in 0.016666666666666666 minutes
Revealing Positions: ['x23', 'x40']
New board to resolve
2 2 1 0 0 
? ? 2 1 1 
4 ? 2 1 ? 
? 3 2 2 2 
2 ? 1 1 ? 


WON!
Times lost: 1
Finished in 0.85 minutes


------------------------------
Playing Minesweeper with Bayesian Networks
Minesweeper Board: Num x = 5 ; Num y = 5 ; Mines = 7


Resolved Board Created
* 2 1 1 1 
* 2 1 * 1 
1 2 2 3 2 
0 1 * 4 * 
0 1 2 * * 


Board to resolve
? 2 ? ? ? 
? ? ? ? ? 
? ? ? ? ? 
? ? ? ? ? 
? ? ? ? ? 


Decided in 0.016666666666666666 minutes
Revealing Positions: ['x03']
New board to resolve
? 2 ? 1 ? 
? ? ? ? ? 
? ? ? ? ? 
? ? ? ? ? 
? ? ? ? ? 


Board to resolve
? 2 ? 1 ? 
? ? ? ? ? 
? ? ? ? ? 
? ? ? ? ? 
? ? ? ? ? 


Decided in 0.03333333333333333 minutes
Revealing Positions: ['x04']
New board to resolve
? 2 ? 1 1 
? ? ? ? ? 
? ? ? ? ? 
? ? ? ? ? 
? ? ? ? ? 


Board to resolve
? 2 ? 1 1 
? ? ? ? ? 
? ? ? ? ? 
? ? ? ? ? 
? ? ? ? ? 


Decided in 0.03333333333333333 minutes
Revealing Positions: ['x02', 'x12']
New board to resolve
? 2 1 1 1 
? ? 1 ? ? 
? ? ? ? ? 
? ? ? ? ? 
? ? ? ? ? 


Board to resolve
? 2 1 1 1 
? ? 1 ? ? 
? ? ? ? ? 
? ? ? ? ? 
? ? ? ? ? 


Decided in 0.016666666666666666 minutes
Revealing Positions: ['x21', 'x22', 'x23']
New board to resolve
? 2 1 1 1 
? ? 1 ? ? 
? 2 2 3 ? 
? ? ? ? ? 
? ? ? ? ? 


Board to resolve
? 2 1 1 1 
? ? 1 ? ? 
? 2 2 3 ? 
? ? ? ? ? 
? ? ? ? ? 


Decided in 0.13333333333333333 minutes
Revealing Positions: ['x31']
New board to resolve
? 2 1 1 1 
? ? 1 ? ? 
? 2 2 3 ? 
? 1 ? ? ? 
? ? ? ? ? 


Board to resolve
? 2 1 1 1 
? ? 1 ? ? 
? 2 2 3 ? 
? 1 ? ? ? 
? ? ? ? ? 


Decided in 0.13333333333333333 minutes
Revealing Positions: ['x40']
New board to resolve
? 2 1 1 1 
? ? 1 ? ? 
1 2 2 3 ? 
0 1 ? ? ? 
0 1 ? ? ? 


Board to resolve
? 2 1 1 1 
? ? 1 ? ? 
1 2 2 3 ? 
0 1 ? ? ? 
0 1 ? ? ? 


Decided in 0.05 minutes
Revealing Positions: ['x33', 'x42']
New board to resolve
? 2 1 1 1 
? ? 1 ? ? 
1 2 2 3 ? 
0 1 ? 4 ? 
0 1 2 ? ? 


Board to resolve
? 2 1 1 1 
? ? 1 ? ? 
1 2 2 3 ? 
0 1 ? 4 ? 
0 1 2 ? ? 


Decided in 0.03333333333333333 minutes
Revealing Positions: ['x10']
Last board to resolve
? 2 1 1 1 
? ? 1 ? ? 
1 2 2 3 ? 
0 1 ? 4 ? 
0 1 2 ? ? 


LOST!
Finished in 0.45 minutes


------------------------------
Playing Minesweeper with Bayesian Networks
Minesweeper Board: Num x = 5 ; Num y = 5 ; Mines = 7


Resolved Board Created
2 * * 2 * 
* 4 4 4 2 
1 2 * * 1 
0 1 3 3 2 
0 0 1 * 1 


Board to resolve
2 ? ? ? ? 
? ? ? ? ? 
? ? ? ? ? 
? ? ? ? ? 
? ? ? ? ? 


Decided in 0.0 minutes
Revealing Positions: ['x02']
Last board to resolve
2 ? ? ? ? 
? ? ? ? ? 
? ? ? ? ? 
? ? ? ? ? 
? ? ? ? ? 


LOST!
Finished in 0.0 minutes


------------------------------
Playing Minesweeper with Bayesian Networks
Minesweeper Board: Num x = 5 ; Num y = 5 ; Mines = 7


Resolved Board Created
0 2 * 3 * 
0 2 * 3 1 
1 2 2 2 1 
* 3 2 * 1 
* * 2 1 1 


Board to resolve
0 2 ? ? ? 
0 2 ? ? ? 
1 2 ? ? ? 
? ? ? ? ? 
? ? ? ? ? 


Decided in 0.03333333333333333 minutes
Revealing Positions: ['x22', 'x32']
New board to resolve
0 2 ? ? ? 
0 2 ? ? ? 
1 2 2 ? ? 
? ? 2 ? ? 
? ? ? ? ? 


Board to resolve
0 2 ? ? ? 
0 2 ? ? ? 
1 2 2 ? ? 
? ? 2 ? ? 
? ? ? ? ? 


Decided in 0.06666666666666667 minutes
Revealing Positions: ['x13']
New board to resolve
0 2 ? ? ? 
0 2 ? 3 ? 
1 2 2 ? ? 
? ? 2 ? ? 
? ? ? ? ? 


Board to resolve
0 2 ? ? ? 
0 2 ? 3 ? 
1 2 2 ? ? 
? ? 2 ? ? 
? ? ? ? ? 


Decided in 0.11666666666666667 minutes
Revealing Positions: ['x23']
New board to resolve
0 2 ? ? ? 
0 2 ? 3 ? 
1 2 2 2 ? 
? ? 2 ? ? 
? ? ? ? ? 


Board to resolve
0 2 ? ? ? 
0 2 ? 3 ? 
1 2 2 2 ? 
? ? 2 ? ? 
? ? ? ? ? 


Decided in 0.15 minutes
Revealing Positions: ['x03']
New board to resolve
0 2 ? 3 ? 
0 2 ? 3 ? 
1 2 2 2 ? 
? ? 2 ? ? 
? ? ? ? ? 


Board to resolve
0 2 ? 3 ? 
0 2 ? 3 ? 
1 2 2 2 ? 
? ? 2 ? ? 
? ? ? ? ? 


Decided in 0.1 minutes
Revealing Positions: ['x24']
New board to resolve
0 2 ? 3 ? 
0 2 ? 3 ? 
1 2 2 2 1 
? ? 2 ? ? 
? ? ? ? ? 


Board to resolve
0 2 ? 3 ? 
0 2 ? 3 ? 
1 2 2 2 1 
? ? 2 ? ? 
? ? ? ? ? 


Decided in 0.05 minutes
Revealing Positions: ['x33']
Last board to resolve
0 2 ? 3 ? 
0 2 ? 3 ? 
1 2 2 2 1 
? ? 2 ? ? 
? ? ? ? ? 


LOST!
Finished in 0.5166666666666667 minutes


------------------------------
Playing Minesweeper with Bayesian Networks
Minesweeper Board: Num x = 5 ; Num y = 5 ; Mines = 7


Resolved Board Created
1 * 2 * 1 
1 1 2 1 1 
1 1 0 1 1 
* 3 3 3 * 
2 * * * 2 


Board to resolve
1 ? ? ? ? 
? ? ? ? ? 
? ? ? ? ? 
? ? ? ? ? 
? ? ? ? ? 


Decided in 0.0 minutes
Revealing Positions: ['x02']
New board to resolve
1 ? 2 ? ? 
? ? ? ? ? 
? ? ? ? ? 
? ? ? ? ? 
? ? ? ? ? 


Board to resolve
1 ? 2 ? ? 
? ? ? ? ? 
? ? ? ? ? 
? ? ? ? ? 
? ? ? ? ? 


Decided in 0.016666666666666666 minutes
Revealing Positions: ['x10']
New board to resolve
1 ? 2 ? ? 
1 ? ? ? ? 
? ? ? ? ? 
? ? ? ? ? 
? ? ? ? ? 


Board to resolve
1 ? 2 ? ? 
1 ? ? ? ? 
? ? ? ? ? 
? ? ? ? ? 
? ? ? ? ? 


Decided in 0.03333333333333333 minutes
Revealing Positions: ['x20', 'x21']
New board to resolve
1 ? 2 ? ? 
1 ? ? ? ? 
1 1 ? ? ? 
? ? ? ? ? 
? ? ? ? ? 


Board to resolve
1 ? 2 ? ? 
1 ? ? ? ? 
1 1 ? ? ? 
? ? ? ? ? 
? ? ? ? ? 


Decided in 0.08333333333333333 minutes
Revealing Positions: ['x12', 'x22', 'x32']
New board to resolve
1 ? 2 ? ? 
1 1 2 1 ? 
1 1 0 1 ? 
? 3 3 3 ? 
? ? ? ? ? 


Board to resolve
1 ? 2 ? ? 
1 1 2 1 ? 
1 1 0 1 ? 
? 3 3 3 ? 
? ? ? ? ? 


Decided in 0.06666666666666667 minutes
Revealing Positions: ['x04', 'x14', 'x24', 'x40', 'x44']
New board to resolve
1 ? 2 ? 1 
1 1 2 1 1 
1 1 0 1 1 
? 3 3 3 ? 
2 ? ? ? 2 


WON!
Times lost: 3
Finished in 0.2 minutes


------------------------------
Playing Minesweeper with Bayesian Networks
Minesweeper Board: Num x = 5 ; Num y = 5 ; Mines = 7


Resolved Board Created
2 3 2 2 1 
* * * 3 * 
2 3 3 * 3 
1 1 1 2 * 
* 1 0 1 1 


Board to resolve
2 ? ? ? ? 
? ? ? ? ? 
? ? ? ? ? 
? ? ? ? ? 
? ? ? ? ? 


Decided in 0.0 minutes
Revealing Positions: ['x02']
New board to resolve
2 ? 2 ? ? 
? ? ? ? ? 
? ? ? ? ? 
? ? ? ? ? 
? ? ? ? ? 


Board to resolve
2 ? 2 ? ? 
? ? ? ? ? 
? ? ? ? ? 
? ? ? ? ? 
? ? ? ? ? 


Decided in 0.016666666666666666 minutes
Revealing Positions: ['x03']
New board to resolve
2 ? 2 2 ? 
? ? ? ? ? 
? ? ? ? ? 
? ? ? ? ? 
? ? ? ? ? 


Board to resolve
2 ? 2 2 ? 
? ? ? ? ? 
? ? ? ? ? 
? ? ? ? ? 
? ? ? ? ? 


Decided in 0.03333333333333333 minutes
Revealing Positions: ['x20']
New board to resolve
2 ? 2 2 ? 
? ? ? ? ? 
2 ? ? ? ? 
? ? ? ? ? 
? ? ? ? ? 


Board to resolve
2 ? 2 2 ? 
? ? ? ? ? 
2 ? ? ? ? 
? ? ? ? ? 
? ? ? ? ? 


Decided in 0.03333333333333333 minutes
Revealing Positions: ['x21']
New board to resolve
2 ? 2 2 ? 
? ? ? ? ? 
2 3 ? ? ? 
? ? ? ? ? 
? ? ? ? ? 


Board to resolve
2 ? 2 2 ? 
? ? ? ? ? 
2 3 ? ? ? 
? ? ? ? ? 
? ? ? ? ? 


Decided in 0.11666666666666667 minutes
Revealing Positions: ['x22']
New board to resolve
2 ? 2 2 ? 
? ? ? ? ? 
2 3 3 ? ? 
? ? ? ? ? 
? ? ? ? ? 


Board to resolve
2 ? 2 2 ? 
? ? ? ? ? 
2 3 3 ? ? 
? ? ? ? ? 
? ? ? ? ? 


Decided in 0.15 minutes
Revealing Positions: ['x30']
New board to resolve
2 ? 2 2 ? 
? ? ? ? ? 
2 3 3 ? ? 
1 ? ? ? ? 
? ? ? ? ? 


Board to resolve
2 ? 2 2 ? 
? ? ? ? ? 
2 3 3 ? ? 
1 ? ? ? ? 
? ? ? ? ? 


Decided in 0.15 minutes
Revealing Positions: ['x13']
New board to resolve
2 ? 2 2 ? 
? ? ? 3 ? 
2 3 3 ? ? 
1 ? ? ? ? 
? ? ? ? ? 


Board to resolve
2 ? 2 2 ? 
? ? ? 3 ? 
2 3 3 ? ? 
1 ? ? ? ? 
? ? ? ? ? 


Decided in 0.11666666666666667 minutes
Revealing Positions: ['x32']
New board to resolve
2 ? 2 2 ? 
? ? ? 3 ? 
2 3 3 ? ? 
1 ? 1 ? ? 
? ? ? ? ? 


Board to resolve
2 ? 2 2 ? 
? ? ? 3 ? 
2 3 3 ? ? 
1 ? 1 ? ? 
? ? ? ? ? 


Decided in 0.13333333333333333 minutes
Revealing Positions: ['x01', 'x31', 'x41', 'x42', 'x43']
New board to resolve
2 3 2 2 ? 
? ? ? 3 ? 
2 3 3 ? ? 
1 1 1 2 ? 
? 1 0 1 ? 


Board to resolve
2 3 2 2 ? 
? ? ? 3 ? 
2 3 3 ? ? 
1 1 1 2 ? 
? 1 0 1 ? 


Decided in 0.016666666666666666 minutes
Revealing Positions: ['x24']
New board to resolve
2 3 2 2 ? 
? ? ? 3 ? 
2 3 3 ? 3 
1 1 1 2 ? 
? 1 0 1 ? 


Board to resolve
2 3 2 2 ? 
? ? ? 3 ? 
2 3 3 ? 3 
1 1 1 2 ? 
? 1 0 1 ? 


Decided in 0.0 minutes
Revealing Positions: ['x04', 'x44']
New board to resolve
2 3 2 2 1 
? ? ? 3 ? 
2 3 3 ? 3 
1 1 1 2 ? 
? 1 0 1 1 


WON!
Times lost: 0
Finished in 0.7666666666666667 minutes


------------------------------
Playing Minesweeper with Bayesian Networks
Minesweeper Board: Num x = 5 ; Num y = 5 ; Mines = 7


Resolved Board Created
* 2 1 2 1 
1 3 * 4 * 
0 2 * * 3 
1 2 3 3 * 
1 * 1 1 1 


Board to resolve
? 2 ? ? ? 
? ? ? ? ? 
? ? ? ? ? 
? ? ? ? ? 
? ? ? ? ? 


Decided in 0.03333333333333333 minutes
Revealing Positions: ['x03']
New board to resolve
? 2 ? 2 ? 
? ? ? ? ? 
? ? ? ? ? 
? ? ? ? ? 
? ? ? ? ? 


Board to resolve
? 2 ? 2 ? 
? ? ? ? ? 
? ? ? ? ? 
? ? ? ? ? 
? ? ? ? ? 


Decided in 0.03333333333333333 minutes
Revealing Positions: ['x20']
New board to resolve
? 2 ? 2 ? 
1 3 ? ? ? 
0 2 ? ? ? 
1 2 ? ? ? 
? ? ? ? ? 


Board to resolve
? 2 ? 2 ? 
1 3 ? ? ? 
0 2 ? ? ? 
1 2 ? ? ? 
? ? ? ? ? 


Decided in 0.05 minutes
Revealing Positions: ['x02', 'x32', 'x42']
New board to resolve
? 2 1 2 ? 
1 3 ? ? ? 
0 2 ? ? ? 
1 2 3 ? ? 
? ? 1 ? ? 


Board to resolve
? 2 1 2 ? 
1 3 ? ? ? 
0 2 ? ? ? 
1 2 3 ? ? 
? ? 1 ? ? 


Decided in 0.03333333333333333 minutes
Revealing Positions: ['x13']
New board to resolve
? 2 1 2 ? 
1 3 ? 4 ? 
0 2 ? ? ? 
1 2 3 ? ? 
? ? 1 ? ? 


Board to resolve
? 2 1 2 ? 
1 3 ? 4 ? 
0 2 ? ? ? 
1 2 3 ? ? 
? ? 1 ? ? 


Decided in 0.03333333333333333 minutes
Revealing Positions: ['x24']
New board to resolve
? 2 1 2 ? 
1 3 ? 4 ? 
0 2 ? ? 3 
1 2 3 ? ? 
? ? 1 ? ? 


Board to resolve
? 2 1 2 ? 
1 3 ? 4 ? 
0 2 ? ? 3 
1 2 3 ? ? 
? ? 1 ? ? 


Decided in 0.03333333333333333 minutes
Revealing Positions: ['x04']
New board to resolve
? 2 1 2 1 
1 3 ? 4 ? 
0 2 ? ? 3 
1 2 3 ? ? 
? ? 1 ? ? 


Board to resolve
? 2 1 2 1 
1 3 ? 4 ? 
0 2 ? ? 3 
1 2 3 ? ? 
? ? 1 ? ? 


Decided in 0.016666666666666666 minutes
Revealing Positions: ['x43']
New board to resolve
? 2 1 2 1 
1 3 ? 4 ? 
0 2 ? ? 3 
1 2 3 ? ? 
? ? 1 1 ? 


Board to resolve
? 2 1 2 1 
1 3 ? 4 ? 
0 2 ? ? 3 
1 2 3 ? ? 
? ? 1 1 ? 


Decided in 0.016666666666666666 minutes
Revealing Positions: ['x44']
New board to resolve
? 2 1 2 1 
1 3 ? 4 ? 
0 2 ? ? 3 
1 2 3 ? ? 
? ? 1 1 1 


Board to resolve
? 2 1 2 1 
1 3 ? 4 ? 
0 2 ? ? 3 
1 2 3 ? ? 
? ? 1 1 1 


Decided in 0.0 minutes
Revealing Positions: ['x33']
New board to resolve
? 2 1 2 1 
1 3 ? 4 ? 
0 2 ? ? 3 
1 2 3 3 ? 
? ? 1 1 1 


Board to resolve
? 2 1 2 1 
1 3 ? 4 ? 
0 2 ? ? 3 
1 2 3 3 ? 
? ? 1 1 1 


Decided in 0.016666666666666666 minutes
Revealing Positions: ['x40']
New board to resolve
? 2 1 2 1 
1 3 ? 4 ? 
0 2 ? ? 3 
1 2 3 3 ? 
1 ? 1 1 1 


WON!
Times lost: 0
Finished in 0.26666666666666666 minutes

Finished playing 10 times
Board: Num x = 5 ; Num y = 5 ; Mines = 7
Total loses counts: [1, 7, 2, 9, 4, 1, 1, 3, 0, 0]
Total times: [0.18333333333333332, 0.1, 0.11666666666666667, 0.25, 0.18333333333333332, 0.08333333333333333, 0.85, 0.2, 0.7666666666666667, 0.26666666666666666]
Average loses: 2.8
Average time: 0.3
