--------------- Log file for Minesweeper Game Artificial Intelligence with Bayesian Network
--------------- 
--------------- Date: 2018-06-28T21:29:29




------------------------------
Playing Minesweeper with Bayesian Networks
Minesweeper Board: Num x = 10 ; Num y = 10 ; Mines = 20


Resolved Board Created
0 0 0 0 0 1 * 2 1 0 
0 1 1 2 2 3 4 * 3 1 
0 1 * 2 * * 4 * 4 * 
0 1 1 2 2 3 * 4 5 * 
1 2 1 2 2 3 3 * * 3 
* 2 * 2 * * 2 3 * 2 
1 2 1 2 2 2 1 1 1 1 
1 1 1 1 1 1 0 1 1 1 
1 * 1 1 * 1 0 1 * 2 
1 1 1 1 1 1 0 1 2 * 


Board to resolve
0 0 0 0 0 1 ? ? ? ? 
0 1 1 2 2 3 ? ? ? ? 
0 1 ? ? ? ? ? ? ? ? 
0 1 ? ? ? ? ? ? ? ? 
1 2 ? ? ? ? ? ? ? ? 
? ? ? ? ? ? ? ? ? ? 
? ? ? ? ? ? ? ? ? ? 
? ? ? ? ? ? ? ? ? ? 
? ? ? ? ? ? ? ? ? ? 
? ? ? ? ? ? ? ? ? ? 


Decided in 0.03333333333333333 minutes
Revealing Positions: ['x23', 'x26', 'x32', 'x42']
New board to resolve
0 0 0 0 0 1 ? ? ? ? 
0 1 1 2 2 3 ? ? ? ? 
0 1 ? 2 ? ? 4 ? ? ? 
0 1 1 ? ? ? ? ? ? ? 
1 2 1 ? ? ? ? ? ? ? 
? ? ? ? ? ? ? ? ? ? 
? ? ? ? ? ? ? ? ? ? 
? ? ? ? ? ? ? ? ? ? 
? ? ? ? ? ? ? ? ? ? 
? ? ? ? ? ? ? ? ? ? 


Board to resolve
0 0 0 0 0 1 ? ? ? ? 
0 1 1 2 2 3 ? ? ? ? 
0 1 ? 2 ? ? 4 ? ? ? 
0 1 1 ? ? ? ? ? ? ? 
1 2 1 ? ? ? ? ? ? ? 
? ? ? ? ? ? ? ? ? ? 
? ? ? ? ? ? ? ? ? ? 
? ? ? ? ? ? ? ? ? ? 
? ? ? ? ? ? ? ? ? ? 
? ? ? ? ? ? ? ? ? ? 


Decided in 0.1 minutes
Revealing Positions: ['x33', 'x34', 'x43', 'x51', 'x53']
New board to resolve
0 0 0 0 0 1 ? ? ? ? 
0 1 1 2 2 3 ? ? ? ? 
0 1 ? 2 ? ? 4 ? ? ? 
0 1 1 2 2 ? ? ? ? ? 
1 2 1 2 ? ? ? ? ? ? 
? 2 ? 2 ? ? ? ? ? ? 
? ? ? ? ? ? ? ? ? ? 
? ? ? ? ? ? ? ? ? ? 
? ? ? ? ? ? ? ? ? ? 
? ? ? ? ? ? ? ? ? ? 


Board to resolve
0 0 0 0 0 1 ? ? ? ? 
0 1 1 2 2 3 ? ? ? ? 
0 1 ? 2 ? ? 4 ? ? ? 
0 1 1 2 2 ? ? ? ? ? 
1 2 1 2 ? ? ? ? ? ? 
? 2 ? 2 ? ? ? ? ? ? 
? ? ? ? ? ? ? ? ? ? 
? ? ? ? ? ? ? ? ? ? 
? ? ? ? ? ? ? ? ? ? 
? ? ? ? ? ? ? ? ? ? 


Decided in 0.2 minutes
Revealing Positions: ['x35', 'x44', 'x45', 'x60', 'x61', 'x62', 'x63', 'x64']
New board to resolve
0 0 0 0 0 1 ? ? ? ? 
0 1 1 2 2 3 ? ? ? ? 
0 1 ? 2 ? ? 4 ? ? ? 
0 1 1 2 2 3 ? ? ? ? 
1 2 1 2 2 3 ? ? ? ? 
? 2 ? 2 ? ? ? ? ? ? 
1 2 1 2 2 ? ? ? ? ? 
? ? ? ? ? ? ? ? ? ? 
? ? ? ? ? ? ? ? ? ? 
? ? ? ? ? ? ? ? ? ? 


Board to resolve
0 0 0 0 0 1 ? ? ? ? 
0 1 1 2 2 3 ? ? ? ? 
0 1 ? 2 ? ? 4 ? ? ? 
0 1 1 2 2 3 ? ? ? ? 
1 2 1 2 2 3 ? ? ? ? 
? 2 ? 2 ? ? ? ? ? ? 
1 2 1 2 2 ? ? ? ? ? 
? ? ? ? ? ? ? ? ? ? 
? ? ? ? ? ? ? ? ? ? 
? ? ? ? ? ? ? ? ? ? 


Decided in 0.2 minutes
Revealing Positions: ['x56', 'x65', 'x70', 'x71', 'x72', 'x73', 'x74', 'x75']
New board to resolve
0 0 0 0 0 1 ? ? ? ? 
0 1 1 2 2 3 ? ? ? ? 
0 1 ? 2 ? ? 4 ? ? ? 
0 1 1 2 2 3 ? ? ? ? 
1 2 1 2 2 3 ? ? ? ? 
? 2 ? 2 ? ? 2 ? ? ? 
1 2 1 2 2 2 ? ? ? ? 
1 1 1 1 1 1 ? ? ? ? 
? ? ? ? ? ? ? ? ? ? 
? ? ? ? ? ? ? ? ? ? 


Board to resolve
0 0 0 0 0 1 ? ? ? ? 
0 1 1 2 2 3 ? ? ? ? 
0 1 ? 2 ? ? 4 ? ? ? 
0 1 1 2 2 3 ? ? ? ? 
1 2 1 2 2 3 ? ? ? ? 
? 2 ? 2 ? ? 2 ? ? ? 
1 2 1 2 2 2 ? ? ? ? 
1 1 1 1 1 1 ? ? ? ? 
? ? ? ? ? ? ? ? ? ? 
? ? ? ? ? ? ? ? ? ? 


Decided in 0.3 minutes
Revealing Positions: ['x66', 'x76', 'x82', 'x85']
New board to resolve
0 0 0 0 0 1 ? ? ? ? 
0 1 1 2 2 3 ? ? ? ? 
0 1 ? 2 ? ? 4 ? ? ? 
0 1 1 2 2 3 ? ? ? ? 
1 2 1 2 2 3 ? ? ? ? 
? 2 ? 2 ? ? 2 ? ? ? 
1 2 1 2 2 2 1 1 ? ? 
1 1 1 1 1 1 0 1 ? ? 
? ? 1 ? ? 1 0 1 ? ? 
? ? ? ? ? 1 0 1 ? ? 


Board to resolve
0 0 0 0 0 1 ? ? ? ? 
0 1 1 2 2 3 ? ? ? ? 
0 1 ? 2 ? ? 4 ? ? ? 
0 1 1 2 2 3 ? ? ? ? 
1 2 1 2 2 3 ? ? ? ? 
? 2 ? 2 ? ? 2 ? ? ? 
1 2 1 2 2 2 1 1 ? ? 
1 1 1 1 1 1 0 1 ? ? 
? ? 1 ? ? 1 0 1 ? ? 
? ? ? ? ? 1 0 1 ? ? 


Decided in 0.16666666666666666 minutes
Revealing Positions: ['x57', 'x78', 'x80', 'x83', 'x91', 'x92', 'x93', 'x94']
New board to resolve
0 0 0 0 0 1 ? ? ? ? 
0 1 1 2 2 3 ? ? ? ? 
0 1 ? 2 ? ? 4 ? ? ? 
0 1 1 2 2 3 ? ? ? ? 
1 2 1 2 2 3 ? ? ? ? 
? 2 ? 2 ? ? 2 3 ? ? 
1 2 1 2 2 2 1 1 ? ? 
1 1 1 1 1 1 0 1 1 ? 
1 ? 1 1 ? 1 0 1 ? ? 
? 1 1 1 1 1 0 1 ? ? 


Board to resolve
0 0 0 0 0 1 ? ? ? ? 
0 1 1 2 2 3 ? ? ? ? 
0 1 ? 2 ? ? 4 ? ? ? 
0 1 1 2 2 3 ? ? ? ? 
1 2 1 2 2 3 ? ? ? ? 
? 2 ? 2 ? ? 2 3 ? ? 
1 2 1 2 2 2 1 1 ? ? 
1 1 1 1 1 1 0 1 1 ? 
1 ? 1 1 ? 1 0 1 ? ? 
? 1 1 1 1 1 0 1 ? ? 


Decided in 0.23333333333333334 minutes
Revealing Positions: ['x69', 'x79', 'x89', 'x90']
New board to resolve
0 0 0 0 0 1 ? ? ? ? 
0 1 1 2 2 3 ? ? ? ? 
0 1 ? 2 ? ? 4 ? ? ? 
0 1 1 2 2 3 ? ? ? ? 
1 2 1 2 2 3 ? ? ? ? 
? 2 ? 2 ? ? 2 3 ? ? 
1 2 1 2 2 2 1 1 ? 1 
1 1 1 1 1 1 0 1 1 1 
1 ? 1 1 ? 1 0 1 ? 2 
1 1 1 1 1 1 0 1 ? ? 


Board to resolve
0 0 0 0 0 1 ? ? ? ? 
0 1 1 2 2 3 ? ? ? ? 
0 1 ? 2 ? ? 4 ? ? ? 
0 1 1 2 2 3 ? ? ? ? 
1 2 1 2 2 3 ? ? ? ? 
? 2 ? 2 ? ? 2 3 ? ? 
1 2 1 2 2 2 1 1 ? 1 
1 1 1 1 1 1 0 1 1 1 
1 ? 1 1 ? 1 0 1 ? 2 
1 1 1 1 1 1 0 1 ? ? 


Decided in 0.1 minutes
Revealing Positions: ['x59']
New board to resolve
0 0 0 0 0 1 ? ? ? ? 
0 1 1 2 2 3 ? ? ? ? 
0 1 ? 2 ? ? 4 ? ? ? 
0 1 1 2 2 3 ? ? ? ? 
1 2 1 2 2 3 ? ? ? ? 
? 2 ? 2 ? ? 2 3 ? 2 
1 2 1 2 2 2 1 1 ? 1 
1 1 1 1 1 1 0 1 1 1 
1 ? 1 1 ? 1 0 1 ? 2 
1 1 1 1 1 1 0 1 ? ? 


Board to resolve
0 0 0 0 0 1 ? ? ? ? 
0 1 1 2 2 3 ? ? ? ? 
0 1 ? 2 ? ? 4 ? ? ? 
0 1 1 2 2 3 ? ? ? ? 
1 2 1 2 2 3 ? ? ? ? 
? 2 ? 2 ? ? 2 3 ? 2 
1 2 1 2 2 2 1 1 ? 1 
1 1 1 1 1 1 0 1 1 1 
1 ? 1 1 ? 1 0 1 ? 2 
1 1 1 1 1 1 0 1 ? ? 


Decided in 0.1 minutes
Revealing Positions: ['x49']
New board to resolve
0 0 0 0 0 1 ? ? ? ? 
0 1 1 2 2 3 ? ? ? ? 
0 1 ? 2 ? ? 4 ? ? ? 
0 1 1 2 2 3 ? ? ? ? 
1 2 1 2 2 3 ? ? ? 3 
? 2 ? 2 ? ? 2 3 ? 2 
1 2 1 2 2 2 1 1 ? 1 
1 1 1 1 1 1 0 1 1 1 
1 ? 1 1 ? 1 0 1 ? 2 
1 1 1 1 1 1 0 1 ? ? 


Board to resolve
0 0 0 0 0 1 ? ? ? ? 
0 1 1 2 2 3 ? ? ? ? 
0 1 ? 2 ? ? 4 ? ? ? 
0 1 1 2 2 3 ? ? ? ? 
1 2 1 2 2 3 ? ? ? 3 
? 2 ? 2 ? ? 2 3 ? 2 
1 2 1 2 2 2 1 1 ? 1 
1 1 1 1 1 1 0 1 1 1 
1 ? 1 1 ? 1 0 1 ? 2 
1 1 1 1 1 1 0 1 ? ? 


Decided in 0.13333333333333333 minutes
Revealing Positions: ['x68']
New board to resolve
0 0 0 0 0 1 ? ? ? ? 
0 1 1 2 2 3 ? ? ? ? 
0 1 ? 2 ? ? 4 ? ? ? 
0 1 1 2 2 3 ? ? ? ? 
1 2 1 2 2 3 ? ? ? 3 
? 2 ? 2 ? ? 2 3 ? 2 
1 2 1 2 2 2 1 1 1 1 
1 1 1 1 1 1 0 1 1 1 
1 ? 1 1 ? 1 0 1 ? 2 
1 1 1 1 1 1 0 1 ? ? 


Board to resolve
0 0 0 0 0 1 ? ? ? ? 
0 1 1 2 2 3 ? ? ? ? 
0 1 ? 2 ? ? 4 ? ? ? 
0 1 1 2 2 3 ? ? ? ? 
1 2 1 2 2 3 ? ? ? 3 
? 2 ? 2 ? ? 2 3 ? 2 
1 2 1 2 2 2 1 1 1 1 
1 1 1 1 1 1 0 1 1 1 
1 ? 1 1 ? 1 0 1 ? 2 
1 1 1 1 1 1 0 1 ? ? 


Decided in 0.08333333333333333 minutes
Revealing Positions: ['x98']
New board to resolve
0 0 0 0 0 1 ? ? ? ? 
0 1 1 2 2 3 ? ? ? ? 
0 1 ? 2 ? ? 4 ? ? ? 
0 1 1 2 2 3 ? ? ? ? 
1 2 1 2 2 3 ? ? ? 3 
? 2 ? 2 ? ? 2 3 ? 2 
1 2 1 2 2 2 1 1 1 1 
1 1 1 1 1 1 0 1 1 1 
1 ? 1 1 ? 1 0 1 ? 2 
1 1 1 1 1 1 0 1 2 ? 


Board to resolve
0 0 0 0 0 1 ? ? ? ? 
0 1 1 2 2 3 ? ? ? ? 
0 1 ? 2 ? ? 4 ? ? ? 
0 1 1 2 2 3 ? ? ? ? 
1 2 1 2 2 3 ? ? ? 3 
? 2 ? 2 ? ? 2 3 ? 2 
1 2 1 2 2 2 1 1 1 1 
1 1 1 1 1 1 0 1 1 1 
1 ? 1 1 ? 1 0 1 ? 2 
1 1 1 1 1 1 0 1 2 ? 


Decided in 0.06666666666666667 minutes
Revealing Positions: ['x06']
Last board to resolve
0 0 0 0 0 1 ? ? ? ? 
0 1 1 2 2 3 ? ? ? ? 
0 1 ? 2 ? ? 4 ? ? ? 
0 1 1 2 2 3 ? ? ? ? 
1 2 1 2 2 3 ? ? ? 3 
? 2 ? 2 ? ? 2 3 ? 2 
1 2 1 2 2 2 1 1 1 1 
1 1 1 1 1 1 0 1 1 1 
1 ? 1 1 ? 1 0 1 ? 2 
1 1 1 1 1 1 0 1 2 ? 


LOST!
Finished in 1.7166666666666666 minutes


------------------------------
Playing Minesweeper with Bayesian Networks
Minesweeper Board: Num x = 10 ; Num y = 10 ; Mines = 20


Resolved Board Created
2 * * 1 1 * 3 3 3 2 
2 * 3 1 1 2 * * * * 
1 1 1 0 0 1 2 4 5 4 
1 1 1 0 0 0 0 1 * * 
2 * 2 0 1 1 2 3 4 3 
2 * 2 1 2 * 3 * * 1 
1 1 1 1 * 4 * 4 2 1 
0 0 0 1 1 3 * 4 2 1 
0 0 0 0 0 1 2 * * 1 
0 0 0 0 0 0 1 2 2 1 


Board to resolve
2 ? ? ? ? ? ? ? ? ? 
? ? ? ? ? ? ? ? ? ? 
? ? ? ? ? ? ? ? ? ? 
? ? ? ? ? ? ? ? ? ? 
? ? ? ? ? ? ? ? ? ? 
? ? ? ? ? ? ? ? ? ? 
? ? ? ? ? ? ? ? ? ? 
? ? ? ? ? ? ? ? ? ? 
? ? ? ? ? ? ? ? ? ? 
? ? ? ? ? ? ? ? ? ? 


Decided in 0.0 minutes
Revealing Positions: ['x02']
Last board to resolve
2 ? ? ? ? ? ? ? ? ? 
? ? ? ? ? ? ? ? ? ? 
? ? ? ? ? ? ? ? ? ? 
? ? ? ? ? ? ? ? ? ? 
? ? ? ? ? ? ? ? ? ? 
? ? ? ? ? ? ? ? ? ? 
? ? ? ? ? ? ? ? ? ? 
? ? ? ? ? ? ? ? ? ? 
? ? ? ? ? ? ? ? ? ? 
? ? ? ? ? ? ? ? ? ? 


LOST!
Finished in 0.0 minutes


------------------------------
Playing Minesweeper with Bayesian Networks
Minesweeper Board: Num x = 10 ; Num y = 10 ; Mines = 20


Resolved Board Created
1 * 2 3 * 2 0 0 1 1 
1 2 * 3 * 2 1 2 3 * 
0 2 2 4 2 2 1 * * 2 
0 1 * 4 * 2 2 4 4 2 
1 2 4 * * 3 1 * * 2 
1 * 3 * * 2 1 2 3 * 
1 1 2 3 3 2 0 1 3 3 
0 0 0 1 * 1 0 1 * * 
0 0 0 1 1 1 0 1 2 2 
0 0 0 0 0 0 0 0 0 0 


Board to resolve
1 ? ? ? ? ? ? ? ? ? 
? ? ? ? ? ? ? ? ? ? 
? ? ? ? ? ? ? ? ? ? 
? ? ? ? ? ? ? ? ? ? 
? ? ? ? ? ? ? ? ? ? 
? ? ? ? ? ? ? ? ? ? 
? ? ? ? ? ? ? ? ? ? 
? ? ? ? ? ? ? ? ? ? 
? ? ? ? ? ? ? ? ? ? 
? ? ? ? ? ? ? ? ? ? 


Decided in 0.0 minutes
Revealing Positions: ['x02']
New board to resolve
1 ? 2 ? ? ? ? ? ? ? 
? ? ? ? ? ? ? ? ? ? 
? ? ? ? ? ? ? ? ? ? 
? ? ? ? ? ? ? ? ? ? 
? ? ? ? ? ? ? ? ? ? 
? ? ? ? ? ? ? ? ? ? 
? ? ? ? ? ? ? ? ? ? 
? ? ? ? ? ? ? ? ? ? 
? ? ? ? ? ? ? ? ? ? 
? ? ? ? ? ? ? ? ? ? 


Board to resolve
1 ? 2 ? ? ? ? ? ? ? 
? ? ? ? ? ? ? ? ? ? 
? ? ? ? ? ? ? ? ? ? 
? ? ? ? ? ? ? ? ? ? 
? ? ? ? ? ? ? ? ? ? 
? ? ? ? ? ? ? ? ? ? 
? ? ? ? ? ? ? ? ? ? 
? ? ? ? ? ? ? ? ? ? 
? ? ? ? ? ? ? ? ? ? 
? ? ? ? ? ? ? ? ? ? 


Decided in 0.016666666666666666 minutes
Revealing Positions: ['x10']
New board to resolve
1 ? 2 ? ? ? ? ? ? ? 
1 ? ? ? ? ? ? ? ? ? 
? ? ? ? ? ? ? ? ? ? 
? ? ? ? ? ? ? ? ? ? 
? ? ? ? ? ? ? ? ? ? 
? ? ? ? ? ? ? ? ? ? 
? ? ? ? ? ? ? ? ? ? 
? ? ? ? ? ? ? ? ? ? 
? ? ? ? ? ? ? ? ? ? 
? ? ? ? ? ? ? ? ? ? 


Board to resolve
1 ? 2 ? ? ? ? ? ? ? 
1 ? ? ? ? ? ? ? ? ? 
? ? ? ? ? ? ? ? ? ? 
? ? ? ? ? ? ? ? ? ? 
? ? ? ? ? ? ? ? ? ? 
? ? ? ? ? ? ? ? ? ? 
? ? ? ? ? ? ? ? ? ? 
? ? ? ? ? ? ? ? ? ? 
? ? ? ? ? ? ? ? ? ? 
? ? ? ? ? ? ? ? ? ? 


Decided in 0.0 minutes
Revealing Positions: ['x20', 'x21']
New board to resolve
1 ? 2 ? ? ? ? ? ? ? 
1 2 ? ? ? ? ? ? ? ? 
0 2 ? ? ? ? ? ? ? ? 
0 1 ? ? ? ? ? ? ? ? 
1 2 ? ? ? ? ? ? ? ? 
? ? ? ? ? ? ? ? ? ? 
? ? ? ? ? ? ? ? ? ? 
? ? ? ? ? ? ? ? ? ? 
? ? ? ? ? ? ? ? ? ? 
? ? ? ? ? ? ? ? ? ? 


Board to resolve
1 ? 2 ? ? ? ? ? ? ? 
1 2 ? ? ? ? ? ? ? ? 
0 2 ? ? ? ? ? ? ? ? 
0 1 ? ? ? ? ? ? ? ? 
1 2 ? ? ? ? ? ? ? ? 
? ? ? ? ? ? ? ? ? ? 
? ? ? ? ? ? ? ? ? ? 
? ? ? ? ? ? ? ? ? ? 
? ? ? ? ? ? ? ? ? ? 
? ? ? ? ? ? ? ? ? ? 


Decided in 0.016666666666666666 minutes
Revealing Positions: ['x03', 'x13', 'x22', 'x42', 'x52']
New board to resolve
1 ? 2 3 ? ? ? ? ? ? 
1 2 ? 3 ? ? ? ? ? ? 
0 2 2 ? ? ? ? ? ? ? 
0 1 ? ? ? ? ? ? ? ? 
1 2 4 ? ? ? ? ? ? ? 
? ? 3 ? ? ? ? ? ? ? 
? ? ? ? ? ? ? ? ? ? 
? ? ? ? ? ? ? ? ? ? 
? ? ? ? ? ? ? ? ? ? 
? ? ? ? ? ? ? ? ? ? 


Board to resolve
1 ? 2 3 ? ? ? ? ? ? 
1 2 ? 3 ? ? ? ? ? ? 
0 2 2 ? ? ? ? ? ? ? 
0 1 ? ? ? ? ? ? ? ? 
1 2 4 ? ? ? ? ? ? ? 
? ? 3 ? ? ? ? ? ? ? 
? ? ? ? ? ? ? ? ? ? 
? ? ? ? ? ? ? ? ? ? 
? ? ? ? ? ? ? ? ? ? 
? ? ? ? ? ? ? ? ? ? 


Decided in 0.08333333333333333 minutes
Revealing Positions: ['x23', 'x24', 'x33', 'x50', 'x61', 'x62', 'x63']
New board to resolve
1 ? 2 3 ? ? ? ? ? ? 
1 2 ? 3 ? ? ? ? ? ? 
0 2 2 4 2 ? ? ? ? ? 
0 1 ? 4 ? ? ? ? ? ? 
1 2 4 ? ? ? ? ? ? ? 
1 ? 3 ? ? ? ? ? ? ? 
? 1 2 3 ? ? ? ? ? ? 
? ? ? ? ? ? ? ? ? ? 
? ? ? ? ? ? ? ? ? ? 
? ? ? ? ? ? ? ? ? ? 


Board to resolve
1 ? 2 3 ? ? ? ? ? ? 
1 2 ? 3 ? ? ? ? ? ? 
0 2 2 4 2 ? ? ? ? ? 
0 1 ? 4 ? ? ? ? ? ? 
1 2 4 ? ? ? ? ? ? ? 
1 ? 3 ? ? ? ? ? ? ? 
? 1 2 3 ? ? ? ? ? ? 
? ? ? ? ? ? ? ? ? ? 
? ? ? ? ? ? ? ? ? ? 
? ? ? ? ? ? ? ? ? ? 


Decided in 0.06666666666666667 minutes
Revealing Positions: ['x15', 'x25', 'x35', 'x60', 'x70', 'x71', 'x72', 'x73']
New board to resolve
1 ? 2 3 ? ? ? ? ? ? 
1 2 ? 3 ? 2 ? ? ? ? 
0 2 2 4 2 2 ? ? ? ? 
0 1 ? 4 ? 2 ? ? ? ? 
1 2 4 ? ? ? ? ? ? ? 
1 ? 3 ? ? 2 1 2 ? ? 
1 1 2 3 ? 2 0 1 ? ? 
0 0 0 1 ? 1 0 1 ? ? 
0 0 0 1 1 1 0 1 2 2 
0 0 0 0 0 0 0 0 0 0 


Board to resolve
1 ? 2 3 ? ? ? ? ? ? 
1 2 ? 3 ? 2 ? ? ? ? 
0 2 2 4 2 2 ? ? ? ? 
0 1 ? 4 ? 2 ? ? ? ? 
1 2 4 ? ? ? ? ? ? ? 
1 ? 3 ? ? 2 1 2 ? ? 
1 1 2 3 ? 2 0 1 ? ? 
0 0 0 1 ? 1 0 1 ? ? 
0 0 0 1 1 1 0 1 2 2 
0 0 0 0 0 0 0 0 0 0 


Decided in 0.2833333333333333 minutes
Revealing Positions: ['x05', 'x06', 'x16', 'x26', 'x36', 'x45', 'x46', 'x58', 'x64', 'x68']
New board to resolve
1 ? 2 3 ? 2 0 0 1 ? 
1 2 ? 3 ? 2 1 2 3 ? 
0 2 2 4 2 2 1 ? ? ? 
0 1 ? 4 ? 2 2 ? ? ? 
1 2 4 ? ? 3 1 ? ? ? 
1 ? 3 ? ? 2 1 2 3 ? 
1 1 2 3 3 2 0 1 3 ? 
0 0 0 1 ? 1 0 1 ? ? 
0 0 0 1 1 1 0 1 2 2 
0 0 0 0 0 0 0 0 0 0 


Board to resolve
1 ? 2 3 ? 2 0 0 1 ? 
1 2 ? 3 ? 2 1 2 3 ? 
0 2 2 4 2 2 1 ? ? ? 
0 1 ? 4 ? 2 2 ? ? ? 
1 2 4 ? ? 3 1 ? ? ? 
1 ? 3 ? ? 2 1 2 3 ? 
1 1 2 3 3 2 0 1 3 ? 
0 0 0 1 ? 1 0 1 ? ? 
0 0 0 1 1 1 0 1 2 2 
0 0 0 0 0 0 0 0 0 0 


Decided in 0.03333333333333333 minutes
Revealing Positions: ['x29', 'x37', 'x49']
New board to resolve
1 ? 2 3 ? 2 0 0 1 ? 
1 2 ? 3 ? 2 1 2 3 ? 
0 2 2 4 2 2 1 ? ? 2 
0 1 ? 4 ? 2 2 4 ? ? 
1 2 4 ? ? 3 1 ? ? 2 
1 ? 3 ? ? 2 1 2 3 ? 
1 1 2 3 3 2 0 1 3 ? 
0 0 0 1 ? 1 0 1 ? ? 
0 0 0 1 1 1 0 1 2 2 
0 0 0 0 0 0 0 0 0 0 


Board to resolve
1 ? 2 3 ? 2 0 0 1 ? 
1 2 ? 3 ? 2 1 2 3 ? 
0 2 2 4 2 2 1 ? ? 2 
0 1 ? 4 ? 2 2 4 ? ? 
1 2 4 ? ? 3 1 ? ? 2 
1 ? 3 ? ? 2 1 2 3 ? 
1 1 2 3 3 2 0 1 3 ? 
0 0 0 1 ? 1 0 1 ? ? 
0 0 0 1 1 1 0 1 2 2 
0 0 0 0 0 0 0 0 0 0 


Decided in 0.016666666666666666 minutes
Revealing Positions: ['x38']
New board to resolve
1 ? 2 3 ? 2 0 0 1 ? 
1 2 ? 3 ? 2 1 2 3 ? 
0 2 2 4 2 2 1 ? ? 2 
0 1 ? 4 ? 2 2 4 4 ? 
1 2 4 ? ? 3 1 ? ? 2 
1 ? 3 ? ? 2 1 2 3 ? 
1 1 2 3 3 2 0 1 3 ? 
0 0 0 1 ? 1 0 1 ? ? 
0 0 0 1 1 1 0 1 2 2 
0 0 0 0 0 0 0 0 0 0 


Board to resolve
1 ? 2 3 ? 2 0 0 1 ? 
1 2 ? 3 ? 2 1 2 3 ? 
0 2 2 4 2 2 1 ? ? 2 
0 1 ? 4 ? 2 2 4 4 ? 
1 2 4 ? ? 3 1 ? ? 2 
1 ? 3 ? ? 2 1 2 3 ? 
1 1 2 3 3 2 0 1 3 ? 
0 0 0 1 ? 1 0 1 ? ? 
0 0 0 1 1 1 0 1 2 2 
0 0 0 0 0 0 0 0 0 0 


Decided in 0.016666666666666666 minutes
Revealing Positions: ['x09', 'x39', 'x69']
New board to resolve
1 ? 2 3 ? 2 0 0 1 1 
1 2 ? 3 ? 2 1 2 3 ? 
0 2 2 4 2 2 1 ? ? 2 
0 1 ? 4 ? 2 2 4 4 2 
1 2 4 ? ? 3 1 ? ? 2 
1 ? 3 ? ? 2 1 2 3 ? 
1 1 2 3 3 2 0 1 3 3 
0 0 0 1 ? 1 0 1 ? ? 
0 0 0 1 1 1 0 1 2 2 
0 0 0 0 0 0 0 0 0 0 


WON!
Times lost: 2
Finished in 0.55 minutes


------------------------------
Playing Minesweeper with Bayesian Networks
Minesweeper Board: Num x = 10 ; Num y = 10 ; Mines = 20


Resolved Board Created
0 0 0 1 1 3 * 4 * 1 
0 0 0 1 * 3 * * 3 2 
0 0 0 1 1 2 2 2 2 * 
0 0 1 1 1 0 0 0 1 1 
1 1 1 * 1 0 0 0 0 0 
* 2 1 2 3 2 1 0 1 1 
* 3 1 2 * * 2 0 1 * 
2 * 1 2 * * 3 1 1 1 
1 2 3 3 3 3 * 2 2 2 
0 1 * * 1 1 1 2 * * 


Board to resolve
0 0 0 1 ? ? ? ? ? ? 
0 0 0 1 ? ? ? ? ? ? 
0 0 0 1 ? ? ? ? ? ? 
0 0 1 1 ? ? ? ? ? ? 
1 1 1 ? ? ? ? ? ? ? 
? ? ? ? ? ? ? ? ? ? 
? ? ? ? ? ? ? ? ? ? 
? ? ? ? ? ? ? ? ? ? 
? ? ? ? ? ? ? ? ? ? 
? ? ? ? ? ? ? ? ? ? 


Decided in 0.016666666666666666 minutes
Revealing Positions: ['x04', 'x24', 'x34', 'x44', 'x51', 'x52', 'x53']
New board to resolve
0 0 0 1 1 ? ? ? ? ? 
0 0 0 1 ? ? ? ? ? ? 
0 0 0 1 1 ? ? ? ? ? 
0 0 1 1 1 ? ? ? ? ? 
1 1 1 ? 1 ? ? ? ? ? 
? 2 1 2 ? ? ? ? ? ? 
? ? ? ? ? ? ? ? ? ? 
? ? ? ? ? ? ? ? ? ? 
? ? ? ? ? ? ? ? ? ? 
? ? ? ? ? ? ? ? ? ? 


Board to resolve
0 0 0 1 1 ? ? ? ? ? 
0 0 0 1 ? ? ? ? ? ? 
0 0 0 1 1 ? ? ? ? ? 
0 0 1 1 1 ? ? ? ? ? 
1 1 1 ? 1 ? ? ? ? ? 
? 2 1 2 ? ? ? ? ? ? 
? ? ? ? ? ? ? ? ? ? 
? ? ? ? ? ? ? ? ? ? 
? ? ? ? ? ? ? ? ? ? 
? ? ? ? ? ? ? ? ? ? 


Decided in 0.05 minutes
Revealing Positions: ['x05', 'x15', 'x25', 'x35', 'x45', 'x54', 'x55', 'x61', 'x62', 'x63']
New board to resolve
0 0 0 1 1 3 ? ? ? ? 
0 0 0 1 ? 3 ? ? ? ? 
0 0 0 1 1 2 2 2 2 ? 
0 0 1 1 1 0 0 0 1 1 
1 1 1 ? 1 0 0 0 0 0 
? 2 1 2 3 2 1 0 1 1 
? 3 1 2 ? ? 2 0 1 ? 
? ? ? ? ? ? 3 1 1 ? 
? ? ? ? ? ? ? ? ? ? 
? ? ? ? ? ? ? ? ? ? 


Board to resolve
0 0 0 1 1 3 ? ? ? ? 
0 0 0 1 ? 3 ? ? ? ? 
0 0 0 1 1 2 2 2 2 ? 
0 0 1 1 1 0 0 0 1 1 
1 1 1 ? 1 0 0 0 0 0 
? 2 1 2 3 2 1 0 1 1 
? 3 1 2 ? ? 2 0 1 ? 
? ? ? ? ? ? 3 1 1 ? 
? ? ? ? ? ? ? ? ? ? 
? ? ? ? ? ? ? ? ? ? 


Decided in 0.11666666666666667 minutes
Revealing Positions: ['x18', 'x19', 'x79', 'x85', 'x87', 'x88', 'x89']
New board to resolve
0 0 0 1 1 3 ? ? ? ? 
0 0 0 1 ? 3 ? ? 3 2 
0 0 0 1 1 2 2 2 2 ? 
0 0 1 1 1 0 0 0 1 1 
1 1 1 ? 1 0 0 0 0 0 
? 2 1 2 3 2 1 0 1 1 
? 3 1 2 ? ? 2 0 1 ? 
? ? ? ? ? ? 3 1 1 1 
? ? ? ? ? 3 ? 2 2 2 
? ? ? ? ? ? ? ? ? ? 


Board to resolve
0 0 0 1 1 3 ? ? ? ? 
0 0 0 1 ? 3 ? ? 3 2 
0 0 0 1 1 2 2 2 2 ? 
0 0 1 1 1 0 0 0 1 1 
1 1 1 ? 1 0 0 0 0 0 
? 2 1 2 3 2 1 0 1 1 
? 3 1 2 ? ? 2 0 1 ? 
? ? ? ? ? ? 3 1 1 1 
? ? ? ? ? 3 ? 2 2 2 
? ? ? ? ? ? ? ? ? ? 


Decided in 0.11666666666666667 minutes
Revealing Positions: ['x07', 'x96', 'x97']
New board to resolve
0 0 0 1 1 3 ? 4 ? ? 
0 0 0 1 ? 3 ? ? 3 2 
0 0 0 1 1 2 2 2 2 ? 
0 0 1 1 1 0 0 0 1 1 
1 1 1 ? 1 0 0 0 0 0 
? 2 1 2 3 2 1 0 1 1 
? 3 1 2 ? ? 2 0 1 ? 
? ? ? ? ? ? 3 1 1 1 
? ? ? ? ? 3 ? 2 2 2 
? ? ? ? ? ? 1 2 ? ? 


Board to resolve
0 0 0 1 1 3 ? 4 ? ? 
0 0 0 1 ? 3 ? ? 3 2 
0 0 0 1 1 2 2 2 2 ? 
0 0 1 1 1 0 0 0 1 1 
1 1 1 ? 1 0 0 0 0 0 
? 2 1 2 3 2 1 0 1 1 
? 3 1 2 ? ? 2 0 1 ? 
? ? ? ? ? ? 3 1 1 1 
? ? ? ? ? 3 ? 2 2 2 
? ? ? ? ? ? 1 2 ? ? 


Decided in 0.03333333333333333 minutes
Revealing Positions: ['x09', 'x95']
New board to resolve
0 0 0 1 1 3 ? 4 ? 1 
0 0 0 1 ? 3 ? ? 3 2 
0 0 0 1 1 2 2 2 2 ? 
0 0 1 1 1 0 0 0 1 1 
1 1 1 ? 1 0 0 0 0 0 
? 2 1 2 3 2 1 0 1 1 
? 3 1 2 ? ? 2 0 1 ? 
? ? ? ? ? ? 3 1 1 1 
? ? ? ? ? 3 ? 2 2 2 
? ? ? ? ? 1 1 2 ? ? 


Board to resolve
0 0 0 1 1 3 ? 4 ? 1 
0 0 0 1 ? 3 ? ? 3 2 
0 0 0 1 1 2 2 2 2 ? 
0 0 1 1 1 0 0 0 1 1 
1 1 1 ? 1 0 0 0 0 0 
? 2 1 2 3 2 1 0 1 1 
? 3 1 2 ? ? 2 0 1 ? 
? ? ? ? ? ? 3 1 1 1 
? ? ? ? ? 3 ? 2 2 2 
? ? ? ? ? 1 1 2 ? ? 


Decided in 0.03333333333333333 minutes
Revealing Positions: ['x70', 'x72', 'x73', 'x84', 'x94']
New board to resolve
0 0 0 1 1 3 ? 4 ? 1 
0 0 0 1 ? 3 ? ? 3 2 
0 0 0 1 1 2 2 2 2 ? 
0 0 1 1 1 0 0 0 1 1 
1 1 1 ? 1 0 0 0 0 0 
? 2 1 2 3 2 1 0 1 1 
? 3 1 2 ? ? 2 0 1 ? 
2 ? 1 2 ? ? 3 1 1 1 
? ? ? ? 3 3 ? 2 2 2 
? ? ? ? 1 1 1 2 ? ? 


Board to resolve
0 0 0 1 1 3 ? 4 ? 1 
0 0 0 1 ? 3 ? ? 3 2 
0 0 0 1 1 2 2 2 2 ? 
0 0 1 1 1 0 0 0 1 1 
1 1 1 ? 1 0 0 0 0 0 
? 2 1 2 3 2 1 0 1 1 
? 3 1 2 ? ? 2 0 1 ? 
2 ? 1 2 ? ? 3 1 1 1 
? ? ? ? 3 3 ? 2 2 2 
? ? ? ? 1 1 1 2 ? ? 


Decided in 0.0 minutes
Revealing Positions: ['x80', 'x81', 'x82', 'x83']
New board to resolve
0 0 0 1 1 3 ? 4 ? 1 
0 0 0 1 ? 3 ? ? 3 2 
0 0 0 1 1 2 2 2 2 ? 
0 0 1 1 1 0 0 0 1 1 
1 1 1 ? 1 0 0 0 0 0 
? 2 1 2 3 2 1 0 1 1 
? 3 1 2 ? ? 2 0 1 ? 
2 ? 1 2 ? ? 3 1 1 1 
1 2 3 3 3 3 ? 2 2 2 
? ? ? ? 1 1 1 2 ? ? 


Board to resolve
0 0 0 1 1 3 ? 4 ? 1 
0 0 0 1 ? 3 ? ? 3 2 
0 0 0 1 1 2 2 2 2 ? 
0 0 1 1 1 0 0 0 1 1 
1 1 1 ? 1 0 0 0 0 0 
? 2 1 2 3 2 1 0 1 1 
? 3 1 2 ? ? 2 0 1 ? 
2 ? 1 2 ? ? 3 1 1 1 
1 2 3 3 3 3 ? 2 2 2 
? ? ? ? 1 1 1 2 ? ? 


Decided in 0.0 minutes
Revealing Positions: ['x90', 'x91']
New board to resolve
0 0 0 1 1 3 ? 4 ? 1 
0 0 0 1 ? 3 ? ? 3 2 
0 0 0 1 1 2 2 2 2 ? 
0 0 1 1 1 0 0 0 1 1 
1 1 1 ? 1 0 0 0 0 0 
? 2 1 2 3 2 1 0 1 1 
? 3 1 2 ? ? 2 0 1 ? 
2 ? 1 2 ? ? 3 1 1 1 
1 2 3 3 3 3 ? 2 2 2 
0 1 ? ? 1 1 1 2 ? ? 


WON!
Times lost: 0
Finished in 0.38333333333333336 minutes


------------------------------
Playing Minesweeper with Bayesian Networks
Minesweeper Board: Num x = 10 ; Num y = 10 ; Mines = 20


Resolved Board Created
1 1 0 0 0 0 0 1 2 * 
* 1 0 1 1 2 1 2 * 2 
2 2 0 1 * 3 * 2 1 1 
* 1 0 1 2 * 2 1 0 0 
2 2 0 1 2 2 1 0 0 0 
* 3 2 3 * 2 1 0 0 0 
* 3 * * 4 * 2 0 0 0 
2 3 4 4 5 * 2 1 2 2 
1 * 2 * * 2 1 1 * * 
1 1 2 2 2 1 0 1 3 * 


Board to resolve
1 ? ? ? ? ? ? ? ? ? 
? ? ? ? ? ? ? ? ? ? 
? ? ? ? ? ? ? ? ? ? 
? ? ? ? ? ? ? ? ? ? 
? ? ? ? ? ? ? ? ? ? 
? ? ? ? ? ? ? ? ? ? 
? ? ? ? ? ? ? ? ? ? 
? ? ? ? ? ? ? ? ? ? 
? ? ? ? ? ? ? ? ? ? 
? ? ? ? ? ? ? ? ? ? 


Decided in 0.0 minutes
Revealing Positions: ['x02']
New board to resolve
1 1 0 0 0 0 0 1 ? ? 
? 1 0 1 1 2 1 2 ? ? 
? 2 0 1 ? ? ? ? ? ? 
? 1 0 1 ? ? ? ? ? ? 
? 2 0 1 ? ? ? ? ? ? 
? 3 2 3 ? ? ? ? ? ? 
? ? ? ? ? ? ? ? ? ? 
? ? ? ? ? ? ? ? ? ? 
? ? ? ? ? ? ? ? ? ? 
? ? ? ? ? ? ? ? ? ? 


Board to resolve
1 1 0 0 0 0 0 1 ? ? 
? 1 0 1 1 2 1 2 ? ? 
? 2 0 1 ? ? ? ? ? ? 
? 1 0 1 ? ? ? ? ? ? 
? 2 0 1 ? ? ? ? ? ? 
? 3 2 3 ? ? ? ? ? ? 
? ? ? ? ? ? ? ? ? ? 
? ? ? ? ? ? ? ? ? ? 
? ? ? ? ? ? ? ? ? ? 
? ? ? ? ? ? ? ? ? ? 


Decided in 0.1 minutes
Revealing Positions: ['x20', 'x25', 'x27', 'x28', 'x34', 'x40', 'x44']
New board to resolve
1 1 0 0 0 0 0 1 ? ? 
? 1 0 1 1 2 1 2 ? ? 
2 2 0 1 ? 3 ? 2 1 ? 
? 1 0 1 2 ? ? ? ? ? 
2 2 0 1 2 ? ? ? ? ? 
? 3 2 3 ? ? ? ? ? ? 
? ? ? ? ? ? ? ? ? ? 
? ? ? ? ? ? ? ? ? ? 
? ? ? ? ? ? ? ? ? ? 
? ? ? ? ? ? ? ? ? ? 


Board to resolve
1 1 0 0 0 0 0 1 ? ? 
? 1 0 1 1 2 1 2 ? ? 
2 2 0 1 ? 3 ? 2 1 ? 
? 1 0 1 2 ? ? ? ? ? 
2 2 0 1 2 ? ? ? ? ? 
? 3 2 3 ? ? ? ? ? ? 
? ? ? ? ? ? ? ? ? ? 
? ? ? ? ? ? ? ? ? ? 
? ? ? ? ? ? ? ? ? ? 
? ? ? ? ? ? ? ? ? ? 


Decided in 0.1 minutes
Revealing Positions: ['x55']
New board to resolve
1 1 0 0 0 0 0 1 ? ? 
? 1 0 1 1 2 1 2 ? ? 
2 2 0 1 ? 3 ? 2 1 ? 
? 1 0 1 2 ? ? ? ? ? 
2 2 0 1 2 ? ? ? ? ? 
? 3 2 3 ? 2 ? ? ? ? 
? ? ? ? ? ? ? ? ? ? 
? ? ? ? ? ? ? ? ? ? 
? ? ? ? ? ? ? ? ? ? 
? ? ? ? ? ? ? ? ? ? 


Board to resolve
1 1 0 0 0 0 0 1 ? ? 
? 1 0 1 1 2 1 2 ? ? 
2 2 0 1 ? 3 ? 2 1 ? 
? 1 0 1 2 ? ? ? ? ? 
2 2 0 1 2 ? ? ? ? ? 
? 3 2 3 ? 2 ? ? ? ? 
? ? ? ? ? ? ? ? ? ? 
? ? ? ? ? ? ? ? ? ? 
? ? ? ? ? ? ? ? ? ? 
? ? ? ? ? ? ? ? ? ? 


Decided in 0.2 minutes
Revealing Positions: ['x19']
New board to resolve
1 1 0 0 0 0 0 1 ? ? 
? 1 0 1 1 2 1 2 ? 2 
2 2 0 1 ? 3 ? 2 1 ? 
? 1 0 1 2 ? ? ? ? ? 
2 2 0 1 2 ? ? ? ? ? 
? 3 2 3 ? 2 ? ? ? ? 
? ? ? ? ? ? ? ? ? ? 
? ? ? ? ? ? ? ? ? ? 
? ? ? ? ? ? ? ? ? ? 
? ? ? ? ? ? ? ? ? ? 


Board to resolve
1 1 0 0 0 0 0 1 ? ? 
? 1 0 1 1 2 1 2 ? 2 
2 2 0 1 ? 3 ? 2 1 ? 
? 1 0 1 2 ? ? ? ? ? 
2 2 0 1 2 ? ? ? ? ? 
? 3 2 3 ? 2 ? ? ? ? 
? ? ? ? ? ? ? ? ? ? 
? ? ? ? ? ? ? ? ? ? 
? ? ? ? ? ? ? ? ? ? 
? ? ? ? ? ? ? ? ? ? 


Decided in 0.16666666666666666 minutes
Revealing Positions: ['x39']
New board to resolve
1 1 0 0 0 0 0 1 ? ? 
? 1 0 1 1 2 1 2 ? 2 
2 2 0 1 ? 3 ? 2 1 1 
? 1 0 1 2 ? 2 1 0 0 
2 2 0 1 2 ? 1 0 0 0 
? 3 2 3 ? 2 1 0 0 0 
? ? ? ? ? ? 2 0 0 0 
? ? ? ? ? ? 2 1 2 2 
? ? ? ? ? ? ? ? ? ? 
? ? ? ? ? ? ? ? ? ? 


Board to resolve
1 1 0 0 0 0 0 1 ? ? 
? 1 0 1 1 2 1 2 ? 2 
2 2 0 1 ? 3 ? 2 1 1 
? 1 0 1 2 ? 2 1 0 0 
2 2 0 1 2 ? 1 0 0 0 
? 3 2 3 ? 2 1 0 0 0 
? ? ? ? ? ? 2 0 0 0 
? ? ? ? ? ? 2 1 2 2 
? ? ? ? ? ? ? ? ? ? 
? ? ? ? ? ? ? ? ? ? 


Decided in 0.06666666666666667 minutes
Revealing Positions: ['x08', 'x45', 'x61', 'x64', 'x85', 'x86', 'x87']
New board to resolve
1 1 0 0 0 0 0 1 2 ? 
? 1 0 1 1 2 1 2 ? 2 
2 2 0 1 ? 3 ? 2 1 1 
? 1 0 1 2 ? 2 1 0 0 
2 2 0 1 2 2 1 0 0 0 
? 3 2 3 ? 2 1 0 0 0 
? 3 ? ? 4 ? 2 0 0 0 
? ? ? ? ? ? 2 1 2 2 
? ? ? ? ? 2 1 1 ? ? 
? ? ? ? ? ? ? ? ? ? 


Board to resolve
1 1 0 0 0 0 0 1 2 ? 
? 1 0 1 1 2 1 2 ? 2 
2 2 0 1 ? 3 ? 2 1 1 
? 1 0 1 2 ? 2 1 0 0 
2 2 0 1 2 2 1 0 0 0 
? 3 2 3 ? 2 1 0 0 0 
? 3 ? ? 4 ? 2 0 0 0 
? ? ? ? ? ? 2 1 2 2 
? ? ? ? ? 2 1 1 ? ? 
? ? ? ? ? ? ? ? ? ? 


Decided in 0.1 minutes
Revealing Positions: ['x70', 'x71', 'x72', 'x73', 'x74', 'x95', 'x96', 'x97', 'x98']
New board to resolve
1 1 0 0 0 0 0 1 2 ? 
? 1 0 1 1 2 1 2 ? 2 
2 2 0 1 ? 3 ? 2 1 1 
? 1 0 1 2 ? 2 1 0 0 
2 2 0 1 2 2 1 0 0 0 
? 3 2 3 ? 2 1 0 0 0 
? 3 ? ? 4 ? 2 0 0 0 
2 3 4 4 5 ? 2 1 2 2 
? ? ? ? ? 2 1 1 ? ? 
? ? ? ? ? 1 0 1 3 ? 


Board to resolve
1 1 0 0 0 0 0 1 2 ? 
? 1 0 1 1 2 1 2 ? 2 
2 2 0 1 ? 3 ? 2 1 1 
? 1 0 1 2 ? 2 1 0 0 
2 2 0 1 2 2 1 0 0 0 
? 3 2 3 ? 2 1 0 0 0 
? 3 ? ? 4 ? 2 0 0 0 
2 3 4 4 5 ? 2 1 2 2 
? ? ? ? ? 2 1 1 ? ? 
? ? ? ? ? 1 0 1 3 ? 


Decided in 0.016666666666666666 minutes
Revealing Positions: ['x80', 'x82', 'x94']
New board to resolve
1 1 0 0 0 0 0 1 2 ? 
? 1 0 1 1 2 1 2 ? 2 
2 2 0 1 ? 3 ? 2 1 1 
? 1 0 1 2 ? 2 1 0 0 
2 2 0 1 2 2 1 0 0 0 
? 3 2 3 ? 2 1 0 0 0 
? 3 ? ? 4 ? 2 0 0 0 
2 3 4 4 5 ? 2 1 2 2 
1 ? 2 ? ? 2 1 1 ? ? 
? ? ? ? 2 1 0 1 3 ? 


Board to resolve
1 1 0 0 0 0 0 1 2 ? 
? 1 0 1 1 2 1 2 ? 2 
2 2 0 1 ? 3 ? 2 1 1 
? 1 0 1 2 ? 2 1 0 0 
2 2 0 1 2 2 1 0 0 0 
? 3 2 3 ? 2 1 0 0 0 
? 3 ? ? 4 ? 2 0 0 0 
2 3 4 4 5 ? 2 1 2 2 
1 ? 2 ? ? 2 1 1 ? ? 
? ? ? ? 2 1 0 1 3 ? 


Decided in 0.016666666666666666 minutes
Revealing Positions: ['x90', 'x91', 'x92', 'x93']
New board to resolve
1 1 0 0 0 0 0 1 2 ? 
? 1 0 1 1 2 1 2 ? 2 
2 2 0 1 ? 3 ? 2 1 1 
? 1 0 1 2 ? 2 1 0 0 
2 2 0 1 2 2 1 0 0 0 
? 3 2 3 ? 2 1 0 0 0 
? 3 ? ? 4 ? 2 0 0 0 
2 3 4 4 5 ? 2 1 2 2 
1 ? 2 ? ? 2 1 1 ? ? 
1 1 2 2 2 1 0 1 3 ? 


WON!
Times lost: 0
Finished in 0.7666666666666667 minutes


------------------------------
Playing Minesweeper with Bayesian Networks
Minesweeper Board: Num x = 10 ; Num y = 10 ; Mines = 20


Resolved Board Created
1 1 0 0 0 0 1 1 1 0 
* 1 0 0 0 1 2 * 1 0 
2 2 0 0 1 2 * 3 2 1 
* 1 0 1 3 * 3 3 * 2 
3 3 1 2 * * 2 2 * 2 
* * 1 3 * 5 3 2 2 1 
2 2 1 2 * * 2 * 2 1 
0 0 0 1 2 3 3 3 * 2 
0 0 0 0 0 1 * 3 4 * 
0 0 0 0 0 1 1 2 * * 


Board to resolve
1 ? ? ? ? ? ? ? ? ? 
? ? ? ? ? ? ? ? ? ? 
? ? ? ? ? ? ? ? ? ? 
? ? ? ? ? ? ? ? ? ? 
? ? ? ? ? ? ? ? ? ? 
? ? ? ? ? ? ? ? ? ? 
? ? ? ? ? ? ? ? ? ? 
? ? ? ? ? ? ? ? ? ? 
? ? ? ? ? ? ? ? ? ? 
? ? ? ? ? ? ? ? ? ? 


Decided in 0.0 minutes
Revealing Positions: ['x02']
New board to resolve
1 1 0 0 0 0 1 ? ? ? 
? 1 0 0 0 1 2 ? ? ? 
? 2 0 0 1 2 ? ? ? ? 
? 1 0 1 3 ? ? ? ? ? 
? 3 1 2 ? ? ? ? ? ? 
? ? ? ? ? ? ? ? ? ? 
? ? ? ? ? ? ? ? ? ? 
? ? ? ? ? ? ? ? ? ? 
? ? ? ? ? ? ? ? ? ? 
? ? ? ? ? ? ? ? ? ? 


Board to resolve
1 1 0 0 0 0 1 ? ? ? 
? 1 0 0 0 1 2 ? ? ? 
? 2 0 0 1 2 ? ? ? ? 
? 1 0 1 3 ? ? ? ? ? 
? 3 1 2 ? ? ? ? ? ? 
? ? ? ? ? ? ? ? ? ? 
? ? ? ? ? ? ? ? ? ? 
? ? ? ? ? ? ? ? ? ? 
? ? ? ? ? ? ? ? ? ? 
? ? ? ? ? ? ? ? ? ? 


Decided in 0.03333333333333333 minutes
Revealing Positions: ['x20', 'x27', 'x36', 'x40', 'x53']
New board to resolve
1 1 0 0 0 0 1 ? ? ? 
? 1 0 0 0 1 2 ? ? ? 
2 2 0 0 1 2 ? 3 ? ? 
? 1 0 1 3 ? 3 ? ? ? 
3 3 1 2 ? ? ? ? ? ? 
? ? ? 3 ? ? ? ? ? ? 
? ? ? ? ? ? ? ? ? ? 
? ? ? ? ? ? ? ? ? ? 
? ? ? ? ? ? ? ? ? ? 
? ? ? ? ? ? ? ? ? ? 


Board to resolve
1 1 0 0 0 0 1 ? ? ? 
? 1 0 0 0 1 2 ? ? ? 
2 2 0 0 1 2 ? 3 ? ? 
? 1 0 1 3 ? 3 ? ? ? 
3 3 1 2 ? ? ? ? ? ? 
? ? ? 3 ? ? ? ? ? ? 
? ? ? ? ? ? ? ? ? ? 
? ? ? ? ? ? ? ? ? ? 
? ? ? ? ? ? ? ? ? ? 
? ? ? ? ? ? ? ? ? ? 


Decided in 0.16666666666666666 minutes
Revealing Positions: ['x37', 'x46', 'x47', 'x52']
New board to resolve
1 1 0 0 0 0 1 ? ? ? 
? 1 0 0 0 1 2 ? ? ? 
2 2 0 0 1 2 ? 3 ? ? 
? 1 0 1 3 ? 3 3 ? ? 
3 3 1 2 ? ? 2 2 ? ? 
? ? 1 3 ? ? ? ? ? ? 
? ? ? ? ? ? ? ? ? ? 
? ? ? ? ? ? ? ? ? ? 
? ? ? ? ? ? ? ? ? ? 
? ? ? ? ? ? ? ? ? ? 


Board to resolve
1 1 0 0 0 0 1 ? ? ? 
? 1 0 0 0 1 2 ? ? ? 
2 2 0 0 1 2 ? 3 ? ? 
? 1 0 1 3 ? 3 3 ? ? 
3 3 1 2 ? ? 2 2 ? ? 
? ? 1 3 ? ? ? ? ? ? 
? ? ? ? ? ? ? ? ? ? 
? ? ? ? ? ? ? ? ? ? 
? ? ? ? ? ? ? ? ? ? 
? ? ? ? ? ? ? ? ? ? 


Decided in 0.08333333333333333 minutes
Revealing Positions: ['x55', 'x56', 'x57', 'x61', 'x62', 'x63']
New board to resolve
1 1 0 0 0 0 1 ? ? ? 
? 1 0 0 0 1 2 ? ? ? 
2 2 0 0 1 2 ? 3 ? ? 
? 1 0 1 3 ? 3 3 ? ? 
3 3 1 2 ? ? 2 2 ? ? 
? ? 1 3 ? 5 3 2 ? ? 
? 2 1 2 ? ? ? ? ? ? 
? ? ? ? ? ? ? ? ? ? 
? ? ? ? ? ? ? ? ? ? 
? ? ? ? ? ? ? ? ? ? 


Board to resolve
1 1 0 0 0 0 1 ? ? ? 
? 1 0 0 0 1 2 ? ? ? 
2 2 0 0 1 2 ? 3 ? ? 
? 1 0 1 3 ? 3 3 ? ? 
3 3 1 2 ? ? 2 2 ? ? 
? ? 1 3 ? 5 3 2 ? ? 
? 2 1 2 ? ? ? ? ? ? 
? ? ? ? ? ? ? ? ? ? 
? ? ? ? ? ? ? ? ? ? 
? ? ? ? ? ? ? ? ? ? 


Decided in 0.4 minutes
Revealing Positions: ['x60', 'x66', 'x68', 'x70', 'x71', 'x72', 'x73', 'x74']
New board to resolve
1 1 0 0 0 0 1 ? ? ? 
? 1 0 0 0 1 2 ? ? ? 
2 2 0 0 1 2 ? 3 ? ? 
? 1 0 1 3 ? 3 3 ? ? 
3 3 1 2 ? ? 2 2 ? ? 
? ? 1 3 ? 5 3 2 ? ? 
2 2 1 2 ? ? 2 ? 2 ? 
0 0 0 1 2 3 ? ? ? ? 
0 0 0 0 0 1 ? ? ? ? 
0 0 0 0 0 1 ? ? ? ? 


Board to resolve
1 1 0 0 0 0 1 ? ? ? 
? 1 0 0 0 1 2 ? ? ? 
2 2 0 0 1 2 ? 3 ? ? 
? 1 0 1 3 ? 3 3 ? ? 
3 3 1 2 ? ? 2 2 ? ? 
? ? 1 3 ? 5 3 2 ? ? 
2 2 1 2 ? ? 2 ? 2 ? 
0 0 0 1 2 3 ? ? ? ? 
0 0 0 0 0 1 ? ? ? ? 
0 0 0 0 0 1 ? ? ? ? 


Decided in 0.15 minutes
Revealing Positions: ['x76', 'x77', 'x96']
New board to resolve
1 1 0 0 0 0 1 ? ? ? 
? 1 0 0 0 1 2 ? ? ? 
2 2 0 0 1 2 ? 3 ? ? 
? 1 0 1 3 ? 3 3 ? ? 
3 3 1 2 ? ? 2 2 ? ? 
? ? 1 3 ? 5 3 2 ? ? 
2 2 1 2 ? ? 2 ? 2 ? 
0 0 0 1 2 3 3 3 ? ? 
0 0 0 0 0 1 ? ? ? ? 
0 0 0 0 0 1 1 ? ? ? 


Board to resolve
1 1 0 0 0 0 1 ? ? ? 
? 1 0 0 0 1 2 ? ? ? 
2 2 0 0 1 2 ? 3 ? ? 
? 1 0 1 3 ? 3 3 ? ? 
3 3 1 2 ? ? 2 2 ? ? 
? ? 1 3 ? 5 3 2 ? ? 
2 2 1 2 ? ? 2 ? 2 ? 
0 0 0 1 2 3 3 3 ? ? 
0 0 0 0 0 1 ? ? ? ? 
0 0 0 0 0 1 1 ? ? ? 


Decided in 0.15 minutes
Revealing Positions: ['x87', 'x97']
New board to resolve
1 1 0 0 0 0 1 ? ? ? 
? 1 0 0 0 1 2 ? ? ? 
2 2 0 0 1 2 ? 3 ? ? 
? 1 0 1 3 ? 3 3 ? ? 
3 3 1 2 ? ? 2 2 ? ? 
? ? 1 3 ? 5 3 2 ? ? 
2 2 1 2 ? ? 2 ? 2 ? 
0 0 0 1 2 3 3 3 ? ? 
0 0 0 0 0 1 ? 3 ? ? 
0 0 0 0 0 1 1 2 ? ? 


Board to resolve
1 1 0 0 0 0 1 ? ? ? 
? 1 0 0 0 1 2 ? ? ? 
2 2 0 0 1 2 ? 3 ? ? 
? 1 0 1 3 ? 3 3 ? ? 
3 3 1 2 ? ? 2 2 ? ? 
? ? 1 3 ? 5 3 2 ? ? 
2 2 1 2 ? ? 2 ? 2 ? 
0 0 0 1 2 3 3 3 ? ? 
0 0 0 0 0 1 ? 3 ? ? 
0 0 0 0 0 1 1 2 ? ? 


Decided in 0.1 minutes
Revealing Positions: ['x28', 'x58', 'x59', 'x69', 'x79', 'x88']
New board to resolve
1 1 0 0 0 0 1 ? ? ? 
? 1 0 0 0 1 2 ? ? ? 
2 2 0 0 1 2 ? 3 2 ? 
? 1 0 1 3 ? 3 3 ? ? 
3 3 1 2 ? ? 2 2 ? ? 
? ? 1 3 ? 5 3 2 2 1 
2 2 1 2 ? ? 2 ? 2 1 
0 0 0 1 2 3 3 3 ? 2 
0 0 0 0 0 1 ? 3 4 ? 
0 0 0 0 0 1 1 2 ? ? 


Board to resolve
1 1 0 0 0 0 1 ? ? ? 
? 1 0 0 0 1 2 ? ? ? 
2 2 0 0 1 2 ? 3 2 ? 
? 1 0 1 3 ? 3 3 ? ? 
3 3 1 2 ? ? 2 2 ? ? 
? ? 1 3 ? 5 3 2 2 1 
2 2 1 2 ? ? 2 ? 2 1 
0 0 0 1 2 3 3 3 ? 2 
0 0 0 0 0 1 ? 3 4 ? 
0 0 0 0 0 1 1 2 ? ? 


Decided in 0.03333333333333333 minutes
Revealing Positions: ['x19', 'x29', 'x39', 'x49']
New board to resolve
1 1 0 0 0 0 1 ? 1 0 
? 1 0 0 0 1 2 ? 1 0 
2 2 0 0 1 2 ? 3 2 1 
? 1 0 1 3 ? 3 3 ? 2 
3 3 1 2 ? ? 2 2 ? 2 
? ? 1 3 ? 5 3 2 2 1 
2 2 1 2 ? ? 2 ? 2 1 
0 0 0 1 2 3 3 3 ? 2 
0 0 0 0 0 1 ? 3 4 ? 
0 0 0 0 0 1 1 2 ? ? 


Board to resolve
1 1 0 0 0 0 1 ? 1 0 
? 1 0 0 0 1 2 ? 1 0 
2 2 0 0 1 2 ? 3 2 1 
? 1 0 1 3 ? 3 3 ? 2 
3 3 1 2 ? ? 2 2 ? 2 
? ? 1 3 ? 5 3 2 2 1 
2 2 1 2 ? ? 2 ? 2 1 
0 0 0 1 2 3 3 3 ? 2 
0 0 0 0 0 1 ? 3 4 ? 
0 0 0 0 0 1 1 2 ? ? 


Decided in 0.0 minutes
Revealing Positions: ['x07']
New board to resolve
1 1 0 0 0 0 1 1 1 0 
? 1 0 0 0 1 2 ? 1 0 
2 2 0 0 1 2 ? 3 2 1 
? 1 0 1 3 ? 3 3 ? 2 
3 3 1 2 ? ? 2 2 ? 2 
? ? 1 3 ? 5 3 2 2 1 
2 2 1 2 ? ? 2 ? 2 1 
0 0 0 1 2 3 3 3 ? 2 
0 0 0 0 0 1 ? 3 4 ? 
0 0 0 0 0 1 1 2 ? ? 


WON!
Times lost: 0
Finished in 1.1166666666666667 minutes


------------------------------
Playing Minesweeper with Bayesian Networks
Minesweeper Board: Num x = 10 ; Num y = 10 ; Mines = 20


Resolved Board Created
0 0 1 * * * 2 1 1 0 
0 0 1 2 3 3 3 * 1 0 
0 1 2 2 1 2 * 4 3 1 
1 2 * * 1 2 * * 2 * 
1 * 3 3 2 2 2 2 2 1 
2 2 1 1 * 1 0 1 2 2 
* 2 1 2 1 1 0 1 * * 
1 3 * 2 0 0 0 1 2 2 
1 3 * 2 1 1 1 1 1 1 
1 * 2 1 1 * 1 1 * 1 


Board to resolve
0 0 1 ? ? ? ? ? ? ? 
0 0 1 ? ? ? ? ? ? ? 
0 1 2 ? ? ? ? ? ? ? 
1 2 ? ? ? ? ? ? ? ? 
? ? ? ? ? ? ? ? ? ? 
? ? ? ? ? ? ? ? ? ? 
? ? ? ? ? ? ? ? ? ? 
? ? ? ? ? ? ? ? ? ? 
? ? ? ? ? ? ? ? ? ? 
? ? ? ? ? ? ? ? ? ? 


Decided in 0.016666666666666666 minutes
Revealing Positions: ['x23', 'x42']
New board to resolve
0 0 1 ? ? ? ? ? ? ? 
0 0 1 ? ? ? ? ? ? ? 
0 1 2 2 ? ? ? ? ? ? 
1 2 ? ? ? ? ? ? ? ? 
? ? 3 ? ? ? ? ? ? ? 
? ? ? ? ? ? ? ? ? ? 
? ? ? ? ? ? ? ? ? ? 
? ? ? ? ? ? ? ? ? ? 
? ? ? ? ? ? ? ? ? ? 
? ? ? ? ? ? ? ? ? ? 


Board to resolve
0 0 1 ? ? ? ? ? ? ? 
0 0 1 ? ? ? ? ? ? ? 
0 1 2 2 ? ? ? ? ? ? 
1 2 ? ? ? ? ? ? ? ? 
? ? 3 ? ? ? ? ? ? ? 
? ? ? ? ? ? ? ? ? ? 
? ? ? ? ? ? ? ? ? ? 
? ? ? ? ? ? ? ? ? ? 
? ? ? ? ? ? ? ? ? ? 
? ? ? ? ? ? ? ? ? ? 


Decided in 0.11666666666666667 minutes
Revealing Positions: ['x14', 'x24', 'x34']
New board to resolve
0 0 1 ? ? ? ? ? ? ? 
0 0 1 ? 3 ? ? ? ? ? 
0 1 2 2 1 ? ? ? ? ? 
1 2 ? ? 1 ? ? ? ? ? 
? ? 3 ? ? ? ? ? ? ? 
? ? ? ? ? ? ? ? ? ? 
? ? ? ? ? ? ? ? ? ? 
? ? ? ? ? ? ? ? ? ? 
? ? ? ? ? ? ? ? ? ? 
? ? ? ? ? ? ? ? ? ? 


Board to resolve
0 0 1 ? ? ? ? ? ? ? 
0 0 1 ? 3 ? ? ? ? ? 
0 1 2 2 1 ? ? ? ? ? 
1 2 ? ? 1 ? ? ? ? ? 
? ? 3 ? ? ? ? ? ? ? 
? ? ? ? ? ? ? ? ? ? 
? ? ? ? ? ? ? ? ? ? 
? ? ? ? ? ? ? ? ? ? 
? ? ? ? ? ? ? ? ? ? 
? ? ? ? ? ? ? ? ? ? 


Decided in 0.2833333333333333 minutes
Revealing Positions: ['x15', 'x25', 'x35']
New board to resolve
0 0 1 ? ? ? ? ? ? ? 
0 0 1 ? 3 3 ? ? ? ? 
0 1 2 2 1 2 ? ? ? ? 
1 2 ? ? 1 2 ? ? ? ? 
? ? 3 ? ? ? ? ? ? ? 
? ? ? ? ? ? ? ? ? ? 
? ? ? ? ? ? ? ? ? ? 
? ? ? ? ? ? ? ? ? ? 
? ? ? ? ? ? ? ? ? ? 
? ? ? ? ? ? ? ? ? ? 


Board to resolve
0 0 1 ? ? ? ? ? ? ? 
0 0 1 ? 3 3 ? ? ? ? 
0 1 2 2 1 2 ? ? ? ? 
1 2 ? ? 1 2 ? ? ? ? 
? ? 3 ? ? ? ? ? ? ? 
? ? ? ? ? ? ? ? ? ? 
? ? ? ? ? ? ? ? ? ? 
? ? ? ? ? ? ? ? ? ? 
? ? ? ? ? ? ? ? ? ? 
? ? ? ? ? ? ? ? ? ? 


Decided in 0.65 minutes
Revealing Positions: ['x06']
New board to resolve
0 0 1 ? ? ? 2 ? ? ? 
0 0 1 ? 3 3 ? ? ? ? 
0 1 2 2 1 2 ? ? ? ? 
1 2 ? ? 1 2 ? ? ? ? 
? ? 3 ? ? ? ? ? ? ? 
? ? ? ? ? ? ? ? ? ? 
? ? ? ? ? ? ? ? ? ? 
? ? ? ? ? ? ? ? ? ? 
? ? ? ? ? ? ? ? ? ? 
? ? ? ? ? ? ? ? ? ? 


Board to resolve
0 0 1 ? ? ? 2 ? ? ? 
0 0 1 ? 3 3 ? ? ? ? 
0 1 2 2 1 2 ? ? ? ? 
1 2 ? ? 1 2 ? ? ? ? 
? ? 3 ? ? ? ? ? ? ? 
? ? ? ? ? ? ? ? ? ? 
? ? ? ? ? ? ? ? ? ? 
? ? ? ? ? ? ? ? ? ? 
? ? ? ? ? ? ? ? ? ? 
? ? ? ? ? ? ? ? ? ? 


Decided in 1.25 minutes
Revealing Positions: ['x07']
New board to resolve
0 0 1 ? ? ? 2 1 ? ? 
0 0 1 ? 3 3 ? ? ? ? 
0 1 2 2 1 2 ? ? ? ? 
1 2 ? ? 1 2 ? ? ? ? 
? ? 3 ? ? ? ? ? ? ? 
? ? ? ? ? ? ? ? ? ? 
? ? ? ? ? ? ? ? ? ? 
? ? ? ? ? ? ? ? ? ? 
? ? ? ? ? ? ? ? ? ? 
? ? ? ? ? ? ? ? ? ? 


Board to resolve
0 0 1 ? ? ? 2 1 ? ? 
0 0 1 ? 3 3 ? ? ? ? 
0 1 2 2 1 2 ? ? ? ? 
1 2 ? ? 1 2 ? ? ? ? 
? ? 3 ? ? ? ? ? ? ? 
? ? ? ? ? ? ? ? ? ? 
? ? ? ? ? ? ? ? ? ? 
? ? ? ? ? ? ? ? ? ? 
? ? ? ? ? ? ? ? ? ? 
? ? ? ? ? ? ? ? ? ? 


Decided in 0.21666666666666667 minutes
Revealing Positions: ['x08', 'x18']
New board to resolve
0 0 1 ? ? ? 2 1 1 ? 
0 0 1 ? 3 3 ? ? 1 ? 
0 1 2 2 1 2 ? ? ? ? 
1 2 ? ? 1 2 ? ? ? ? 
? ? 3 ? ? ? ? ? ? ? 
? ? ? ? ? ? ? ? ? ? 
? ? ? ? ? ? ? ? ? ? 
? ? ? ? ? ? ? ? ? ? 
? ? ? ? ? ? ? ? ? ? 
? ? ? ? ? ? ? ? ? ? 


Board to resolve
0 0 1 ? ? ? 2 1 1 ? 
0 0 1 ? 3 3 ? ? 1 ? 
0 1 2 2 1 2 ? ? ? ? 
1 2 ? ? 1 2 ? ? ? ? 
? ? 3 ? ? ? ? ? ? ? 
? ? ? ? ? ? ? ? ? ? 
? ? ? ? ? ? ? ? ? ? 
? ? ? ? ? ? ? ? ? ? 
? ? ? ? ? ? ? ? ? ? 
? ? ? ? ? ? ? ? ? ? 


Decided in 0.38333333333333336 minutes
Revealing Positions: ['x27', 'x28', 'x29']
New board to resolve
0 0 1 ? ? ? 2 1 1 ? 
0 0 1 ? 3 3 ? ? 1 ? 
0 1 2 2 1 2 ? 4 3 1 
1 2 ? ? 1 2 ? ? ? ? 
? ? 3 ? ? ? ? ? ? ? 
? ? ? ? ? ? ? ? ? ? 
? ? ? ? ? ? ? ? ? ? 
? ? ? ? ? ? ? ? ? ? 
? ? ? ? ? ? ? ? ? ? 
? ? ? ? ? ? ? ? ? ? 


Board to resolve
0 0 1 ? ? ? 2 1 1 ? 
0 0 1 ? 3 3 ? ? 1 ? 
0 1 2 2 1 2 ? 4 3 1 
1 2 ? ? 1 2 ? ? ? ? 
? ? 3 ? ? ? ? ? ? ? 
? ? ? ? ? ? ? ? ? ? 
? ? ? ? ? ? ? ? ? ? 
? ? ? ? ? ? ? ? ? ? 
? ? ? ? ? ? ? ? ? ? 
? ? ? ? ? ? ? ? ? ? 


Decided in 0.7666666666666667 minutes
Revealing Positions: ['x09', 'x16', 'x19', 'x38', 'x44', 'x45', 'x46']
New board to resolve
0 0 1 ? ? ? 2 1 1 0 
0 0 1 ? 3 3 3 ? 1 0 
0 1 2 2 1 2 ? 4 3 1 
1 2 ? ? 1 2 ? ? 2 ? 
? ? 3 ? 2 2 2 ? ? ? 
? ? ? ? ? ? ? ? ? ? 
? ? ? ? ? ? ? ? ? ? 
? ? ? ? ? ? ? ? ? ? 
? ? ? ? ? ? ? ? ? ? 
? ? ? ? ? ? ? ? ? ? 


Board to resolve
0 0 1 ? ? ? 2 1 1 0 
0 0 1 ? 3 3 3 ? 1 0 
0 1 2 2 1 2 ? 4 3 1 
1 2 ? ? 1 2 ? ? 2 ? 
? ? 3 ? 2 2 2 ? ? ? 
? ? ? ? ? ? ? ? ? ? 
? ? ? ? ? ? ? ? ? ? 
? ? ? ? ? ? ? ? ? ? 
? ? ? ? ? ? ? ? ? ? 
? ? ? ? ? ? ? ? ? ? 


Decided in 4.416666666666667 minutes
Revealing Positions: ['x47', 'x48', 'x49', 'x53', 'x55', 'x56', 'x57']
New board to resolve
0 0 1 ? ? ? 2 1 1 0 
0 0 1 ? 3 3 3 ? 1 0 
0 1 2 2 1 2 ? 4 3 1 
1 2 ? ? 1 2 ? ? 2 ? 
? ? 3 ? 2 2 2 2 2 1 
? ? ? 1 ? 1 0 1 ? ? 
? ? ? 2 1 1 0 1 ? ? 
? ? ? 2 0 0 0 1 ? ? 
? ? ? 2 1 1 1 1 ? ? 
? ? ? ? ? ? ? ? ? ? 


Board to resolve
0 0 1 ? ? ? 2 1 1 0 
0 0 1 ? 3 3 3 ? 1 0 
0 1 2 2 1 2 ? 4 3 1 
1 2 ? ? 1 2 ? ? 2 ? 
? ? 3 ? 2 2 2 2 2 1 
? ? ? 1 ? 1 0 1 ? ? 
? ? ? 2 1 1 0 1 ? ? 
? ? ? 2 0 0 0 1 ? ? 
? ? ? 2 1 1 1 1 ? ? 
? ? ? ? ? ? ? ? ? ? 


Decided in 0.21666666666666667 minutes
Revealing Positions: ['x13', 'x43', 'x52', 'x58', 'x59', 'x62', 'x78', 'x88', 'x92', 'x93', 'x94', 'x96', 'x97']
New board to resolve
0 0 1 ? ? ? 2 1 1 0 
0 0 1 2 3 3 3 ? 1 0 
0 1 2 2 1 2 ? 4 3 1 
1 2 ? ? 1 2 ? ? 2 ? 
? ? 3 3 2 2 2 2 2 1 
? ? 1 1 ? 1 0 1 2 2 
? ? 1 2 1 1 0 1 ? ? 
? ? ? 2 0 0 0 1 2 ? 
? ? ? 2 1 1 1 1 1 ? 
? ? 2 1 1 ? 1 1 ? ? 


Board to resolve
0 0 1 ? ? ? 2 1 1 0 
0 0 1 2 3 3 3 ? 1 0 
0 1 2 2 1 2 ? 4 3 1 
1 2 ? ? 1 2 ? ? 2 ? 
? ? 3 3 2 2 2 2 2 1 
? ? 1 1 ? 1 0 1 2 2 
? ? 1 2 1 1 0 1 ? ? 
? ? ? 2 0 0 0 1 2 ? 
? ? ? 2 1 1 1 1 1 ? 
? ? 2 1 1 ? 1 1 ? ? 


Decided in 0.03333333333333333 minutes
Revealing Positions: ['x40', 'x51', 'x61', 'x71', 'x79', 'x89', 'x99']
New board to resolve
0 0 1 ? ? ? 2 1 1 0 
0 0 1 2 3 3 3 ? 1 0 
0 1 2 2 1 2 ? 4 3 1 
1 2 ? ? 1 2 ? ? 2 ? 
1 ? 3 3 2 2 2 2 2 1 
? 2 1 1 ? 1 0 1 2 2 
? 2 1 2 1 1 0 1 ? ? 
? 3 ? 2 0 0 0 1 2 2 
? ? ? 2 1 1 1 1 1 1 
? ? 2 1 1 ? 1 1 ? 1 


Board to resolve
0 0 1 ? ? ? 2 1 1 0 
0 0 1 2 3 3 3 ? 1 0 
0 1 2 2 1 2 ? 4 3 1 
1 2 ? ? 1 2 ? ? 2 ? 
1 ? 3 3 2 2 2 2 2 1 
? 2 1 1 ? 1 0 1 2 2 
? 2 1 2 1 1 0 1 ? ? 
? 3 ? 2 0 0 0 1 2 2 
? ? ? 2 1 1 1 1 1 1 
? ? 2 1 1 ? 1 1 ? 1 


Decided in 0.016666666666666666 minutes
Revealing Positions: ['x50', 'x70', 'x80', 'x81']
New board to resolve
0 0 1 ? ? ? 2 1 1 0 
0 0 1 2 3 3 3 ? 1 0 
0 1 2 2 1 2 ? 4 3 1 
1 2 ? ? 1 2 ? ? 2 ? 
1 ? 3 3 2 2 2 2 2 1 
2 2 1 1 ? 1 0 1 2 2 
? 2 1 2 1 1 0 1 ? ? 
1 3 ? 2 0 0 0 1 2 2 
1 3 ? 2 1 1 1 1 1 1 
? ? 2 1 1 ? 1 1 ? 1 


Board to resolve
0 0 1 ? ? ? 2 1 1 0 
0 0 1 2 3 3 3 ? 1 0 
0 1 2 2 1 2 ? 4 3 1 
1 2 ? ? 1 2 ? ? 2 ? 
1 ? 3 3 2 2 2 2 2 1 
2 2 1 1 ? 1 0 1 2 2 
? 2 1 2 1 1 0 1 ? ? 
1 3 ? 2 0 0 0 1 2 2 
1 3 ? 2 1 1 1 1 1 1 
? ? 2 1 1 ? 1 1 ? 1 


Decided in 0.0 minutes
Revealing Positions: ['x90']
New board to resolve
0 0 1 ? ? ? 2 1 1 0 
0 0 1 2 3 3 3 ? 1 0 
0 1 2 2 1 2 ? 4 3 1 
1 2 ? ? 1 2 ? ? 2 ? 
1 ? 3 3 2 2 2 2 2 1 
2 2 1 1 ? 1 0 1 2 2 
? 2 1 2 1 1 0 1 ? ? 
1 3 ? 2 0 0 0 1 2 2 
1 3 ? 2 1 1 1 1 1 1 
1 ? 2 1 1 ? 1 1 ? 1 


WON!
Times lost: 0
Finished in 8.366666666666667 minutes


------------------------------
Playing Minesweeper with Bayesian Networks
Minesweeper Board: Num x = 10 ; Num y = 10 ; Mines = 20


Resolved Board Created
0 0 0 2 * * 2 0 1 * 
0 0 0 2 * * 2 1 3 3 
0 0 0 1 2 2 1 1 * * 
0 0 0 1 1 2 1 3 3 3 
0 0 0 1 * 3 * 2 * 1 
0 1 1 2 2 * 2 2 1 1 
0 2 * 2 1 2 3 2 1 0 
1 3 * 3 1 1 * * 1 0 
* 3 4 * 2 1 2 3 2 1 
2 * 3 * 2 0 0 1 * 1 


Board to resolve
0 0 0 2 ? ? ? ? ? ? 
0 0 0 2 ? ? ? ? ? ? 
0 0 0 1 ? ? ? ? ? ? 
0 0 0 1 ? ? ? ? ? ? 
0 0 0 1 ? ? ? ? ? ? 
0 1 1 2 ? ? ? ? ? ? 
0 2 ? ? ? ? ? ? ? ? 
1 3 ? ? ? ? ? ? ? ? 
? ? ? ? ? ? ? ? ? ? 
? ? ? ? ? ? ? ? ? ? 


Decided in 0.03333333333333333 minutes
Revealing Positions: ['x24', 'x34', 'x54', 'x63', 'x64', 'x82']
New board to resolve
0 0 0 2 ? ? ? ? ? ? 
0 0 0 2 ? ? ? ? ? ? 
0 0 0 1 2 ? ? ? ? ? 
0 0 0 1 1 ? ? ? ? ? 
0 0 0 1 ? ? ? ? ? ? 
0 1 1 2 2 ? ? ? ? ? 
0 2 ? 2 1 ? ? ? ? ? 
1 3 ? ? ? ? ? ? ? ? 
? ? 4 ? ? ? ? ? ? ? 
? ? ? ? ? ? ? ? ? ? 


Board to resolve
0 0 0 2 ? ? ? ? ? ? 
0 0 0 2 ? ? ? ? ? ? 
0 0 0 1 2 ? ? ? ? ? 
0 0 0 1 1 ? ? ? ? ? 
0 0 0 1 ? ? ? ? ? ? 
0 1 1 2 2 ? ? ? ? ? 
0 2 ? 2 1 ? ? ? ? ? 
1 3 ? ? ? ? ? ? ? ? 
? ? 4 ? ? ? ? ? ? ? 
? ? ? ? ? ? ? ? ? ? 


Decided in 0.5666666666666667 minutes
Revealing Positions: ['x25', 'x35', 'x45', 'x73', 'x74', 'x75']
New board to resolve
0 0 0 2 ? ? ? ? ? ? 
0 0 0 2 ? ? ? ? ? ? 
0 0 0 1 2 2 ? ? ? ? 
0 0 0 1 1 2 ? ? ? ? 
0 0 0 1 ? 3 ? ? ? ? 
0 1 1 2 2 ? ? ? ? ? 
0 2 ? 2 1 ? ? ? ? ? 
1 3 ? 3 1 1 ? ? ? ? 
? ? 4 ? ? ? ? ? ? ? 
? ? ? ? ? ? ? ? ? ? 


Board to resolve
0 0 0 2 ? ? ? ? ? ? 
0 0 0 2 ? ? ? ? ? ? 
0 0 0 1 2 2 ? ? ? ? 
0 0 0 1 1 2 ? ? ? ? 
0 0 0 1 ? 3 ? ? ? ? 
0 1 1 2 2 ? ? ? ? ? 
0 2 ? 2 1 ? ? ? ? ? 
1 3 ? 3 1 1 ? ? ? ? 
? ? 4 ? ? ? ? ? ? ? 
? ? ? ? ? ? ? ? ? ? 


Decided in 1.65 minutes
Revealing Positions: ['x16', 'x26', 'x36', 'x56', 'x65', 'x85']
New board to resolve
0 0 0 2 ? ? ? ? ? ? 
0 0 0 2 ? ? 2 ? ? ? 
0 0 0 1 2 2 1 ? ? ? 
0 0 0 1 1 2 1 ? ? ? 
0 0 0 1 ? 3 ? ? ? ? 
0 1 1 2 2 ? 2 ? ? ? 
0 2 ? 2 1 2 ? ? ? ? 
1 3 ? 3 1 1 ? ? ? ? 
? ? 4 ? ? 1 ? ? ? ? 
? ? ? ? ? ? ? ? ? ? 


Board to resolve
0 0 0 2 ? ? ? ? ? ? 
0 0 0 2 ? ? 2 ? ? ? 
0 0 0 1 2 2 1 ? ? ? 
0 0 0 1 1 2 1 ? ? ? 
0 0 0 1 ? 3 ? ? ? ? 
0 1 1 2 2 ? 2 ? ? ? 
0 2 ? 2 1 2 ? ? ? ? 
1 3 ? 3 1 1 ? ? ? ? 
? ? 4 ? ? 1 ? ? ? ? 
? ? ? ? ? ? ? ? ? ? 


Decided in 0.26666666666666666 minutes
Revealing Positions: ['x17', 'x27', 'x37', 'x47', 'x57', 'x66', 'x67', 'x84', 'x86', 'x94', 'x95', 'x96']
New board to resolve
0 0 0 2 ? ? ? ? ? ? 
0 0 0 2 ? ? 2 1 ? ? 
0 0 0 1 2 2 1 1 ? ? 
0 0 0 1 1 2 1 3 ? ? 
0 0 0 1 ? 3 ? 2 ? ? 
0 1 1 2 2 ? 2 2 ? ? 
0 2 ? 2 1 2 3 2 ? ? 
1 3 ? 3 1 1 ? ? ? ? 
? ? 4 ? 2 1 2 3 ? ? 
? ? ? ? 2 0 0 1 ? ? 


Board to resolve
0 0 0 2 ? ? ? ? ? ? 
0 0 0 2 ? ? 2 1 ? ? 
0 0 0 1 2 2 1 1 ? ? 
0 0 0 1 1 2 1 3 ? ? 
0 0 0 1 ? 3 ? 2 ? ? 
0 1 1 2 2 ? 2 2 ? ? 
0 2 ? 2 1 2 3 2 ? ? 
1 3 ? 3 1 1 ? ? ? ? 
? ? 4 ? 2 1 2 3 ? ? 
? ? ? ? 2 0 0 1 ? ? 


Decided in 0.18333333333333332 minutes
Revealing Positions: ['x06', 'x07', 'x08', 'x18', 'x38', 'x58', 'x68', 'x78']
New board to resolve
0 0 0 2 ? ? 2 0 1 ? 
0 0 0 2 ? ? 2 1 3 ? 
0 0 0 1 2 2 1 1 ? ? 
0 0 0 1 1 2 1 3 3 ? 
0 0 0 1 ? 3 ? 2 ? ? 
0 1 1 2 2 ? 2 2 1 ? 
0 2 ? 2 1 2 3 2 1 ? 
1 3 ? 3 1 1 ? ? 1 ? 
? ? 4 ? 2 1 2 3 ? ? 
? ? ? ? 2 0 0 1 ? ? 


Board to resolve
0 0 0 2 ? ? 2 0 1 ? 
0 0 0 2 ? ? 2 1 3 ? 
0 0 0 1 2 2 1 1 ? ? 
0 0 0 1 1 2 1 3 3 ? 
0 0 0 1 ? 3 ? 2 ? ? 
0 1 1 2 2 ? 2 2 1 ? 
0 2 ? 2 1 2 3 2 1 ? 
1 3 ? 3 1 1 ? ? 1 ? 
? ? 4 ? 2 1 2 3 ? ? 
? ? ? ? 2 0 0 1 ? ? 


Decided in 0.13333333333333333 minutes
Revealing Positions: ['x39', 'x49', 'x59', 'x69', 'x79', 'x88', 'x89']
New board to resolve
0 0 0 2 ? ? 2 0 1 ? 
0 0 0 2 ? ? 2 1 3 ? 
0 0 0 1 2 2 1 1 ? ? 
0 0 0 1 1 2 1 3 3 3 
0 0 0 1 ? 3 ? 2 ? 1 
0 1 1 2 2 ? 2 2 1 1 
0 2 ? 2 1 2 3 2 1 0 
1 3 ? 3 1 1 ? ? 1 0 
? ? 4 ? 2 1 2 3 2 1 
? ? ? ? 2 0 0 1 ? ? 


Board to resolve
0 0 0 2 ? ? 2 0 1 ? 
0 0 0 2 ? ? 2 1 3 ? 
0 0 0 1 2 2 1 1 ? ? 
0 0 0 1 1 2 1 3 3 3 
0 0 0 1 ? 3 ? 2 ? 1 
0 1 1 2 2 ? 2 2 1 1 
0 2 ? 2 1 2 3 2 1 0 
1 3 ? 3 1 1 ? ? 1 0 
? ? 4 ? 2 1 2 3 2 1 
? ? ? ? 2 0 0 1 ? ? 


Decided in 0.03333333333333333 minutes
Revealing Positions: ['x99']
New board to resolve
0 0 0 2 ? ? 2 0 1 ? 
0 0 0 2 ? ? 2 1 3 ? 
0 0 0 1 2 2 1 1 ? ? 
0 0 0 1 1 2 1 3 3 3 
0 0 0 1 ? 3 ? 2 ? 1 
0 1 1 2 2 ? 2 2 1 1 
0 2 ? 2 1 2 3 2 1 0 
1 3 ? 3 1 1 ? ? 1 0 
? ? 4 ? 2 1 2 3 2 1 
? ? ? ? 2 0 0 1 ? 1 


Board to resolve
0 0 0 2 ? ? 2 0 1 ? 
0 0 0 2 ? ? 2 1 3 ? 
0 0 0 1 2 2 1 1 ? ? 
0 0 0 1 1 2 1 3 3 3 
0 0 0 1 ? 3 ? 2 ? 1 
0 1 1 2 2 ? 2 2 1 1 
0 2 ? 2 1 2 3 2 1 0 
1 3 ? 3 1 1 ? ? 1 0 
? ? 4 ? 2 1 2 3 2 1 
? ? ? ? 2 0 0 1 ? 1 


Decided in 0.016666666666666666 minutes
Revealing Positions: ['x91']
Last board to resolve
0 0 0 2 ? ? 2 0 1 ? 
0 0 0 2 ? ? 2 1 3 ? 
0 0 0 1 2 2 1 1 ? ? 
0 0 0 1 1 2 1 3 3 3 
0 0 0 1 ? 3 ? 2 ? 1 
0 1 1 2 2 ? 2 2 1 1 
0 2 ? 2 1 2 3 2 1 0 
1 3 ? 3 1 1 ? ? 1 0 
? ? 4 ? 2 1 2 3 2 1 
? ? ? ? 2 0 0 1 ? 1 


LOST!
Finished in 2.8833333333333333 minutes


------------------------------
Playing Minesweeper with Bayesian Networks
Minesweeper Board: Num x = 10 ; Num y = 10 ; Mines = 20


Resolved Board Created
1 2 * 1 1 1 1 1 1 1 
* 3 3 2 2 * 1 1 * 1 
2 * 3 * 2 1 1 1 1 1 
1 2 * 2 1 0 0 0 0 0 
0 1 1 2 1 2 1 1 0 0 
1 1 0 1 * 2 * 1 0 0 
* 1 0 1 1 2 2 2 1 0 
2 2 1 1 2 2 3 * 1 0 
* 2 3 * 4 * * 3 2 1 
2 * 3 * * 4 * 2 1 * 


Board to resolve
1 ? ? ? ? ? ? ? ? ? 
? ? ? ? ? ? ? ? ? ? 
? ? ? ? ? ? ? ? ? ? 
? ? ? ? ? ? ? ? ? ? 
? ? ? ? ? ? ? ? ? ? 
? ? ? ? ? ? ? ? ? ? 
? ? ? ? ? ? ? ? ? ? 
? ? ? ? ? ? ? ? ? ? 
? ? ? ? ? ? ? ? ? ? 
? ? ? ? ? ? ? ? ? ? 


Decided in 0.0 minutes
Revealing Positions: ['x02']
Last board to resolve
1 ? ? ? ? ? ? ? ? ? 
? ? ? ? ? ? ? ? ? ? 
? ? ? ? ? ? ? ? ? ? 
? ? ? ? ? ? ? ? ? ? 
? ? ? ? ? ? ? ? ? ? 
? ? ? ? ? ? ? ? ? ? 
? ? ? ? ? ? ? ? ? ? 
? ? ? ? ? ? ? ? ? ? 
? ? ? ? ? ? ? ? ? ? 
? ? ? ? ? ? ? ? ? ? 


LOST!
Finished in 0.0 minutes


------------------------------
Playing Minesweeper with Bayesian Networks
Minesweeper Board: Num x = 10 ; Num y = 10 ; Mines = 20


Resolved Board Created
0 1 * 1 0 1 * 1 1 1 
1 2 3 2 1 2 3 3 2 * 
2 * 4 * 3 2 * * 2 1 
3 * 4 * 3 * 3 2 1 0 
* 3 3 2 2 1 2 1 1 0 
1 2 * 2 1 0 1 * 1 0 
0 2 3 * 1 0 1 1 1 0 
2 4 * 3 1 0 0 0 0 0 
* * * 3 2 2 1 0 0 0 
2 3 2 2 * * 1 0 0 0 


Board to resolve
0 1 ? ? ? ? ? ? ? ? 
1 2 ? ? ? ? ? ? ? ? 
? ? ? ? ? ? ? ? ? ? 
? ? ? ? ? ? ? ? ? ? 
? ? ? ? ? ? ? ? ? ? 
? ? ? ? ? ? ? ? ? ? 
? ? ? ? ? ? ? ? ? ? 
? ? ? ? ? ? ? ? ? ? 
? ? ? ? ? ? ? ? ? ? 
? ? ? ? ? ? ? ? ? ? 


Decided in 0.0 minutes
Revealing Positions: ['x22']
New board to resolve
0 1 ? ? ? ? ? ? ? ? 
1 2 ? ? ? ? ? ? ? ? 
? ? 4 ? ? ? ? ? ? ? 
? ? ? ? ? ? ? ? ? ? 
? ? ? ? ? ? ? ? ? ? 
? ? ? ? ? ? ? ? ? ? 
? ? ? ? ? ? ? ? ? ? 
? ? ? ? ? ? ? ? ? ? 
? ? ? ? ? ? ? ? ? ? 
? ? ? ? ? ? ? ? ? ? 


Board to resolve
0 1 ? ? ? ? ? ? ? ? 
1 2 ? ? ? ? ? ? ? ? 
? ? 4 ? ? ? ? ? ? ? 
? ? ? ? ? ? ? ? ? ? 
? ? ? ? ? ? ? ? ? ? 
? ? ? ? ? ? ? ? ? ? 
? ? ? ? ? ? ? ? ? ? 
? ? ? ? ? ? ? ? ? ? 
? ? ? ? ? ? ? ? ? ? 
? ? ? ? ? ? ? ? ? ? 


Decided in 0.05 minutes
Revealing Positions: ['x02']
Last board to resolve
0 1 ? ? ? ? ? ? ? ? 
1 2 ? ? ? ? ? ? ? ? 
? ? 4 ? ? ? ? ? ? ? 
? ? ? ? ? ? ? ? ? ? 
? ? ? ? ? ? ? ? ? ? 
? ? ? ? ? ? ? ? ? ? 
? ? ? ? ? ? ? ? ? ? 
? ? ? ? ? ? ? ? ? ? 
? ? ? ? ? ? ? ? ? ? 
? ? ? ? ? ? ? ? ? ? 


LOST!
Finished in 0.05 minutes


------------------------------
Playing Minesweeper with Bayesian Networks
Minesweeper Board: Num x = 10 ; Num y = 10 ; Mines = 20


Resolved Board Created
0 1 2 * * * 2 1 1 0 
0 1 * 3 3 2 3 * 2 0 
0 2 2 2 0 0 2 * 2 0 
0 1 * 1 0 1 2 2 1 0 
1 3 3 2 0 1 * 1 0 0 
3 * * 2 1 2 1 1 0 0 
* * 3 3 * 4 3 2 1 0 
2 2 1 2 * * * * 2 0 
1 1 2 2 3 3 4 * 2 0 
1 * 2 * 1 0 1 1 1 0 


Board to resolve
0 1 ? ? ? ? ? ? ? ? 
0 1 ? ? ? ? ? ? ? ? 
0 2 ? ? ? ? ? ? ? ? 
0 1 ? ? ? ? ? ? ? ? 
1 3 ? ? ? ? ? ? ? ? 
? ? ? ? ? ? ? ? ? ? 
? ? ? ? ? ? ? ? ? ? 
? ? ? ? ? ? ? ? ? ? 
? ? ? ? ? ? ? ? ? ? 
? ? ? ? ? ? ? ? ? ? 


Decided in 0.016666666666666666 minutes
Revealing Positions: ['x02', 'x22', 'x42']
New board to resolve
0 1 2 ? ? ? ? ? ? ? 
0 1 ? ? ? ? ? ? ? ? 
0 2 2 ? ? ? ? ? ? ? 
0 1 ? ? ? ? ? ? ? ? 
1 3 3 ? ? ? ? ? ? ? 
? ? ? ? ? ? ? ? ? ? 
? ? ? ? ? ? ? ? ? ? 
? ? ? ? ? ? ? ? ? ? 
? ? ? ? ? ? ? ? ? ? 
? ? ? ? ? ? ? ? ? ? 


Board to resolve
0 1 2 ? ? ? ? ? ? ? 
0 1 ? ? ? ? ? ? ? ? 
0 2 2 ? ? ? ? ? ? ? 
0 1 ? ? ? ? ? ? ? ? 
1 3 3 ? ? ? ? ? ? ? 
? ? ? ? ? ? ? ? ? ? 
? ? ? ? ? ? ? ? ? ? 
? ? ? ? ? ? ? ? ? ? 
? ? ? ? ? ? ? ? ? ? 
? ? ? ? ? ? ? ? ? ? 


Decided in 0.03333333333333333 minutes
Revealing Positions: ['x13', 'x23', 'x33']
New board to resolve
0 1 2 ? ? ? ? ? ? ? 
0 1 ? 3 ? ? ? ? ? ? 
0 2 2 2 ? ? ? ? ? ? 
0 1 ? 1 ? ? ? ? ? ? 
1 3 3 ? ? ? ? ? ? ? 
? ? ? ? ? ? ? ? ? ? 
? ? ? ? ? ? ? ? ? ? 
? ? ? ? ? ? ? ? ? ? 
? ? ? ? ? ? ? ? ? ? 
? ? ? ? ? ? ? ? ? ? 


Board to resolve
0 1 2 ? ? ? ? ? ? ? 
0 1 ? 3 ? ? ? ? ? ? 
0 2 2 2 ? ? ? ? ? ? 
0 1 ? 1 ? ? ? ? ? ? 
1 3 3 ? ? ? ? ? ? ? 
? ? ? ? ? ? ? ? ? ? 
? ? ? ? ? ? ? ? ? ? 
? ? ? ? ? ? ? ? ? ? 
? ? ? ? ? ? ? ? ? ? 
? ? ? ? ? ? ? ? ? ? 


Decided in 0.1 minutes
Revealing Positions: ['x14', 'x24', 'x34', 'x43', 'x44']
New board to resolve
0 1 2 ? ? ? ? ? ? ? 
0 1 ? 3 3 2 3 ? ? ? 
0 2 2 2 0 0 2 ? ? ? 
0 1 ? 1 0 1 2 ? ? ? 
1 3 3 2 0 1 ? ? ? ? 
? ? ? 2 1 2 ? ? ? ? 
? ? ? ? ? ? ? ? ? ? 
? ? ? ? ? ? ? ? ? ? 
? ? ? ? ? ? ? ? ? ? 
? ? ? ? ? ? ? ? ? ? 


Board to resolve
0 1 2 ? ? ? ? ? ? ? 
0 1 ? 3 3 2 3 ? ? ? 
0 2 2 2 0 0 2 ? ? ? 
0 1 ? 1 0 1 2 ? ? ? 
1 3 3 2 0 1 ? ? ? ? 
? ? ? 2 1 2 ? ? ? ? 
? ? ? ? ? ? ? ? ? ? 
? ? ? ? ? ? ? ? ? ? 
? ? ? ? ? ? ? ? ? ? 
? ? ? ? ? ? ? ? ? ? 


Decided in 0.21666666666666667 minutes
Revealing Positions: ['x06', 'x47', 'x50', 'x56']
New board to resolve
0 1 2 ? ? ? 2 ? ? ? 
0 1 ? 3 3 2 3 ? ? ? 
0 2 2 2 0 0 2 ? ? ? 
0 1 ? 1 0 1 2 ? ? ? 
1 3 3 2 0 1 ? 1 ? ? 
3 ? ? 2 1 2 1 ? ? ? 
? ? ? ? ? ? ? ? ? ? 
? ? ? ? ? ? ? ? ? ? 
? ? ? ? ? ? ? ? ? ? 
? ? ? ? ? ? ? ? ? ? 


Board to resolve
0 1 2 ? ? ? 2 ? ? ? 
0 1 ? 3 3 2 3 ? ? ? 
0 2 2 2 0 0 2 ? ? ? 
0 1 ? 1 0 1 2 ? ? ? 
1 3 3 2 0 1 ? 1 ? ? 
3 ? ? 2 1 2 1 ? ? ? 
? ? ? ? ? ? ? ? ? ? 
? ? ? ? ? ? ? ? ? ? 
? ? ? ? ? ? ? ? ? ? 
? ? ? ? ? ? ? ? ? ? 


Decided in 0.08333333333333333 minutes
Revealing Positions: ['x07', 'x37', 'x38', 'x48', 'x57', 'x58', 'x62', 'x63', 'x65', 'x66', 'x67']
New board to resolve
0 1 2 ? ? ? 2 1 1 0 
0 1 ? 3 3 2 3 ? 2 0 
0 2 2 2 0 0 2 ? 2 0 
0 1 ? 1 0 1 2 2 1 0 
1 3 3 2 0 1 ? 1 0 0 
3 ? ? 2 1 2 1 1 0 0 
? ? 3 3 ? 4 3 2 1 0 
? ? ? ? ? ? ? ? 2 0 
? ? ? ? ? ? ? ? 2 0 
? ? ? ? ? ? ? ? 1 0 


Board to resolve
0 1 2 ? ? ? 2 1 1 0 
0 1 ? 3 3 2 3 ? 2 0 
0 2 2 2 0 0 2 ? 2 0 
0 1 ? 1 0 1 2 2 1 0 
1 3 3 2 0 1 ? 1 0 0 
3 ? ? 2 1 2 1 1 0 0 
? ? 3 3 ? 4 3 2 1 0 
? ? ? ? ? ? ? ? 2 0 
? ? ? ? ? ? ? ? 2 0 
? ? ? ? ? ? ? ? 1 0 


Decided in 0.05 minutes
Revealing Positions: ['x71', 'x72', 'x73', 'x97']
New board to resolve
0 1 2 ? ? ? 2 1 1 0 
0 1 ? 3 3 2 3 ? 2 0 
0 2 2 2 0 0 2 ? 2 0 
0 1 ? 1 0 1 2 2 1 0 
1 3 3 2 0 1 ? 1 0 0 
3 ? ? 2 1 2 1 1 0 0 
? ? 3 3 ? 4 3 2 1 0 
? 2 1 2 ? ? ? ? 2 0 
? ? ? ? ? ? ? ? 2 0 
? ? ? ? ? ? ? 1 1 0 


Board to resolve
0 1 2 ? ? ? 2 1 1 0 
0 1 ? 3 3 2 3 ? 2 0 
0 2 2 2 0 0 2 ? 2 0 
0 1 ? 1 0 1 2 2 1 0 
1 3 3 2 0 1 ? 1 0 0 
3 ? ? 2 1 2 1 1 0 0 
? ? 3 3 ? 4 3 2 1 0 
? 2 1 2 ? ? ? ? 2 0 
? ? ? ? ? ? ? ? 2 0 
? ? ? ? ? ? ? 1 1 0 


Decided in 0.03333333333333333 minutes
Revealing Positions: ['x70', 'x80', 'x81', 'x82', 'x83', 'x84', 'x86', 'x96']
New board to resolve
0 1 2 ? ? ? 2 1 1 0 
0 1 ? 3 3 2 3 ? 2 0 
0 2 2 2 0 0 2 ? 2 0 
0 1 ? 1 0 1 2 2 1 0 
1 3 3 2 0 1 ? 1 0 0 
3 ? ? 2 1 2 1 1 0 0 
? ? 3 3 ? 4 3 2 1 0 
2 2 1 2 ? ? ? ? 2 0 
1 1 2 2 3 ? 4 ? 2 0 
? ? ? ? ? ? 1 1 1 0 


Board to resolve
0 1 2 ? ? ? 2 1 1 0 
0 1 ? 3 3 2 3 ? 2 0 
0 2 2 2 0 0 2 ? 2 0 
0 1 ? 1 0 1 2 2 1 0 
1 3 3 2 0 1 ? 1 0 0 
3 ? ? 2 1 2 1 1 0 0 
? ? 3 3 ? 4 3 2 1 0 
2 2 1 2 ? ? ? ? 2 0 
1 1 2 2 3 ? 4 ? 2 0 
? ? ? ? ? ? 1 1 1 0 


Decided in 0.03333333333333333 minutes
Revealing Positions: ['x85', 'x90', 'x92', 'x94', 'x95']
New board to resolve
0 1 2 ? ? ? 2 1 1 0 
0 1 ? 3 3 2 3 ? 2 0 
0 2 2 2 0 0 2 ? 2 0 
0 1 ? 1 0 1 2 2 1 0 
1 3 3 2 0 1 ? 1 0 0 
3 ? ? 2 1 2 1 1 0 0 
? ? 3 3 ? 4 3 2 1 0 
2 2 1 2 ? ? ? ? 2 0 
1 1 2 2 3 3 4 ? 2 0 
1 ? 2 ? 1 0 1 1 1 0 


WON!
Times lost: 3
Finished in 0.5666666666666667 minutes


------------------------------
Playing Minesweeper with Bayesian Networks
Minesweeper Board: Num x = 10 ; Num y = 10 ; Mines = 20


Resolved Board Created
0 1 1 1 1 * 2 2 * 2 
1 2 * 1 1 2 * 2 2 * 
* 2 1 2 1 3 2 2 1 1 
1 1 0 1 * 2 * 1 1 1 
0 1 2 3 2 3 2 3 2 * 
1 2 * * 1 2 * 3 * 2 
* 2 3 3 2 3 * 4 1 1 
1 1 2 * 3 3 * 2 0 0 
0 0 2 * 4 * 2 1 0 0 
0 0 1 2 * 2 1 0 0 0 


Board to resolve
0 1 ? ? ? ? ? ? ? ? 
1 2 ? ? ? ? ? ? ? ? 
? ? ? ? ? ? ? ? ? ? 
? ? ? ? ? ? ? ? ? ? 
? ? ? ? ? ? ? ? ? ? 
? ? ? ? ? ? ? ? ? ? 
? ? ? ? ? ? ? ? ? ? 
? ? ? ? ? ? ? ? ? ? 
? ? ? ? ? ? ? ? ? ? 
? ? ? ? ? ? ? ? ? ? 


Decided in 0.0 minutes
Revealing Positions: ['x22']
New board to resolve
0 1 ? ? ? ? ? ? ? ? 
1 2 ? ? ? ? ? ? ? ? 
? ? 1 ? ? ? ? ? ? ? 
? ? ? ? ? ? ? ? ? ? 
? ? ? ? ? ? ? ? ? ? 
? ? ? ? ? ? ? ? ? ? 
? ? ? ? ? ? ? ? ? ? 
? ? ? ? ? ? ? ? ? ? 
? ? ? ? ? ? ? ? ? ? 
? ? ? ? ? ? ? ? ? ? 


Board to resolve
0 1 ? ? ? ? ? ? ? ? 
1 2 ? ? ? ? ? ? ? ? 
? ? 1 ? ? ? ? ? ? ? 
? ? ? ? ? ? ? ? ? ? 
? ? ? ? ? ? ? ? ? ? 
? ? ? ? ? ? ? ? ? ? 
? ? ? ? ? ? ? ? ? ? 
? ? ? ? ? ? ? ? ? ? 
? ? ? ? ? ? ? ? ? ? 
? ? ? ? ? ? ? ? ? ? 


Decided in 0.05 minutes
Revealing Positions: ['x13']
New board to resolve
0 1 ? ? ? ? ? ? ? ? 
1 2 ? 1 ? ? ? ? ? ? 
? ? 1 ? ? ? ? ? ? ? 
? ? ? ? ? ? ? ? ? ? 
? ? ? ? ? ? ? ? ? ? 
? ? ? ? ? ? ? ? ? ? 
? ? ? ? ? ? ? ? ? ? 
? ? ? ? ? ? ? ? ? ? 
? ? ? ? ? ? ? ? ? ? 
? ? ? ? ? ? ? ? ? ? 


Board to resolve
0 1 ? ? ? ? ? ? ? ? 
1 2 ? 1 ? ? ? ? ? ? 
? ? 1 ? ? ? ? ? ? ? 
? ? ? ? ? ? ? ? ? ? 
? ? ? ? ? ? ? ? ? ? 
? ? ? ? ? ? ? ? ? ? 
? ? ? ? ? ? ? ? ? ? 
? ? ? ? ? ? ? ? ? ? 
? ? ? ? ? ? ? ? ? ? 
? ? ? ? ? ? ? ? ? ? 


Decided in 0.18333333333333332 minutes
Revealing Positions: ['x03', 'x04', 'x14', 'x23', 'x24']
New board to resolve
0 1 ? 1 1 ? ? ? ? ? 
1 2 ? 1 1 ? ? ? ? ? 
? ? 1 2 1 ? ? ? ? ? 
? ? ? ? ? ? ? ? ? ? 
? ? ? ? ? ? ? ? ? ? 
? ? ? ? ? ? ? ? ? ? 
? ? ? ? ? ? ? ? ? ? 
? ? ? ? ? ? ? ? ? ? 
? ? ? ? ? ? ? ? ? ? 
? ? ? ? ? ? ? ? ? ? 


Board to resolve
0 1 ? 1 1 ? ? ? ? ? 
1 2 ? 1 1 ? ? ? ? ? 
? ? 1 2 1 ? ? ? ? ? 
? ? ? ? ? ? ? ? ? ? 
? ? ? ? ? ? ? ? ? ? 
? ? ? ? ? ? ? ? ? ? 
? ? ? ? ? ? ? ? ? ? 
? ? ? ? ? ? ? ? ? ? 
? ? ? ? ? ? ? ? ? ? 
? ? ? ? ? ? ? ? ? ? 


Decided in 0.05 minutes
Revealing Positions: ['x15', 'x21', 'x25', 'x31', 'x33', 'x35']
New board to resolve
0 1 ? 1 1 ? ? ? ? ? 
1 2 ? 1 1 2 ? ? ? ? 
? 2 1 2 1 3 ? ? ? ? 
? 1 ? 1 ? 2 ? ? ? ? 
? ? ? ? ? ? ? ? ? ? 
? ? ? ? ? ? ? ? ? ? 
? ? ? ? ? ? ? ? ? ? 
? ? ? ? ? ? ? ? ? ? 
? ? ? ? ? ? ? ? ? ? 
? ? ? ? ? ? ? ? ? ? 


Board to resolve
0 1 ? 1 1 ? ? ? ? ? 
1 2 ? 1 1 2 ? ? ? ? 
? 2 1 2 1 3 ? ? ? ? 
? 1 ? 1 ? 2 ? ? ? ? 
? ? ? ? ? ? ? ? ? ? 
? ? ? ? ? ? ? ? ? ? 
? ? ? ? ? ? ? ? ? ? 
? ? ? ? ? ? ? ? ? ? 
? ? ? ? ? ? ? ? ? ? 
? ? ? ? ? ? ? ? ? ? 


Decided in 0.1 minutes
Revealing Positions: ['x02', 'x06', 'x26', 'x30', 'x32', 'x40', 'x41', 'x42', 'x43', 'x44', 'x45', 'x46']
New board to resolve
0 1 1 1 1 ? 2 ? ? ? 
1 2 ? 1 1 2 ? ? ? ? 
? 2 1 2 1 3 2 ? ? ? 
1 1 0 1 ? 2 ? ? ? ? 
0 1 2 3 2 3 2 ? ? ? 
1 2 ? ? ? ? ? ? ? ? 
? ? ? ? ? ? ? ? ? ? 
? ? ? ? ? ? ? ? ? ? 
? ? ? ? ? ? ? ? ? ? 
? ? ? ? ? ? ? ? ? ? 


Board to resolve
0 1 1 1 1 ? 2 ? ? ? 
1 2 ? 1 1 2 ? ? ? ? 
? 2 1 2 1 3 2 ? ? ? 
1 1 0 1 ? 2 ? ? ? ? 
0 1 2 3 2 3 2 ? ? ? 
1 2 ? ? ? ? ? ? ? ? 
? ? ? ? ? ? ? ? ? ? 
? ? ? ? ? ? ? ? ? ? 
? ? ? ? ? ? ? ? ? ? 
? ? ? ? ? ? ? ? ? ? 


Decided in 0.1 minutes
Revealing Positions: ['x07', 'x17', 'x27', 'x37', 'x47', 'x54', 'x55', 'x57', 'x62']
New board to resolve
0 1 1 1 1 ? 2 2 ? ? 
1 2 ? 1 1 2 ? 2 ? ? 
? 2 1 2 1 3 2 2 ? ? 
1 1 0 1 ? 2 ? 1 ? ? 
0 1 2 3 2 3 2 3 ? ? 
1 2 ? ? 1 2 ? 3 ? ? 
? ? 3 ? ? ? ? ? ? ? 
? ? ? ? ? ? ? ? ? ? 
? ? ? ? ? ? ? ? ? ? 
? ? ? ? ? ? ? ? ? ? 


Board to resolve
0 1 1 1 1 ? 2 2 ? ? 
1 2 ? 1 1 2 ? 2 ? ? 
? 2 1 2 1 3 2 2 ? ? 
1 1 0 1 ? 2 ? 1 ? ? 
0 1 2 3 2 3 2 3 ? ? 
1 2 ? ? 1 2 ? 3 ? ? 
? ? 3 ? ? ? ? ? ? ? 
? ? ? ? ? ? ? ? ? ? 
? ? ? ? ? ? ? ? ? ? 
? ? ? ? ? ? ? ? ? ? 


Decided in 0.2 minutes
Revealing Positions: ['x18', 'x28', 'x38', 'x48', 'x63', 'x64', 'x65', 'x67', 'x68']
New board to resolve
0 1 1 1 1 ? 2 2 ? ? 
1 2 ? 1 1 2 ? 2 2 ? 
? 2 1 2 1 3 2 2 1 ? 
1 1 0 1 ? 2 ? 1 1 ? 
0 1 2 3 2 3 2 3 2 ? 
1 2 ? ? 1 2 ? 3 ? ? 
? ? 3 3 2 3 ? 4 1 ? 
? ? ? ? ? ? ? ? ? ? 
? ? ? ? ? ? ? ? ? ? 
? ? ? ? ? ? ? ? ? ? 


Board to resolve
0 1 1 1 1 ? 2 2 ? ? 
1 2 ? 1 1 2 ? 2 2 ? 
? 2 1 2 1 3 2 2 1 ? 
1 1 0 1 ? 2 ? 1 1 ? 
0 1 2 3 2 3 2 3 2 ? 
1 2 ? ? 1 2 ? 3 ? ? 
? ? 3 3 2 3 ? 4 1 ? 
? ? ? ? ? ? ? ? ? ? 
? ? ? ? ? ? ? ? ? ? 
? ? ? ? ? ? ? ? ? ? 


Decided in 0.25 minutes
Revealing Positions: ['x29', 'x59', 'x61', 'x69', 'x71', 'x72', 'x74', 'x75', 'x77', 'x78', 'x79']
New board to resolve
0 1 1 1 1 ? 2 2 ? ? 
1 2 ? 1 1 2 ? 2 2 ? 
? 2 1 2 1 3 2 2 1 1 
1 1 0 1 ? 2 ? 1 1 ? 
0 1 2 3 2 3 2 3 2 ? 
1 2 ? ? 1 2 ? 3 ? 2 
? 2 3 3 2 3 ? 4 1 1 
? 1 2 ? 3 3 ? 2 0 0 
? ? ? ? ? ? 2 1 0 0 
? ? ? ? ? ? 1 0 0 0 


Board to resolve
0 1 1 1 1 ? 2 2 ? ? 
1 2 ? 1 1 2 ? 2 2 ? 
? 2 1 2 1 3 2 2 1 1 
1 1 0 1 ? 2 ? 1 1 ? 
0 1 2 3 2 3 2 3 2 ? 
1 2 ? ? 1 2 ? 3 ? 2 
? 2 3 3 2 3 ? 4 1 1 
? 1 2 ? 3 3 ? 2 0 0 
? ? ? ? ? ? 2 1 0 0 
? ? ? ? ? ? 1 0 0 0 


Decided in 0.03333333333333333 minutes
Revealing Positions: ['x09', 'x39', 'x70', 'x80', 'x81', 'x82']
New board to resolve
0 1 1 1 1 ? 2 2 ? 2 
1 2 ? 1 1 2 ? 2 2 ? 
? 2 1 2 1 3 2 2 1 1 
1 1 0 1 ? 2 ? 1 1 1 
0 1 2 3 2 3 2 3 2 ? 
1 2 ? ? 1 2 ? 3 ? 2 
? 2 3 3 2 3 ? 4 1 1 
1 1 2 ? 3 3 ? 2 0 0 
0 0 2 ? ? ? 2 1 0 0 
0 0 1 ? ? ? 1 0 0 0 


Board to resolve
0 1 1 1 1 ? 2 2 ? 2 
1 2 ? 1 1 2 ? 2 2 ? 
? 2 1 2 1 3 2 2 1 1 
1 1 0 1 ? 2 ? 1 1 1 
0 1 2 3 2 3 2 3 2 ? 
1 2 ? ? 1 2 ? 3 ? 2 
? 2 3 3 2 3 ? 4 1 1 
1 1 2 ? 3 3 ? 2 0 0 
0 0 2 ? ? ? 2 1 0 0 
0 0 1 ? ? ? 1 0 0 0 


Decided in 0.016666666666666666 minutes
Revealing Positions: ['x93']
New board to resolve
0 1 1 1 1 ? 2 2 ? 2 
1 2 ? 1 1 2 ? 2 2 ? 
? 2 1 2 1 3 2 2 1 1 
1 1 0 1 ? 2 ? 1 1 1 
0 1 2 3 2 3 2 3 2 ? 
1 2 ? ? 1 2 ? 3 ? 2 
? 2 3 3 2 3 ? 4 1 1 
1 1 2 ? 3 3 ? 2 0 0 
0 0 2 ? ? ? 2 1 0 0 
0 0 1 2 ? ? 1 0 0 0 


Board to resolve
0 1 1 1 1 ? 2 2 ? 2 
1 2 ? 1 1 2 ? 2 2 ? 
? 2 1 2 1 3 2 2 1 1 
1 1 0 1 ? 2 ? 1 1 1 
0 1 2 3 2 3 2 3 2 ? 
1 2 ? ? 1 2 ? 3 ? 2 
? 2 3 3 2 3 ? 4 1 1 
1 1 2 ? 3 3 ? 2 0 0 
0 0 2 ? ? ? 2 1 0 0 
0 0 1 2 ? ? 1 0 0 0 


Decided in 0.0 minutes
Revealing Positions: ['x85']
Last board to resolve
0 1 1 1 1 ? 2 2 ? 2 
1 2 ? 1 1 2 ? 2 2 ? 
? 2 1 2 1 3 2 2 1 1 
1 1 0 1 ? 2 ? 1 1 1 
0 1 2 3 2 3 2 3 2 ? 
1 2 ? ? 1 2 ? 3 ? 2 
? 2 3 3 2 3 ? 4 1 1 
1 1 2 ? 3 3 ? 2 0 0 
0 0 2 ? ? ? 2 1 0 0 
0 0 1 2 ? ? 1 0 0 0 


LOST!
Finished in 0.9833333333333333 minutes


------------------------------
Playing Minesweeper with Bayesian Networks
Minesweeper Board: Num x = 10 ; Num y = 10 ; Mines = 20


Resolved Board Created
* 1 1 * * * 1 0 0 0 
1 1 1 2 3 2 1 1 2 2 
0 0 0 0 0 0 1 2 * * 
1 1 2 1 2 1 2 * 3 2 
2 * 3 * 3 * 2 1 1 0 
* 3 5 * 4 1 2 1 1 0 
1 2 * * 3 1 2 * 2 1 
1 2 3 2 2 * 3 2 2 * 
1 * 1 0 1 2 * 2 2 2 
1 1 1 0 0 1 1 2 * 1 


Board to resolve
? 1 ? ? ? ? ? ? ? ? 
? ? ? ? ? ? ? ? ? ? 
? ? ? ? ? ? ? ? ? ? 
? ? ? ? ? ? ? ? ? ? 
? ? ? ? ? ? ? ? ? ? 
? ? ? ? ? ? ? ? ? ? 
? ? ? ? ? ? ? ? ? ? 
? ? ? ? ? ? ? ? ? ? 
? ? ? ? ? ? ? ? ? ? 
? ? ? ? ? ? ? ? ? ? 


Decided in 0.0 minutes
Revealing Positions: ['x00']
Last board to resolve
? 1 ? ? ? ? ? ? ? ? 
? ? ? ? ? ? ? ? ? ? 
? ? ? ? ? ? ? ? ? ? 
? ? ? ? ? ? ? ? ? ? 
? ? ? ? ? ? ? ? ? ? 
? ? ? ? ? ? ? ? ? ? 
? ? ? ? ? ? ? ? ? ? 
? ? ? ? ? ? ? ? ? ? 
? ? ? ? ? ? ? ? ? ? 
? ? ? ? ? ? ? ? ? ? 


LOST!
Finished in 0.0 minutes


------------------------------
Playing Minesweeper with Bayesian Networks
Minesweeper Board: Num x = 10 ; Num y = 10 ; Mines = 20


Resolved Board Created
1 * 1 1 1 1 0 0 0 0 
1 1 1 1 * 1 0 1 1 1 
0 0 0 1 1 1 0 1 * 1 
1 1 1 1 1 0 0 2 2 2 
* 3 2 * 2 2 3 3 * 1 
* 5 * 4 3 * * * 3 2 
3 * * 3 * 3 3 3 4 * 
2 * 4 3 2 2 1 1 * * 
1 2 * 1 1 * 1 1 2 2 
0 1 1 1 1 1 1 0 0 0 


Board to resolve
1 ? ? ? ? ? ? ? ? ? 
? ? ? ? ? ? ? ? ? ? 
? ? ? ? ? ? ? ? ? ? 
? ? ? ? ? ? ? ? ? ? 
? ? ? ? ? ? ? ? ? ? 
? ? ? ? ? ? ? ? ? ? 
? ? ? ? ? ? ? ? ? ? 
? ? ? ? ? ? ? ? ? ? 
? ? ? ? ? ? ? ? ? ? 
? ? ? ? ? ? ? ? ? ? 


Decided in 0.0 minutes
Revealing Positions: ['x02']
New board to resolve
1 ? 1 ? ? ? ? ? ? ? 
? ? ? ? ? ? ? ? ? ? 
? ? ? ? ? ? ? ? ? ? 
? ? ? ? ? ? ? ? ? ? 
? ? ? ? ? ? ? ? ? ? 
? ? ? ? ? ? ? ? ? ? 
? ? ? ? ? ? ? ? ? ? 
? ? ? ? ? ? ? ? ? ? 
? ? ? ? ? ? ? ? ? ? 
? ? ? ? ? ? ? ? ? ? 


Board to resolve
1 ? 1 ? ? ? ? ? ? ? 
? ? ? ? ? ? ? ? ? ? 
? ? ? ? ? ? ? ? ? ? 
? ? ? ? ? ? ? ? ? ? 
? ? ? ? ? ? ? ? ? ? 
? ? ? ? ? ? ? ? ? ? 
? ? ? ? ? ? ? ? ? ? 
? ? ? ? ? ? ? ? ? ? 
? ? ? ? ? ? ? ? ? ? 
? ? ? ? ? ? ? ? ? ? 


Decided in 0.016666666666666666 minutes
Revealing Positions: ['x03']
New board to resolve
1 ? 1 1 ? ? ? ? ? ? 
? ? ? ? ? ? ? ? ? ? 
? ? ? ? ? ? ? ? ? ? 
? ? ? ? ? ? ? ? ? ? 
? ? ? ? ? ? ? ? ? ? 
? ? ? ? ? ? ? ? ? ? 
? ? ? ? ? ? ? ? ? ? 
? ? ? ? ? ? ? ? ? ? 
? ? ? ? ? ? ? ? ? ? 
? ? ? ? ? ? ? ? ? ? 


Board to resolve
1 ? 1 1 ? ? ? ? ? ? 
? ? ? ? ? ? ? ? ? ? 
? ? ? ? ? ? ? ? ? ? 
? ? ? ? ? ? ? ? ? ? 
? ? ? ? ? ? ? ? ? ? 
? ? ? ? ? ? ? ? ? ? 
? ? ? ? ? ? ? ? ? ? 
? ? ? ? ? ? ? ? ? ? 
? ? ? ? ? ? ? ? ? ? 
? ? ? ? ? ? ? ? ? ? 


Decided in 0.0 minutes
Revealing Positions: ['x12']
New board to resolve
1 ? 1 1 ? ? ? ? ? ? 
? ? 1 ? ? ? ? ? ? ? 
? ? ? ? ? ? ? ? ? ? 
? ? ? ? ? ? ? ? ? ? 
? ? ? ? ? ? ? ? ? ? 
? ? ? ? ? ? ? ? ? ? 
? ? ? ? ? ? ? ? ? ? 
? ? ? ? ? ? ? ? ? ? 
? ? ? ? ? ? ? ? ? ? 
? ? ? ? ? ? ? ? ? ? 


Board to resolve
1 ? 1 1 ? ? ? ? ? ? 
? ? 1 ? ? ? ? ? ? ? 
? ? ? ? ? ? ? ? ? ? 
? ? ? ? ? ? ? ? ? ? 
? ? ? ? ? ? ? ? ? ? 
? ? ? ? ? ? ? ? ? ? 
? ? ? ? ? ? ? ? ? ? 
? ? ? ? ? ? ? ? ? ? 
? ? ? ? ? ? ? ? ? ? 
? ? ? ? ? ? ? ? ? ? 


Decided in 0.03333333333333333 minutes
Revealing Positions: ['x21', 'x22', 'x23']
New board to resolve
1 ? 1 1 ? ? ? ? ? ? 
1 1 1 1 ? ? ? ? ? ? 
0 0 0 1 ? ? ? ? ? ? 
1 1 1 1 ? ? ? ? ? ? 
? ? ? ? ? ? ? ? ? ? 
? ? ? ? ? ? ? ? ? ? 
? ? ? ? ? ? ? ? ? ? 
? ? ? ? ? ? ? ? ? ? 
? ? ? ? ? ? ? ? ? ? 
? ? ? ? ? ? ? ? ? ? 


Board to resolve
1 ? 1 1 ? ? ? ? ? ? 
1 1 1 1 ? ? ? ? ? ? 
0 0 0 1 ? ? ? ? ? ? 
1 1 1 1 ? ? ? ? ? ? 
? ? ? ? ? ? ? ? ? ? 
? ? ? ? ? ? ? ? ? ? 
? ? ? ? ? ? ? ? ? ? 
? ? ? ? ? ? ? ? ? ? 
? ? ? ? ? ? ? ? ? ? 
? ? ? ? ? ? ? ? ? ? 


Decided in 0.016666666666666666 minutes
Revealing Positions: ['x24', 'x42']
New board to resolve
1 ? 1 1 ? ? ? ? ? ? 
1 1 1 1 ? ? ? ? ? ? 
0 0 0 1 1 ? ? ? ? ? 
1 1 1 1 ? ? ? ? ? ? 
? ? 2 ? ? ? ? ? ? ? 
? ? ? ? ? ? ? ? ? ? 
? ? ? ? ? ? ? ? ? ? 
? ? ? ? ? ? ? ? ? ? 
? ? ? ? ? ? ? ? ? ? 
? ? ? ? ? ? ? ? ? ? 


Board to resolve
1 ? 1 1 ? ? ? ? ? ? 
1 1 1 1 ? ? ? ? ? ? 
0 0 0 1 1 ? ? ? ? ? 
1 1 1 1 ? ? ? ? ? ? 
? ? 2 ? ? ? ? ? ? ? 
? ? ? ? ? ? ? ? ? ? 
? ? ? ? ? ? ? ? ? ? 
? ? ? ? ? ? ? ? ? ? 
? ? ? ? ? ? ? ? ? ? 
? ? ? ? ? ? ? ? ? ? 


Decided in 0.03333333333333333 minutes
Revealing Positions: ['x15', 'x25', 'x35']
New board to resolve
1 ? 1 1 ? 1 0 0 0 0 
1 1 1 1 ? 1 0 1 1 1 
0 0 0 1 1 1 0 1 ? ? 
1 1 1 1 1 0 0 2 ? ? 
? ? 2 ? 2 2 3 3 ? ? 
? ? ? ? ? ? ? ? ? ? 
? ? ? ? ? ? ? ? ? ? 
? ? ? ? ? ? ? ? ? ? 
? ? ? ? ? ? ? ? ? ? 
? ? ? ? ? ? ? ? ? ? 


Board to resolve
1 ? 1 1 ? 1 0 0 0 0 
1 1 1 1 ? 1 0 1 1 1 
0 0 0 1 1 1 0 1 ? ? 
1 1 1 1 1 0 0 2 ? ? 
? ? 2 ? 2 2 3 3 ? ? 
? ? ? ? ? ? ? ? ? ? 
? ? ? ? ? ? ? ? ? ? 
? ? ? ? ? ? ? ? ? ? 
? ? ? ? ? ? ? ? ? ? 
? ? ? ? ? ? ? ? ? ? 


Decided in 0.06666666666666667 minutes
Revealing Positions: ['x04', 'x29', 'x38', 'x41', 'x53', 'x54', 'x58']
New board to resolve
1 ? 1 1 1 1 0 0 0 0 
1 1 1 1 ? 1 0 1 1 1 
0 0 0 1 1 1 0 1 ? 1 
1 1 1 1 1 0 0 2 2 ? 
? 3 2 ? 2 2 3 3 ? ? 
? ? ? 4 3 ? ? ? 3 ? 
? ? ? ? ? ? ? ? ? ? 
? ? ? ? ? ? ? ? ? ? 
? ? ? ? ? ? ? ? ? ? 
? ? ? ? ? ? ? ? ? ? 


Board to resolve
1 ? 1 1 1 1 0 0 0 0 
1 1 1 1 ? 1 0 1 1 1 
0 0 0 1 1 1 0 1 ? 1 
1 1 1 1 1 0 0 2 2 ? 
? 3 2 ? 2 2 3 3 ? ? 
? ? ? 4 3 ? ? ? 3 ? 
? ? ? ? ? ? ? ? ? ? 
? ? ? ? ? ? ? ? ? ? 
? ? ? ? ? ? ? ? ? ? 
? ? ? ? ? ? ? ? ? ? 


Decided in 0.1 minutes
Revealing Positions: ['x39', 'x49', 'x51', 'x65']
New board to resolve
1 ? 1 1 1 1 0 0 0 0 
1 1 1 1 ? 1 0 1 1 1 
0 0 0 1 1 1 0 1 ? 1 
1 1 1 1 1 0 0 2 2 2 
? 3 2 ? 2 2 3 3 ? 1 
? 5 ? 4 3 ? ? ? 3 ? 
? ? ? ? ? 3 ? ? ? ? 
? ? ? ? ? ? ? ? ? ? 
? ? ? ? ? ? ? ? ? ? 
? ? ? ? ? ? ? ? ? ? 


Board to resolve
1 ? 1 1 1 1 0 0 0 0 
1 1 1 1 ? 1 0 1 1 1 
0 0 0 1 1 1 0 1 ? 1 
1 1 1 1 1 0 0 2 2 2 
? 3 2 ? 2 2 3 3 ? 1 
? 5 ? 4 3 ? ? ? 3 ? 
? ? ? ? ? 3 ? ? ? ? 
? ? ? ? ? ? ? ? ? ? 
? ? ? ? ? ? ? ? ? ? 
? ? ? ? ? ? ? ? ? ? 


Decided in 0.11666666666666667 minutes
Revealing Positions: ['x59']
New board to resolve
1 ? 1 1 1 1 0 0 0 0 
1 1 1 1 ? 1 0 1 1 1 
0 0 0 1 1 1 0 1 ? 1 
1 1 1 1 1 0 0 2 2 2 
? 3 2 ? 2 2 3 3 ? 1 
? 5 ? 4 3 ? ? ? 3 2 
? ? ? ? ? 3 ? ? ? ? 
? ? ? ? ? ? ? ? ? ? 
? ? ? ? ? ? ? ? ? ? 
? ? ? ? ? ? ? ? ? ? 


Board to resolve
1 ? 1 1 1 1 0 0 0 0 
1 1 1 1 ? 1 0 1 1 1 
0 0 0 1 1 1 0 1 ? 1 
1 1 1 1 1 0 0 2 2 2 
? 3 2 ? 2 2 3 3 ? 1 
? 5 ? 4 3 ? ? ? 3 2 
? ? ? ? ? 3 ? ? ? ? 
? ? ? ? ? ? ? ? ? ? 
? ? ? ? ? ? ? ? ? ? 
? ? ? ? ? ? ? ? ? ? 


Decided in 0.1 minutes
Revealing Positions: ['x67']
New board to resolve
1 ? 1 1 1 1 0 0 0 0 
1 1 1 1 ? 1 0 1 1 1 
0 0 0 1 1 1 0 1 ? 1 
1 1 1 1 1 0 0 2 2 2 
? 3 2 ? 2 2 3 3 ? 1 
? 5 ? 4 3 ? ? ? 3 2 
? ? ? ? ? 3 ? 3 ? ? 
? ? ? ? ? ? ? ? ? ? 
? ? ? ? ? ? ? ? ? ? 
? ? ? ? ? ? ? ? ? ? 


Board to resolve
1 ? 1 1 1 1 0 0 0 0 
1 1 1 1 ? 1 0 1 1 1 
0 0 0 1 1 1 0 1 ? 1 
1 1 1 1 1 0 0 2 2 2 
? 3 2 ? 2 2 3 3 ? 1 
? 5 ? 4 3 ? ? ? 3 2 
? ? ? ? ? 3 ? 3 ? ? 
? ? ? ? ? ? ? ? ? ? 
? ? ? ? ? ? ? ? ? ? 
? ? ? ? ? ? ? ? ? ? 


Decided in 0.25 minutes
Revealing Positions: ['x66']
New board to resolve
1 ? 1 1 1 1 0 0 0 0 
1 1 1 1 ? 1 0 1 1 1 
0 0 0 1 1 1 0 1 ? 1 
1 1 1 1 1 0 0 2 2 2 
? 3 2 ? 2 2 3 3 ? 1 
? 5 ? 4 3 ? ? ? 3 2 
? ? ? ? ? 3 3 3 ? ? 
? ? ? ? ? ? ? ? ? ? 
? ? ? ? ? ? ? ? ? ? 
? ? ? ? ? ? ? ? ? ? 


Board to resolve
1 ? 1 1 1 1 0 0 0 0 
1 1 1 1 ? 1 0 1 1 1 
0 0 0 1 1 1 0 1 ? 1 
1 1 1 1 1 0 0 2 2 2 
? 3 2 ? 2 2 3 3 ? 1 
? 5 ? 4 3 ? ? ? 3 2 
? ? ? ? ? 3 3 3 ? ? 
? ? ? ? ? ? ? ? ? ? 
? ? ? ? ? ? ? ? ? ? 
? ? ? ? ? ? ? ? ? ? 


Decided in 0.6 minutes
Revealing Positions: ['x75', 'x76', 'x77']
New board to resolve
1 ? 1 1 1 1 0 0 0 0 
1 1 1 1 ? 1 0 1 1 1 
0 0 0 1 1 1 0 1 ? 1 
1 1 1 1 1 0 0 2 2 2 
? 3 2 ? 2 2 3 3 ? 1 
? 5 ? 4 3 ? ? ? 3 2 
? ? ? ? ? 3 3 3 ? ? 
? ? ? ? ? 2 1 1 ? ? 
? ? ? ? ? ? ? ? ? ? 
? ? ? ? ? ? ? ? ? ? 


Board to resolve
1 ? 1 1 1 1 0 0 0 0 
1 1 1 1 ? 1 0 1 1 1 
0 0 0 1 1 1 0 1 ? 1 
1 1 1 1 1 0 0 2 2 2 
? 3 2 ? 2 2 3 3 ? 1 
? 5 ? 4 3 ? ? ? 3 2 
? ? ? ? ? 3 3 3 ? ? 
? ? ? ? ? 2 1 1 ? ? 
? ? ? ? ? ? ? ? ? ? 
? ? ? ? ? ? ? ? ? ? 


Decided in 0.13333333333333333 minutes
Revealing Positions: ['x84', 'x86', 'x87', 'x88']
New board to resolve
1 ? 1 1 1 1 0 0 0 0 
1 1 1 1 ? 1 0 1 1 1 
0 0 0 1 1 1 0 1 ? 1 
1 1 1 1 1 0 0 2 2 2 
? 3 2 ? 2 2 3 3 ? 1 
? 5 ? 4 3 ? ? ? 3 2 
? ? ? ? ? 3 3 3 ? ? 
? ? ? ? ? 2 1 1 ? ? 
? ? ? ? 1 ? 1 1 2 ? 
? ? ? ? ? ? ? ? ? ? 


Board to resolve
1 ? 1 1 1 1 0 0 0 0 
1 1 1 1 ? 1 0 1 1 1 
0 0 0 1 1 1 0 1 ? 1 
1 1 1 1 1 0 0 2 2 2 
? 3 2 ? 2 2 3 3 ? 1 
? 5 ? 4 3 ? ? ? 3 2 
? ? ? ? ? 3 3 3 ? ? 
? ? ? ? ? 2 1 1 ? ? 
? ? ? ? 1 ? 1 1 2 ? 
? ? ? ? ? ? ? ? ? ? 


Decided in 0.2833333333333333 minutes
Revealing Positions: ['x63', 'x73', 'x74', 'x83', 'x93', 'x94', 'x95', 'x96', 'x97']
New board to resolve
1 ? 1 1 1 1 0 0 0 0 
1 1 1 1 ? 1 0 1 1 1 
0 0 0 1 1 1 0 1 ? 1 
1 1 1 1 1 0 0 2 2 2 
? 3 2 ? 2 2 3 3 ? 1 
? 5 ? 4 3 ? ? ? 3 2 
? ? ? 3 ? 3 3 3 ? ? 
? ? ? 3 2 2 1 1 ? ? 
? ? ? 1 1 ? 1 1 2 2 
? ? ? 1 1 1 1 0 0 0 


Board to resolve
1 ? 1 1 1 1 0 0 0 0 
1 1 1 1 ? 1 0 1 1 1 
0 0 0 1 1 1 0 1 ? 1 
1 1 1 1 1 0 0 2 2 2 
? 3 2 ? 2 2 3 3 ? 1 
? 5 ? 4 3 ? ? ? 3 2 
? ? ? 3 ? 3 3 3 ? ? 
? ? ? 3 2 2 1 1 ? ? 
? ? ? 1 1 ? 1 1 2 2 
? ? ? 1 1 1 1 0 0 0 


Decided in 0.03333333333333333 minutes
Revealing Positions: ['x68', 'x72', 'x92']
New board to resolve
1 ? 1 1 1 1 0 0 0 0 
1 1 1 1 ? 1 0 1 1 1 
0 0 0 1 1 1 0 1 ? 1 
1 1 1 1 1 0 0 2 2 2 
? 3 2 ? 2 2 3 3 ? 1 
? 5 ? 4 3 ? ? ? 3 2 
? ? ? 3 ? 3 3 3 4 ? 
? ? 4 3 2 2 1 1 ? ? 
? ? ? 1 1 ? 1 1 2 2 
? ? 1 1 1 1 1 0 0 0 


Board to resolve
1 ? 1 1 1 1 0 0 0 0 
1 1 1 1 ? 1 0 1 1 1 
0 0 0 1 1 1 0 1 ? 1 
1 1 1 1 1 0 0 2 2 2 
? 3 2 ? 2 2 3 3 ? 1 
? 5 ? 4 3 ? ? ? 3 2 
? ? ? 3 ? 3 3 3 4 ? 
? ? 4 3 2 2 1 1 ? ? 
? ? ? 1 1 ? 1 1 2 2 
? ? 1 1 1 1 1 0 0 0 


Decided in 0.03333333333333333 minutes
Revealing Positions: ['x60', 'x81', 'x91']
New board to resolve
1 ? 1 1 1 1 0 0 0 0 
1 1 1 1 ? 1 0 1 1 1 
0 0 0 1 1 1 0 1 ? 1 
1 1 1 1 1 0 0 2 2 2 
? 3 2 ? 2 2 3 3 ? 1 
? 5 ? 4 3 ? ? ? 3 2 
3 ? ? 3 ? 3 3 3 4 ? 
? ? 4 3 2 2 1 1 ? ? 
? 2 ? 1 1 ? 1 1 2 2 
? 1 1 1 1 1 1 0 0 0 


Board to resolve
1 ? 1 1 1 1 0 0 0 0 
1 1 1 1 ? 1 0 1 1 1 
0 0 0 1 1 1 0 1 ? 1 
1 1 1 1 1 0 0 2 2 2 
? 3 2 ? 2 2 3 3 ? 1 
? 5 ? 4 3 ? ? ? 3 2 
3 ? ? 3 ? 3 3 3 4 ? 
? ? 4 3 2 2 1 1 ? ? 
? 2 ? 1 1 ? 1 1 2 2 
? 1 1 1 1 1 1 0 0 0 


Decided in 0.0 minutes
Revealing Positions: ['x70', 'x80', 'x90']
New board to resolve
1 ? 1 1 1 1 0 0 0 0 
1 1 1 1 ? 1 0 1 1 1 
0 0 0 1 1 1 0 1 ? 1 
1 1 1 1 1 0 0 2 2 2 
? 3 2 ? 2 2 3 3 ? 1 
? 5 ? 4 3 ? ? ? 3 2 
3 ? ? 3 ? 3 3 3 4 ? 
2 ? 4 3 2 2 1 1 ? ? 
1 2 ? 1 1 ? 1 1 2 2 
0 1 1 1 1 1 1 0 0 0 


WON!
Times lost: 2
Finished in 1.8166666666666667 minutes


------------------------------
Playing Minesweeper with Bayesian Networks
Minesweeper Board: Num x = 10 ; Num y = 10 ; Mines = 20


Resolved Board Created
0 1 * 2 2 1 1 0 1 * 
0 1 2 * 2 * 2 1 3 2 
0 1 2 2 2 1 2 * 2 * 
0 1 * 2 1 0 1 1 2 1 
0 1 2 * 1 0 0 0 1 1 
0 0 1 1 1 0 0 0 1 * 
0 0 1 1 1 1 1 2 2 2 
1 2 3 * 1 2 * 4 * 1 
2 * * 3 2 3 * * 3 2 
2 * 4 * 1 2 * 3 2 * 


Board to resolve
0 1 ? ? ? ? ? ? ? ? 
0 1 ? ? ? ? ? ? ? ? 
0 1 ? ? ? ? ? ? ? ? 
0 1 ? ? ? ? ? ? ? ? 
0 1 2 ? ? ? ? ? ? ? 
0 0 1 ? ? ? ? ? ? ? 
0 0 1 ? ? ? ? ? ? ? 
1 2 3 ? ? ? ? ? ? ? 
? ? ? ? ? ? ? ? ? ? 
? ? ? ? ? ? ? ? ? ? 


Decided in 0.03333333333333333 minutes
Revealing Positions: ['x12', 'x22']
New board to resolve
0 1 ? ? ? ? ? ? ? ? 
0 1 2 ? ? ? ? ? ? ? 
0 1 2 ? ? ? ? ? ? ? 
0 1 ? ? ? ? ? ? ? ? 
0 1 2 ? ? ? ? ? ? ? 
0 0 1 ? ? ? ? ? ? ? 
0 0 1 ? ? ? ? ? ? ? 
1 2 3 ? ? ? ? ? ? ? 
? ? ? ? ? ? ? ? ? ? 
? ? ? ? ? ? ? ? ? ? 


Board to resolve
0 1 ? ? ? ? ? ? ? ? 
0 1 2 ? ? ? ? ? ? ? 
0 1 2 ? ? ? ? ? ? ? 
0 1 ? ? ? ? ? ? ? ? 
0 1 2 ? ? ? ? ? ? ? 
0 0 1 ? ? ? ? ? ? ? 
0 0 1 ? ? ? ? ? ? ? 
1 2 3 ? ? ? ? ? ? ? 
? ? ? ? ? ? ? ? ? ? 
? ? ? ? ? ? ? ? ? ? 


Decided in 0.03333333333333333 minutes
Revealing Positions: ['x80']
New board to resolve
0 1 ? ? ? ? ? ? ? ? 
0 1 2 ? ? ? ? ? ? ? 
0 1 2 ? ? ? ? ? ? ? 
0 1 ? ? ? ? ? ? ? ? 
0 1 2 ? ? ? ? ? ? ? 
0 0 1 ? ? ? ? ? ? ? 
0 0 1 ? ? ? ? ? ? ? 
1 2 3 ? ? ? ? ? ? ? 
2 ? ? ? ? ? ? ? ? ? 
? ? ? ? ? ? ? ? ? ? 


Board to resolve
0 1 ? ? ? ? ? ? ? ? 
0 1 2 ? ? ? ? ? ? ? 
0 1 2 ? ? ? ? ? ? ? 
0 1 ? ? ? ? ? ? ? ? 
0 1 2 ? ? ? ? ? ? ? 
0 0 1 ? ? ? ? ? ? ? 
0 0 1 ? ? ? ? ? ? ? 
1 2 3 ? ? ? ? ? ? ? 
2 ? ? ? ? ? ? ? ? ? 
? ? ? ? ? ? ? ? ? ? 


Decided in 0.03333333333333333 minutes
Revealing Positions: ['x03']
New board to resolve
0 1 ? 2 ? ? ? ? ? ? 
0 1 2 ? ? ? ? ? ? ? 
0 1 2 ? ? ? ? ? ? ? 
0 1 ? ? ? ? ? ? ? ? 
0 1 2 ? ? ? ? ? ? ? 
0 0 1 ? ? ? ? ? ? ? 
0 0 1 ? ? ? ? ? ? ? 
1 2 3 ? ? ? ? ? ? ? 
2 ? ? ? ? ? ? ? ? ? 
? ? ? ? ? ? ? ? ? ? 


Board to resolve
0 1 ? 2 ? ? ? ? ? ? 
0 1 2 ? ? ? ? ? ? ? 
0 1 2 ? ? ? ? ? ? ? 
0 1 ? ? ? ? ? ? ? ? 
0 1 2 ? ? ? ? ? ? ? 
0 0 1 ? ? ? ? ? ? ? 
0 0 1 ? ? ? ? ? ? ? 
1 2 3 ? ? ? ? ? ? ? 
2 ? ? ? ? ? ? ? ? ? 
? ? ? ? ? ? ? ? ? ? 


Decided in 0.05 minutes
Revealing Positions: ['x33', 'x63']
New board to resolve
0 1 ? 2 ? ? ? ? ? ? 
0 1 2 ? ? ? ? ? ? ? 
0 1 2 ? ? ? ? ? ? ? 
0 1 ? 2 ? ? ? ? ? ? 
0 1 2 ? ? ? ? ? ? ? 
0 0 1 ? ? ? ? ? ? ? 
0 0 1 1 ? ? ? ? ? ? 
1 2 3 ? ? ? ? ? ? ? 
2 ? ? ? ? ? ? ? ? ? 
? ? ? ? ? ? ? ? ? ? 


Board to resolve
0 1 ? 2 ? ? ? ? ? ? 
0 1 2 ? ? ? ? ? ? ? 
0 1 2 ? ? ? ? ? ? ? 
0 1 ? 2 ? ? ? ? ? ? 
0 1 2 ? ? ? ? ? ? ? 
0 0 1 ? ? ? ? ? ? ? 
0 0 1 1 ? ? ? ? ? ? 
1 2 3 ? ? ? ? ? ? ? 
2 ? ? ? ? ? ? ? ? ? 
? ? ? ? ? ? ? ? ? ? 


Decided in 0.6 minutes
Revealing Positions: ['x54', 'x64', 'x74']
New board to resolve
0 1 ? 2 ? ? ? ? ? ? 
0 1 2 ? ? ? ? ? ? ? 
0 1 2 ? ? ? ? ? ? ? 
0 1 ? 2 ? ? ? ? ? ? 
0 1 2 ? ? ? ? ? ? ? 
0 0 1 ? 1 ? ? ? ? ? 
0 0 1 1 1 ? ? ? ? ? 
1 2 3 ? 1 ? ? ? ? ? 
2 ? ? ? ? ? ? ? ? ? 
? ? ? ? ? ? ? ? ? ? 


Board to resolve
0 1 ? 2 ? ? ? ? ? ? 
0 1 2 ? ? ? ? ? ? ? 
0 1 2 ? ? ? ? ? ? ? 
0 1 ? 2 ? ? ? ? ? ? 
0 1 2 ? ? ? ? ? ? ? 
0 0 1 ? 1 ? ? ? ? ? 
0 0 1 1 1 ? ? ? ? ? 
1 2 3 ? 1 ? ? ? ? ? 
2 ? ? ? ? ? ? ? ? ? 
? ? ? ? ? ? ? ? ? ? 


Decided in 0.6 minutes
Revealing Positions: ['x44', 'x45', 'x55', 'x65', 'x75', 'x84', 'x85']
New board to resolve
0 1 ? 2 ? ? ? ? ? ? 
0 1 2 ? ? ? ? ? ? ? 
0 1 2 ? 2 1 2 ? ? ? 
0 1 ? 2 1 0 1 1 2 ? 
0 1 2 ? 1 0 0 0 1 ? 
0 0 1 ? 1 0 0 0 1 ? 
0 0 1 1 1 1 1 2 2 ? 
1 2 3 ? 1 2 ? ? ? ? 
2 ? ? ? 2 3 ? ? ? ? 
? ? ? ? ? ? ? ? ? ? 


Board to resolve
0 1 ? 2 ? ? ? ? ? ? 
0 1 2 ? ? ? ? ? ? ? 
0 1 2 ? 2 1 2 ? ? ? 
0 1 ? 2 1 0 1 1 2 ? 
0 1 2 ? 1 0 0 0 1 ? 
0 0 1 ? 1 0 0 0 1 ? 
0 0 1 1 1 1 1 2 2 ? 
1 2 3 ? 1 2 ? ? ? ? 
2 ? ? ? 2 3 ? ? ? ? 
? ? ? ? ? ? ? ? ? ? 


Decided in 1.4166666666666667 minutes
Revealing Positions: ['x16', 'x28', 'x77']
New board to resolve
0 1 ? 2 ? ? ? ? ? ? 
0 1 2 ? ? ? 2 ? ? ? 
0 1 2 ? 2 1 2 ? 2 ? 
0 1 ? 2 1 0 1 1 2 ? 
0 1 2 ? 1 0 0 0 1 ? 
0 0 1 ? 1 0 0 0 1 ? 
0 0 1 1 1 1 1 2 2 ? 
1 2 3 ? 1 2 ? 4 ? ? 
2 ? ? ? 2 3 ? ? ? ? 
? ? ? ? ? ? ? ? ? ? 


Board to resolve
0 1 ? 2 ? ? ? ? ? ? 
0 1 2 ? ? ? 2 ? ? ? 
0 1 2 ? 2 1 2 ? 2 ? 
0 1 ? 2 1 0 1 1 2 ? 
0 1 2 ? 1 0 0 0 1 ? 
0 0 1 ? 1 0 0 0 1 ? 
0 0 1 1 1 1 1 2 2 ? 
1 2 3 ? 1 2 ? 4 ? ? 
2 ? ? ? 2 3 ? ? ? ? 
? ? ? ? ? ? ? ? ? ? 


Decided in 5.033333333333333 minutes
Revealing Positions: ['x05', 'x06', 'x07']
New board to resolve
0 1 ? 2 ? 1 1 0 1 ? 
0 1 2 ? ? ? 2 1 3 ? 
0 1 2 ? 2 1 2 ? 2 ? 
0 1 ? 2 1 0 1 1 2 ? 
0 1 2 ? 1 0 0 0 1 ? 
0 0 1 ? 1 0 0 0 1 ? 
0 0 1 1 1 1 1 2 2 ? 
1 2 3 ? 1 2 ? 4 ? ? 
2 ? ? ? 2 3 ? ? ? ? 
? ? ? ? ? ? ? ? ? ? 


Board to resolve
0 1 ? 2 ? 1 1 0 1 ? 
0 1 2 ? ? ? 2 1 3 ? 
0 1 2 ? 2 1 2 ? 2 ? 
0 1 ? 2 1 0 1 1 2 ? 
0 1 2 ? 1 0 0 0 1 ? 
0 0 1 ? 1 0 0 0 1 ? 
0 0 1 1 1 1 1 2 2 ? 
1 2 3 ? 1 2 ? 4 ? ? 
2 ? ? ? 2 3 ? ? ? ? 
? ? ? ? ? ? ? ? ? ? 


Decided in 0.5833333333333334 minutes
Revealing Positions: ['x04', 'x14', 'x19', 'x23', 'x39', 'x49', 'x53', 'x69', 'x79', 'x83']
New board to resolve
0 1 ? 2 2 1 1 0 1 ? 
0 1 2 ? 2 ? 2 1 3 2 
0 1 2 2 2 1 2 ? 2 ? 
0 1 ? 2 1 0 1 1 2 1 
0 1 2 ? 1 0 0 0 1 1 
0 0 1 1 1 0 0 0 1 ? 
0 0 1 1 1 1 1 2 2 2 
1 2 3 ? 1 2 ? 4 ? 1 
2 ? ? 3 2 3 ? ? ? ? 
? ? ? ? ? ? ? ? ? ? 


Board to resolve
0 1 ? 2 2 1 1 0 1 ? 
0 1 2 ? 2 ? 2 1 3 2 
0 1 2 2 2 1 2 ? 2 ? 
0 1 ? 2 1 0 1 1 2 1 
0 1 2 ? 1 0 0 0 1 1 
0 0 1 1 1 0 0 0 1 ? 
0 0 1 1 1 1 1 2 2 2 
1 2 3 ? 1 2 ? 4 ? 1 
2 ? ? 3 2 3 ? ? ? ? 
? ? ? ? ? ? ? ? ? ? 


Decided in 0.03333333333333333 minutes
Revealing Positions: ['x88', 'x89']
New board to resolve
0 1 ? 2 2 1 1 0 1 ? 
0 1 2 ? 2 ? 2 1 3 2 
0 1 2 2 2 1 2 ? 2 ? 
0 1 ? 2 1 0 1 1 2 1 
0 1 2 ? 1 0 0 0 1 1 
0 0 1 1 1 0 0 0 1 ? 
0 0 1 1 1 1 1 2 2 2 
1 2 3 ? 1 2 ? 4 ? 1 
2 ? ? 3 2 3 ? ? 3 2 
? ? ? ? ? ? ? ? ? ? 


Board to resolve
0 1 ? 2 2 1 1 0 1 ? 
0 1 2 ? 2 ? 2 1 3 2 
0 1 2 2 2 1 2 ? 2 ? 
0 1 ? 2 1 0 1 1 2 1 
0 1 2 ? 1 0 0 0 1 1 
0 0 1 1 1 0 0 0 1 ? 
0 0 1 1 1 1 1 2 2 2 
1 2 3 ? 1 2 ? 4 ? 1 
2 ? ? 3 2 3 ? ? 3 2 
? ? ? ? ? ? ? ? ? ? 


Decided in 0.03333333333333333 minutes
Revealing Positions: ['x97']
New board to resolve
0 1 ? 2 2 1 1 0 1 ? 
0 1 2 ? 2 ? 2 1 3 2 
0 1 2 2 2 1 2 ? 2 ? 
0 1 ? 2 1 0 1 1 2 1 
0 1 2 ? 1 0 0 0 1 1 
0 0 1 1 1 0 0 0 1 ? 
0 0 1 1 1 1 1 2 2 2 
1 2 3 ? 1 2 ? 4 ? 1 
2 ? ? 3 2 3 ? ? 3 2 
? ? ? ? ? ? ? 3 ? ? 


Board to resolve
0 1 ? 2 2 1 1 0 1 ? 
0 1 2 ? 2 ? 2 1 3 2 
0 1 2 2 2 1 2 ? 2 ? 
0 1 ? 2 1 0 1 1 2 1 
0 1 2 ? 1 0 0 0 1 1 
0 0 1 1 1 0 0 0 1 ? 
0 0 1 1 1 1 1 2 2 2 
1 2 3 ? 1 2 ? 4 ? 1 
2 ? ? 3 2 3 ? ? 3 2 
? ? ? ? ? ? ? 3 ? ? 


Decided in 0.03333333333333333 minutes
Revealing Positions: ['x92']
New board to resolve
0 1 ? 2 2 1 1 0 1 ? 
0 1 2 ? 2 ? 2 1 3 2 
0 1 2 2 2 1 2 ? 2 ? 
0 1 ? 2 1 0 1 1 2 1 
0 1 2 ? 1 0 0 0 1 1 
0 0 1 1 1 0 0 0 1 ? 
0 0 1 1 1 1 1 2 2 2 
1 2 3 ? 1 2 ? 4 ? 1 
2 ? ? 3 2 3 ? ? 3 2 
? ? 4 ? ? ? ? 3 ? ? 


Board to resolve
0 1 ? 2 2 1 1 0 1 ? 
0 1 2 ? 2 ? 2 1 3 2 
0 1 2 2 2 1 2 ? 2 ? 
0 1 ? 2 1 0 1 1 2 1 
0 1 2 ? 1 0 0 0 1 1 
0 0 1 1 1 0 0 0 1 ? 
0 0 1 1 1 1 1 2 2 2 
1 2 3 ? 1 2 ? 4 ? 1 
2 ? ? 3 2 3 ? ? 3 2 
? ? 4 ? ? ? ? 3 ? ? 


Decided in 0.016666666666666666 minutes
Revealing Positions: ['x90', 'x94', 'x95', 'x98']
New board to resolve
0 1 ? 2 2 1 1 0 1 ? 
0 1 2 ? 2 ? 2 1 3 2 
0 1 2 2 2 1 2 ? 2 ? 
0 1 ? 2 1 0 1 1 2 1 
0 1 2 ? 1 0 0 0 1 1 
0 0 1 1 1 0 0 0 1 ? 
0 0 1 1 1 1 1 2 2 2 
1 2 3 ? 1 2 ? 4 ? 1 
2 ? ? 3 2 3 ? ? 3 2 
2 ? 4 ? 1 2 ? 3 2 ? 


WON!
Times lost: 0
Finished in 8.5 minutes


------------------------------
Playing Minesweeper with Bayesian Networks
Minesweeper Board: Num x = 10 ; Num y = 10 ; Mines = 20


Resolved Board Created
1 1 1 0 2 * 2 0 0 0 
1 * 2 2 4 * 3 1 0 0 
2 3 3 * * 4 * 1 0 0 
* 3 * 4 * 4 2 1 1 1 
* 3 1 3 4 * 2 0 1 * 
1 1 0 1 * * 2 0 1 1 
1 1 0 1 2 2 2 1 2 1 
* 1 0 0 0 1 2 * 3 * 
1 2 1 1 0 1 * 2 3 * 
0 1 * 1 0 1 1 1 1 1 


Board to resolve
1 ? ? ? ? ? ? ? ? ? 
? ? ? ? ? ? ? ? ? ? 
? ? ? ? ? ? ? ? ? ? 
? ? ? ? ? ? ? ? ? ? 
? ? ? ? ? ? ? ? ? ? 
? ? ? ? ? ? ? ? ? ? 
? ? ? ? ? ? ? ? ? ? 
? ? ? ? ? ? ? ? ? ? 
? ? ? ? ? ? ? ? ? ? 
? ? ? ? ? ? ? ? ? ? 


Decided in 0.016666666666666666 minutes
Revealing Positions: ['x02']
New board to resolve
1 ? 1 ? ? ? ? ? ? ? 
? ? ? ? ? ? ? ? ? ? 
? ? ? ? ? ? ? ? ? ? 
? ? ? ? ? ? ? ? ? ? 
? ? ? ? ? ? ? ? ? ? 
? ? ? ? ? ? ? ? ? ? 
? ? ? ? ? ? ? ? ? ? 
? ? ? ? ? ? ? ? ? ? 
? ? ? ? ? ? ? ? ? ? 
? ? ? ? ? ? ? ? ? ? 


Board to resolve
1 ? 1 ? ? ? ? ? ? ? 
? ? ? ? ? ? ? ? ? ? 
? ? ? ? ? ? ? ? ? ? 
? ? ? ? ? ? ? ? ? ? 
? ? ? ? ? ? ? ? ? ? 
? ? ? ? ? ? ? ? ? ? 
? ? ? ? ? ? ? ? ? ? 
? ? ? ? ? ? ? ? ? ? 
? ? ? ? ? ? ? ? ? ? 
? ? ? ? ? ? ? ? ? ? 


Decided in 0.0 minutes
Revealing Positions: ['x03']
New board to resolve
1 ? 1 0 2 ? ? ? ? ? 
? ? 2 2 4 ? ? ? ? ? 
? ? ? ? ? ? ? ? ? ? 
? ? ? ? ? ? ? ? ? ? 
? ? ? ? ? ? ? ? ? ? 
? ? ? ? ? ? ? ? ? ? 
? ? ? ? ? ? ? ? ? ? 
? ? ? ? ? ? ? ? ? ? 
? ? ? ? ? ? ? ? ? ? 
? ? ? ? ? ? ? ? ? ? 


Board to resolve
1 ? 1 0 2 ? ? ? ? ? 
? ? 2 2 4 ? ? ? ? ? 
? ? ? ? ? ? ? ? ? ? 
? ? ? ? ? ? ? ? ? ? 
? ? ? ? ? ? ? ? ? ? 
? ? ? ? ? ? ? ? ? ? 
? ? ? ? ? ? ? ? ? ? 
? ? ? ? ? ? ? ? ? ? 
? ? ? ? ? ? ? ? ? ? 
? ? ? ? ? ? ? ? ? ? 


Decided in 0.016666666666666666 minutes
Revealing Positions: ['x10', 'x21']
New board to resolve
1 ? 1 0 2 ? ? ? ? ? 
1 ? 2 2 4 ? ? ? ? ? 
? 3 ? ? ? ? ? ? ? ? 
? ? ? ? ? ? ? ? ? ? 
? ? ? ? ? ? ? ? ? ? 
? ? ? ? ? ? ? ? ? ? 
? ? ? ? ? ? ? ? ? ? 
? ? ? ? ? ? ? ? ? ? 
? ? ? ? ? ? ? ? ? ? 
? ? ? ? ? ? ? ? ? ? 


Board to resolve
1 ? 1 0 2 ? ? ? ? ? 
1 ? 2 2 4 ? ? ? ? ? 
? 3 ? ? ? ? ? ? ? ? 
? ? ? ? ? ? ? ? ? ? 
? ? ? ? ? ? ? ? ? ? 
? ? ? ? ? ? ? ? ? ? 
? ? ? ? ? ? ? ? ? ? 
? ? ? ? ? ? ? ? ? ? 
? ? ? ? ? ? ? ? ? ? 
? ? ? ? ? ? ? ? ? ? 


Decided in 0.03333333333333333 minutes
Revealing Positions: ['x20']
New board to resolve
1 ? 1 0 2 ? ? ? ? ? 
1 ? 2 2 4 ? ? ? ? ? 
2 3 ? ? ? ? ? ? ? ? 
? ? ? ? ? ? ? ? ? ? 
? ? ? ? ? ? ? ? ? ? 
? ? ? ? ? ? ? ? ? ? 
? ? ? ? ? ? ? ? ? ? 
? ? ? ? ? ? ? ? ? ? 
? ? ? ? ? ? ? ? ? ? 
? ? ? ? ? ? ? ? ? ? 


Board to resolve
1 ? 1 0 2 ? ? ? ? ? 
1 ? 2 2 4 ? ? ? ? ? 
2 3 ? ? ? ? ? ? ? ? 
? ? ? ? ? ? ? ? ? ? 
? ? ? ? ? ? ? ? ? ? 
? ? ? ? ? ? ? ? ? ? 
? ? ? ? ? ? ? ? ? ? 
? ? ? ? ? ? ? ? ? ? 
? ? ? ? ? ? ? ? ? ? 
? ? ? ? ? ? ? ? ? ? 


Decided in 0.016666666666666666 minutes
Revealing Positions: ['x01']
New board to resolve
1 1 1 0 2 ? ? ? ? ? 
1 ? 2 2 4 ? ? ? ? ? 
2 3 ? ? ? ? ? ? ? ? 
? ? ? ? ? ? ? ? ? ? 
? ? ? ? ? ? ? ? ? ? 
? ? ? ? ? ? ? ? ? ? 
? ? ? ? ? ? ? ? ? ? 
? ? ? ? ? ? ? ? ? ? 
? ? ? ? ? ? ? ? ? ? 
? ? ? ? ? ? ? ? ? ? 


Board to resolve
1 1 1 0 2 ? ? ? ? ? 
1 ? 2 2 4 ? ? ? ? ? 
2 3 ? ? ? ? ? ? ? ? 
? ? ? ? ? ? ? ? ? ? 
? ? ? ? ? ? ? ? ? ? 
? ? ? ? ? ? ? ? ? ? 
? ? ? ? ? ? ? ? ? ? 
? ? ? ? ? ? ? ? ? ? 
? ? ? ? ? ? ? ? ? ? 
? ? ? ? ? ? ? ? ? ? 


Decided in 0.016666666666666666 minutes
Revealing Positions: ['x06']
New board to resolve
1 1 1 0 2 ? 2 ? ? ? 
1 ? 2 2 4 ? ? ? ? ? 
2 3 ? ? ? ? ? ? ? ? 
? ? ? ? ? ? ? ? ? ? 
? ? ? ? ? ? ? ? ? ? 
? ? ? ? ? ? ? ? ? ? 
? ? ? ? ? ? ? ? ? ? 
? ? ? ? ? ? ? ? ? ? 
? ? ? ? ? ? ? ? ? ? 
? ? ? ? ? ? ? ? ? ? 


Board to resolve
1 1 1 0 2 ? 2 ? ? ? 
1 ? 2 2 4 ? ? ? ? ? 
2 3 ? ? ? ? ? ? ? ? 
? ? ? ? ? ? ? ? ? ? 
? ? ? ? ? ? ? ? ? ? 
? ? ? ? ? ? ? ? ? ? 
? ? ? ? ? ? ? ? ? ? 
? ? ? ? ? ? ? ? ? ? 
? ? ? ? ? ? ? ? ? ? 
? ? ? ? ? ? ? ? ? ? 


Decided in 0.05 minutes
Revealing Positions: ['x07', 'x16', 'x17']
New board to resolve
1 1 1 0 2 ? 2 0 0 0 
1 ? 2 2 4 ? 3 1 0 0 
2 3 ? ? ? ? ? 1 0 0 
? ? ? ? ? ? ? 1 1 1 
? ? ? ? ? ? ? ? ? ? 
? ? ? ? ? ? ? ? ? ? 
? ? ? ? ? ? ? ? ? ? 
? ? ? ? ? ? ? ? ? ? 
? ? ? ? ? ? ? ? ? ? 
? ? ? ? ? ? ? ? ? ? 


Board to resolve
1 1 1 0 2 ? 2 0 0 0 
1 ? 2 2 4 ? 3 1 0 0 
2 3 ? ? ? ? ? 1 0 0 
? ? ? ? ? ? ? 1 1 1 
? ? ? ? ? ? ? ? ? ? 
? ? ? ? ? ? ? ? ? ? 
? ? ? ? ? ? ? ? ? ? 
? ? ? ? ? ? ? ? ? ? 
? ? ? ? ? ? ? ? ? ? 
? ? ? ? ? ? ? ? ? ? 


Decided in 0.05 minutes
Revealing Positions: ['x22', 'x25', 'x36', 'x46', 'x47', 'x48']
New board to resolve
1 1 1 0 2 ? 2 0 0 0 
1 ? 2 2 4 ? 3 1 0 0 
2 3 3 ? ? 4 ? 1 0 0 
? ? ? ? ? ? 2 1 1 1 
? ? ? ? ? ? 2 0 1 ? 
? ? ? ? ? ? 2 0 1 ? 
? ? ? ? ? ? 2 1 2 ? 
? ? ? ? ? ? ? ? ? ? 
? ? ? ? ? ? ? ? ? ? 
? ? ? ? ? ? ? ? ? ? 


Board to resolve
1 1 1 0 2 ? 2 0 0 0 
1 ? 2 2 4 ? 3 1 0 0 
2 3 3 ? ? 4 ? 1 0 0 
? ? ? ? ? ? 2 1 1 1 
? ? ? ? ? ? 2 0 1 ? 
? ? ? ? ? ? 2 0 1 ? 
? ? ? ? ? ? 2 1 2 ? 
? ? ? ? ? ? ? ? ? ? 
? ? ? ? ? ? ? ? ? ? 
? ? ? ? ? ? ? ? ? ? 


Decided in 0.08333333333333333 minutes
Revealing Positions: ['x31', 'x33', 'x59', 'x69', 'x76']
New board to resolve
1 1 1 0 2 ? 2 0 0 0 
1 ? 2 2 4 ? 3 1 0 0 
2 3 3 ? ? 4 ? 1 0 0 
? 3 ? 4 ? ? 2 1 1 1 
? ? ? ? ? ? 2 0 1 ? 
? ? ? ? ? ? 2 0 1 1 
? ? ? ? ? ? 2 1 2 1 
? ? ? ? ? ? 2 ? ? ? 
? ? ? ? ? ? ? ? ? ? 
? ? ? ? ? ? ? ? ? ? 


Board to resolve
1 1 1 0 2 ? 2 0 0 0 
1 ? 2 2 4 ? 3 1 0 0 
2 3 3 ? ? 4 ? 1 0 0 
? 3 ? 4 ? ? 2 1 1 1 
? ? ? ? ? ? 2 0 1 ? 
? ? ? ? ? ? 2 0 1 1 
? ? ? ? ? ? 2 1 2 1 
? ? ? ? ? ? 2 ? ? ? 
? ? ? ? ? ? ? ? ? ? 
? ? ? ? ? ? ? ? ? ? 


Decided in 0.21666666666666667 minutes
Revealing Positions: ['x35', 'x42', 'x43', 'x44', 'x65', 'x75', 'x78']
New board to resolve
1 1 1 0 2 ? 2 0 0 0 
1 ? 2 2 4 ? 3 1 0 0 
2 3 3 ? ? 4 ? 1 0 0 
? 3 ? 4 ? 4 2 1 1 1 
? ? 1 3 4 ? 2 0 1 ? 
? ? ? ? ? ? 2 0 1 1 
? ? ? ? ? 2 2 1 2 1 
? ? ? ? ? 1 2 ? 3 ? 
? ? ? ? ? ? ? ? ? ? 
? ? ? ? ? ? ? ? ? ? 


Board to resolve
1 1 1 0 2 ? 2 0 0 0 
1 ? 2 2 4 ? 3 1 0 0 
2 3 3 ? ? 4 ? 1 0 0 
? 3 ? 4 ? 4 2 1 1 1 
? ? 1 3 4 ? 2 0 1 ? 
? ? ? ? ? ? 2 0 1 1 
? ? ? ? ? 2 2 1 2 1 
? ? ? ? ? 1 2 ? 3 ? 
? ? ? ? ? ? ? ? ? ? 
? ? ? ? ? ? ? ? ? ? 


Decided in 0.3 minutes
Revealing Positions: ['x41', 'x51', 'x52', 'x53', 'x64', 'x74']
New board to resolve
1 1 1 0 2 ? 2 0 0 0 
1 ? 2 2 4 ? 3 1 0 0 
2 3 3 ? ? 4 ? 1 0 0 
? 3 ? 4 ? 4 2 1 1 1 
? 3 1 3 4 ? 2 0 1 ? 
? 1 0 1 ? ? 2 0 1 1 
? 1 0 1 2 2 2 1 2 1 
? 1 0 0 0 1 2 ? 3 ? 
? 2 1 1 0 1 ? ? ? ? 
? ? ? 1 0 1 ? ? ? ? 


Board to resolve
1 1 1 0 2 ? 2 0 0 0 
1 ? 2 2 4 ? 3 1 0 0 
2 3 3 ? ? 4 ? 1 0 0 
? 3 ? 4 ? 4 2 1 1 1 
? 3 1 3 4 ? 2 0 1 ? 
? 1 0 1 ? ? 2 0 1 1 
? 1 0 1 2 2 2 1 2 1 
? 1 0 0 0 1 2 ? 3 ? 
? 2 1 1 0 1 ? ? ? ? 
? ? ? 1 0 1 ? ? ? ? 


Decided in 0.03333333333333333 minutes
Revealing Positions: ['x50', 'x60', 'x80', 'x87', 'x90', 'x91', 'x96']
New board to resolve
1 1 1 0 2 ? 2 0 0 0 
1 ? 2 2 4 ? 3 1 0 0 
2 3 3 ? ? 4 ? 1 0 0 
? 3 ? 4 ? 4 2 1 1 1 
? 3 1 3 4 ? 2 0 1 ? 
1 1 0 1 ? ? 2 0 1 1 
1 1 0 1 2 2 2 1 2 1 
? 1 0 0 0 1 2 ? 3 ? 
1 2 1 1 0 1 ? 2 ? ? 
0 1 ? 1 0 1 1 ? ? ? 


Board to resolve
1 1 1 0 2 ? 2 0 0 0 
1 ? 2 2 4 ? 3 1 0 0 
2 3 3 ? ? 4 ? 1 0 0 
? 3 ? 4 ? 4 2 1 1 1 
? 3 1 3 4 ? 2 0 1 ? 
1 1 0 1 ? ? 2 0 1 1 
1 1 0 1 2 2 2 1 2 1 
? 1 0 0 0 1 2 ? 3 ? 
1 2 1 1 0 1 ? 2 ? ? 
0 1 ? 1 0 1 1 ? ? ? 


Decided in 0.016666666666666666 minutes
Revealing Positions: ['x88', 'x97', 'x98']
New board to resolve
1 1 1 0 2 ? 2 0 0 0 
1 ? 2 2 4 ? 3 1 0 0 
2 3 3 ? ? 4 ? 1 0 0 
? 3 ? 4 ? 4 2 1 1 1 
? 3 1 3 4 ? 2 0 1 ? 
1 1 0 1 ? ? 2 0 1 1 
1 1 0 1 2 2 2 1 2 1 
? 1 0 0 0 1 2 ? 3 ? 
1 2 1 1 0 1 ? 2 3 ? 
0 1 ? 1 0 1 1 1 1 ? 


Board to resolve
1 1 1 0 2 ? 2 0 0 0 
1 ? 2 2 4 ? 3 1 0 0 
2 3 3 ? ? 4 ? 1 0 0 
? 3 ? 4 ? 4 2 1 1 1 
? 3 1 3 4 ? 2 0 1 ? 
1 1 0 1 ? ? 2 0 1 1 
1 1 0 1 2 2 2 1 2 1 
? 1 0 0 0 1 2 ? 3 ? 
1 2 1 1 0 1 ? 2 3 ? 
0 1 ? 1 0 1 1 1 1 ? 


Decided in 0.0 minutes
Revealing Positions: ['x99']
New board to resolve
1 1 1 0 2 ? 2 0 0 0 
1 ? 2 2 4 ? 3 1 0 0 
2 3 3 ? ? 4 ? 1 0 0 
? 3 ? 4 ? 4 2 1 1 1 
? 3 1 3 4 ? 2 0 1 ? 
1 1 0 1 ? ? 2 0 1 1 
1 1 0 1 2 2 2 1 2 1 
? 1 0 0 0 1 2 ? 3 ? 
1 2 1 1 0 1 ? 2 3 ? 
0 1 ? 1 0 1 1 1 1 1 


WON!
Times lost: 0
Finished in 0.8666666666666667 minutes


------------------------------
Playing Minesweeper with Bayesian Networks
Minesweeper Board: Num x = 10 ; Num y = 10 ; Mines = 20


Resolved Board Created
0 2 * 3 1 0 0 0 0 0 
0 2 * * 1 0 0 0 0 0 
1 2 3 2 1 0 0 0 1 1 
2 * 1 1 1 1 0 0 1 * 
* 2 1 1 * 1 1 1 3 2 
1 1 1 2 3 2 2 * 3 * 
0 0 1 * 2 * 2 1 3 * 
1 2 4 4 4 3 3 2 2 1 
2 * * * * 2 * * 2 0 
* 3 3 3 2 2 3 * 2 0 


Board to resolve
0 2 ? ? ? ? ? ? ? ? 
0 2 ? ? ? ? ? ? ? ? 
1 2 ? ? ? ? ? ? ? ? 
? ? ? ? ? ? ? ? ? ? 
? ? ? ? ? ? ? ? ? ? 
? ? ? ? ? ? ? ? ? ? 
? ? ? ? ? ? ? ? ? ? 
? ? ? ? ? ? ? ? ? ? 
? ? ? ? ? ? ? ? ? ? 
? ? ? ? ? ? ? ? ? ? 


Decided in 0.0 minutes
Revealing Positions: ['x22', 'x32']
New board to resolve
0 2 ? ? ? ? ? ? ? ? 
0 2 ? ? ? ? ? ? ? ? 
1 2 3 ? ? ? ? ? ? ? 
? ? 1 ? ? ? ? ? ? ? 
? ? ? ? ? ? ? ? ? ? 
? ? ? ? ? ? ? ? ? ? 
? ? ? ? ? ? ? ? ? ? 
? ? ? ? ? ? ? ? ? ? 
? ? ? ? ? ? ? ? ? ? 
? ? ? ? ? ? ? ? ? ? 


Board to resolve
0 2 ? ? ? ? ? ? ? ? 
0 2 ? ? ? ? ? ? ? ? 
1 2 3 ? ? ? ? ? ? ? 
? ? 1 ? ? ? ? ? ? ? 
? ? ? ? ? ? ? ? ? ? 
? ? ? ? ? ? ? ? ? ? 
? ? ? ? ? ? ? ? ? ? 
? ? ? ? ? ? ? ? ? ? 
? ? ? ? ? ? ? ? ? ? 
? ? ? ? ? ? ? ? ? ? 


Decided in 0.03333333333333333 minutes
Revealing Positions: ['x41', 'x42', 'x43']
New board to resolve
0 2 ? ? ? ? ? ? ? ? 
0 2 ? ? ? ? ? ? ? ? 
1 2 3 ? ? ? ? ? ? ? 
? ? 1 ? ? ? ? ? ? ? 
? 2 1 1 ? ? ? ? ? ? 
? ? ? ? ? ? ? ? ? ? 
? ? ? ? ? ? ? ? ? ? 
? ? ? ? ? ? ? ? ? ? 
? ? ? ? ? ? ? ? ? ? 
? ? ? ? ? ? ? ? ? ? 


Board to resolve
0 2 ? ? ? ? ? ? ? ? 
0 2 ? ? ? ? ? ? ? ? 
1 2 3 ? ? ? ? ? ? ? 
? ? 1 ? ? ? ? ? ? ? 
? 2 1 1 ? ? ? ? ? ? 
? ? ? ? ? ? ? ? ? ? 
? ? ? ? ? ? ? ? ? ? 
? ? ? ? ? ? ? ? ? ? 
? ? ? ? ? ? ? ? ? ? 
? ? ? ? ? ? ? ? ? ? 


Decided in 0.1 minutes
Revealing Positions: ['x53']
New board to resolve
0 2 ? ? ? ? ? ? ? ? 
0 2 ? ? ? ? ? ? ? ? 
1 2 3 ? ? ? ? ? ? ? 
? ? 1 ? ? ? ? ? ? ? 
? 2 1 1 ? ? ? ? ? ? 
? ? ? 2 ? ? ? ? ? ? 
? ? ? ? ? ? ? ? ? ? 
? ? ? ? ? ? ? ? ? ? 
? ? ? ? ? ? ? ? ? ? 
? ? ? ? ? ? ? ? ? ? 


Board to resolve
0 2 ? ? ? ? ? ? ? ? 
0 2 ? ? ? ? ? ? ? ? 
1 2 3 ? ? ? ? ? ? ? 
? ? 1 ? ? ? ? ? ? ? 
? 2 1 1 ? ? ? ? ? ? 
? ? ? 2 ? ? ? ? ? ? 
? ? ? ? ? ? ? ? ? ? 
? ? ? ? ? ? ? ? ? ? 
? ? ? ? ? ? ? ? ? ? 
? ? ? ? ? ? ? ? ? ? 


Decided in 0.13333333333333333 minutes
Revealing Positions: ['x33']
New board to resolve
0 2 ? ? ? ? ? ? ? ? 
0 2 ? ? ? ? ? ? ? ? 
1 2 3 ? ? ? ? ? ? ? 
? ? 1 1 ? ? ? ? ? ? 
? 2 1 1 ? ? ? ? ? ? 
? ? ? 2 ? ? ? ? ? ? 
? ? ? ? ? ? ? ? ? ? 
? ? ? ? ? ? ? ? ? ? 
? ? ? ? ? ? ? ? ? ? 
? ? ? ? ? ? ? ? ? ? 


Board to resolve
0 2 ? ? ? ? ? ? ? ? 
0 2 ? ? ? ? ? ? ? ? 
1 2 3 ? ? ? ? ? ? ? 
? ? 1 1 ? ? ? ? ? ? 
? 2 1 1 ? ? ? ? ? ? 
? ? ? 2 ? ? ? ? ? ? 
? ? ? ? ? ? ? ? ? ? 
? ? ? ? ? ? ? ? ? ? 
? ? ? ? ? ? ? ? ? ? 
? ? ? ? ? ? ? ? ? ? 


Decided in 0.08333333333333333 minutes
Revealing Positions: ['x51']
New board to resolve
0 2 ? ? ? ? ? ? ? ? 
0 2 ? ? ? ? ? ? ? ? 
1 2 3 ? ? ? ? ? ? ? 
? ? 1 1 ? ? ? ? ? ? 
? 2 1 1 ? ? ? ? ? ? 
? 1 ? 2 ? ? ? ? ? ? 
? ? ? ? ? ? ? ? ? ? 
? ? ? ? ? ? ? ? ? ? 
? ? ? ? ? ? ? ? ? ? 
? ? ? ? ? ? ? ? ? ? 


Board to resolve
0 2 ? ? ? ? ? ? ? ? 
0 2 ? ? ? ? ? ? ? ? 
1 2 3 ? ? ? ? ? ? ? 
? ? 1 1 ? ? ? ? ? ? 
? 2 1 1 ? ? ? ? ? ? 
? 1 ? 2 ? ? ? ? ? ? 
? ? ? ? ? ? ? ? ? ? 
? ? ? ? ? ? ? ? ? ? 
? ? ? ? ? ? ? ? ? ? 
? ? ? ? ? ? ? ? ? ? 


Decided in 0.11666666666666667 minutes
Revealing Positions: ['x60', 'x61', 'x62']
New board to resolve
0 2 ? ? ? ? ? ? ? ? 
0 2 ? ? ? ? ? ? ? ? 
1 2 3 ? ? ? ? ? ? ? 
? ? 1 1 ? ? ? ? ? ? 
? 2 1 1 ? ? ? ? ? ? 
1 1 1 2 ? ? ? ? ? ? 
0 0 1 ? ? ? ? ? ? ? 
1 2 4 ? ? ? ? ? ? ? 
? ? ? ? ? ? ? ? ? ? 
? ? ? ? ? ? ? ? ? ? 


Board to resolve
0 2 ? ? ? ? ? ? ? ? 
0 2 ? ? ? ? ? ? ? ? 
1 2 3 ? ? ? ? ? ? ? 
? ? 1 1 ? ? ? ? ? ? 
? 2 1 1 ? ? ? ? ? ? 
1 1 1 2 ? ? ? ? ? ? 
0 0 1 ? ? ? ? ? ? ? 
1 2 4 ? ? ? ? ? ? ? 
? ? ? ? ? ? ? ? ? ? 
? ? ? ? ? ? ? ? ? ? 


Decided in 0.06666666666666667 minutes
Revealing Positions: ['x23', 'x30', 'x73', 'x80']
New board to resolve
0 2 ? ? ? ? ? ? ? ? 
0 2 ? ? ? ? ? ? ? ? 
1 2 3 2 ? ? ? ? ? ? 
2 ? 1 1 ? ? ? ? ? ? 
? 2 1 1 ? ? ? ? ? ? 
1 1 1 2 ? ? ? ? ? ? 
0 0 1 ? ? ? ? ? ? ? 
1 2 4 4 ? ? ? ? ? ? 
2 ? ? ? ? ? ? ? ? ? 
? ? ? ? ? ? ? ? ? ? 


Board to resolve
0 2 ? ? ? ? ? ? ? ? 
0 2 ? ? ? ? ? ? ? ? 
1 2 3 2 ? ? ? ? ? ? 
2 ? 1 1 ? ? ? ? ? ? 
? 2 1 1 ? ? ? ? ? ? 
1 1 1 2 ? ? ? ? ? ? 
0 0 1 ? ? ? ? ? ? ? 
1 2 4 4 ? ? ? ? ? ? 
2 ? ? ? ? ? ? ? ? ? 
? ? ? ? ? ? ? ? ? ? 


Decided in 0.05 minutes
Revealing Positions: ['x14', 'x24', 'x34', 'x54', 'x64']
New board to resolve
0 2 ? ? ? ? ? ? ? ? 
0 2 ? ? 1 ? ? ? ? ? 
1 2 3 2 1 ? ? ? ? ? 
2 ? 1 1 1 ? ? ? ? ? 
? 2 1 1 ? ? ? ? ? ? 
1 1 1 2 3 ? ? ? ? ? 
0 0 1 ? 2 ? ? ? ? ? 
1 2 4 4 ? ? ? ? ? ? 
2 ? ? ? ? ? ? ? ? ? 
? ? ? ? ? ? ? ? ? ? 


Board to resolve
0 2 ? ? ? ? ? ? ? ? 
0 2 ? ? 1 ? ? ? ? ? 
1 2 3 2 1 ? ? ? ? ? 
2 ? 1 1 1 ? ? ? ? ? 
? 2 1 1 ? ? ? ? ? ? 
1 1 1 2 3 ? ? ? ? ? 
0 0 1 ? 2 ? ? ? ? ? 
1 2 4 4 ? ? ? ? ? ? 
2 ? ? ? ? ? ? ? ? ? 
? ? ? ? ? ? ? ? ? ? 


Decided in 0.08333333333333333 minutes
Revealing Positions: ['x03', 'x04', 'x05', 'x15', 'x25', 'x35', 'x45', 'x74', 'x75']
New board to resolve
0 2 ? 3 1 0 0 0 0 0 
0 2 ? ? 1 0 0 0 0 0 
1 2 3 2 1 0 0 0 1 1 
2 ? 1 1 1 1 0 0 1 ? 
? 2 1 1 ? 1 1 1 3 ? 
1 1 1 2 3 ? ? ? ? ? 
0 0 1 ? 2 ? ? ? ? ? 
1 2 4 4 4 3 ? ? ? ? 
2 ? ? ? ? ? ? ? ? ? 
? ? ? ? ? ? ? ? ? ? 


Board to resolve
0 2 ? 3 1 0 0 0 0 0 
0 2 ? ? 1 0 0 0 0 0 
1 2 3 2 1 0 0 0 1 1 
2 ? 1 1 1 1 0 0 1 ? 
? 2 1 1 ? 1 1 1 3 ? 
1 1 1 2 3 ? ? ? ? ? 
0 0 1 ? 2 ? ? ? ? ? 
1 2 4 4 4 3 ? ? ? ? 
2 ? ? ? ? ? ? ? ? ? 
? ? ? ? ? ? ? ? ? ? 


Decided in 0.16666666666666666 minutes
Revealing Positions: ['x49', 'x55', 'x56', 'x58', 'x85']
New board to resolve
0 2 ? 3 1 0 0 0 0 0 
0 2 ? ? 1 0 0 0 0 0 
1 2 3 2 1 0 0 0 1 1 
2 ? 1 1 1 1 0 0 1 ? 
? 2 1 1 ? 1 1 1 3 2 
1 1 1 2 3 2 2 ? 3 ? 
0 0 1 ? 2 ? ? ? ? ? 
1 2 4 4 4 3 ? ? ? ? 
2 ? ? ? ? 2 ? ? ? ? 
? ? ? ? ? ? ? ? ? ? 


Board to resolve
0 2 ? 3 1 0 0 0 0 0 
0 2 ? ? 1 0 0 0 0 0 
1 2 3 2 1 0 0 0 1 1 
2 ? 1 1 1 1 0 0 1 ? 
? 2 1 1 ? 1 1 1 3 2 
1 1 1 2 3 2 2 ? 3 ? 
0 0 1 ? 2 ? ? ? ? ? 
1 2 4 4 4 3 ? ? ? ? 
2 ? ? ? ? 2 ? ? ? ? 
? ? ? ? ? ? ? ? ? ? 


Decided in 0.06666666666666667 minutes
Revealing Positions: ['x66', 'x67', 'x94', 'x95', 'x96']
New board to resolve
0 2 ? 3 1 0 0 0 0 0 
0 2 ? ? 1 0 0 0 0 0 
1 2 3 2 1 0 0 0 1 1 
2 ? 1 1 1 1 0 0 1 ? 
? 2 1 1 ? 1 1 1 3 2 
1 1 1 2 3 2 2 ? 3 ? 
0 0 1 ? 2 ? 2 1 ? ? 
1 2 4 4 4 3 ? ? ? ? 
2 ? ? ? ? 2 ? ? ? ? 
? ? ? ? 2 2 3 ? ? ? 


Board to resolve
0 2 ? 3 1 0 0 0 0 0 
0 2 ? ? 1 0 0 0 0 0 
1 2 3 2 1 0 0 0 1 1 
2 ? 1 1 1 1 0 0 1 ? 
? 2 1 1 ? 1 1 1 3 2 
1 1 1 2 3 2 2 ? 3 ? 
0 0 1 ? 2 ? 2 1 ? ? 
1 2 4 4 4 3 ? ? ? ? 
2 ? ? ? ? 2 ? ? ? ? 
? ? ? ? 2 2 3 ? ? ? 


Decided in 0.03333333333333333 minutes
Revealing Positions: ['x68', 'x76', 'x77', 'x78', 'x93']
New board to resolve
0 2 ? 3 1 0 0 0 0 0 
0 2 ? ? 1 0 0 0 0 0 
1 2 3 2 1 0 0 0 1 1 
2 ? 1 1 1 1 0 0 1 ? 
? 2 1 1 ? 1 1 1 3 2 
1 1 1 2 3 2 2 ? 3 ? 
0 0 1 ? 2 ? 2 1 3 ? 
1 2 4 4 4 3 3 2 2 ? 
2 ? ? ? ? 2 ? ? ? ? 
? ? ? 3 2 2 3 ? ? ? 


Board to resolve
0 2 ? 3 1 0 0 0 0 0 
0 2 ? ? 1 0 0 0 0 0 
1 2 3 2 1 0 0 0 1 1 
2 ? 1 1 1 1 0 0 1 ? 
? 2 1 1 ? 1 1 1 3 2 
1 1 1 2 3 2 2 ? 3 ? 
0 0 1 ? 2 ? 2 1 3 ? 
1 2 4 4 4 3 3 2 2 ? 
2 ? ? ? ? 2 ? ? ? ? 
? ? ? 3 2 2 3 ? ? ? 


Decided in 0.0 minutes
Revealing Positions: ['x79', 'x88', 'x89', 'x92']
New board to resolve
0 2 ? 3 1 0 0 0 0 0 
0 2 ? ? 1 0 0 0 0 0 
1 2 3 2 1 0 0 0 1 1 
2 ? 1 1 1 1 0 0 1 ? 
? 2 1 1 ? 1 1 1 3 2 
1 1 1 2 3 2 2 ? 3 ? 
0 0 1 ? 2 ? 2 1 3 ? 
1 2 4 4 4 3 3 2 2 1 
2 ? ? ? ? 2 ? ? 2 0 
? ? 3 3 2 2 3 ? 2 0 


Board to resolve
0 2 ? 3 1 0 0 0 0 0 
0 2 ? ? 1 0 0 0 0 0 
1 2 3 2 1 0 0 0 1 1 
2 ? 1 1 1 1 0 0 1 ? 
? 2 1 1 ? 1 1 1 3 2 
1 1 1 2 3 2 2 ? 3 ? 
0 0 1 ? 2 ? 2 1 3 ? 
1 2 4 4 4 3 3 2 2 1 
2 ? ? ? ? 2 ? ? 2 0 
? ? 3 3 2 2 3 ? 2 0 


Decided in 0.016666666666666666 minutes
Revealing Positions: ['x91']
New board to resolve
0 2 ? 3 1 0 0 0 0 0 
0 2 ? ? 1 0 0 0 0 0 
1 2 3 2 1 0 0 0 1 1 
2 ? 1 1 1 1 0 0 1 ? 
? 2 1 1 ? 1 1 1 3 2 
1 1 1 2 3 2 2 ? 3 ? 
0 0 1 ? 2 ? 2 1 3 ? 
1 2 4 4 4 3 3 2 2 1 
2 ? ? ? ? 2 ? ? 2 0 
? 3 3 3 2 2 3 ? 2 0 


WON!
Times lost: 0
Finished in 0.95 minutes

Finished playing 10 times
Board: Num x = 10 ; Num y = 10 ; Mines = 20
Total loses counts: [2, 0, 0, 0, 0, 3, 2, 0, 0, 0]
Total times (mins): [0.55, 0.38333333333333336, 0.7666666666666667, 1.1166666666666667, 8.366666666666667, 0.5666666666666667, 1.8166666666666667, 8.5, 0.8666666666666667, 0.95]
Total times (secs): [33.0, 23.0, 46.0, 67.0, 502.0, 34.0, 109.0, 510.0, 52.0, 57.0]
Average loses: 0.7
Average time: 2.388333333333333 (143.29999999999998 secs)
