--------------- Log file for Minesweeper Game Artificial Intelligence with Bayesian Network
--------------- 
--------------- Date: 2018-06-28T18:04:20




------------------------------
Playing Minesweeper with Bayesian Networks
Minesweeper Board: Num x = 5 ; Num y = 5 ; Mines = 5


Resolved Board Created
1 3 * 2 0 
2 * * 2 0 
2 * 3 1 0 
1 1 2 1 1 
0 0 1 * 1 


Board to resolve
1 ? ? ? ? 
? ? ? ? ? 
? ? ? ? ? 
? ? ? ? ? 
? ? ? ? ? 


Decided in 0.0 minutes
Revealing Positions: ['x02']
Last board to resolve
1 ? ? ? ? 
? ? ? ? ? 
? ? ? ? ? 
? ? ? ? ? 
? ? ? ? ? 


LOST!
Finished in 0.0 minutes


------------------------------
Playing Minesweeper with Bayesian Networks
Minesweeper Board: Num x = 5 ; Num y = 5 ; Mines = 5


Resolved Board Created
0 0 0 2 * 
1 2 1 3 * 
* 2 * 2 1 
1 2 2 2 1 
0 0 1 * 1 


Board to resolve
0 0 0 2 ? 
1 2 1 3 ? 
? ? ? ? ? 
? ? ? ? ? 
? ? ? ? ? 


Decided in 0.016666666666666666 minutes
Revealing Positions: ['x21', 'x23', 'x24']
New board to resolve
0 0 0 2 ? 
1 2 1 3 ? 
? 2 ? 2 1 
? ? ? ? ? 
? ? ? ? ? 


Board to resolve
0 0 0 2 ? 
1 2 1 3 ? 
? 2 ? 2 1 
? ? ? ? ? 
? ? ? ? ? 


Decided in 0.016666666666666666 minutes
Revealing Positions: ['x30', 'x31', 'x32', 'x33', 'x34']
New board to resolve
0 0 0 2 ? 
1 2 1 3 ? 
? 2 ? 2 1 
1 2 2 2 1 
? ? ? ? ? 


Board to resolve
0 0 0 2 ? 
1 2 1 3 ? 
? 2 ? 2 1 
1 2 2 2 1 
? ? ? ? ? 


Decided in 0.0 minutes
Revealing Positions: ['x40', 'x41', 'x42', 'x44']
New board to resolve
0 0 0 2 ? 
1 2 1 3 ? 
? 2 ? 2 1 
1 2 2 2 1 
0 0 1 ? 1 


WON!
Times lost: 1
Finished in 0.03333333333333333 minutes


------------------------------
Playing Minesweeper with Bayesian Networks
Minesweeper Board: Num x = 5 ; Num y = 5 ; Mines = 5


Resolved Board Created
1 * 1 1 * 
1 2 2 2 1 
1 2 * 1 0 
* 2 2 2 1 
1 1 1 * 1 


Board to resolve
1 ? ? ? ? 
? ? ? ? ? 
? ? ? ? ? 
? ? ? ? ? 
? ? ? ? ? 


Decided in 0.0 minutes
Revealing Positions: ['x02']
New board to resolve
1 ? 1 ? ? 
? ? ? ? ? 
? ? ? ? ? 
? ? ? ? ? 
? ? ? ? ? 


Board to resolve
1 ? 1 ? ? 
? ? ? ? ? 
? ? ? ? ? 
? ? ? ? ? 
? ? ? ? ? 


Decided in 0.016666666666666666 minutes
Revealing Positions: ['x03']
New board to resolve
1 ? 1 1 ? 
? ? ? ? ? 
? ? ? ? ? 
? ? ? ? ? 
? ? ? ? ? 


Board to resolve
1 ? 1 1 ? 
? ? ? ? ? 
? ? ? ? ? 
? ? ? ? ? 
? ? ? ? ? 


Decided in 0.0 minutes
Revealing Positions: ['x12']
New board to resolve
1 ? 1 1 ? 
? ? 2 ? ? 
? ? ? ? ? 
? ? ? ? ? 
? ? ? ? ? 


Board to resolve
1 ? 1 1 ? 
? ? 2 ? ? 
? ? ? ? ? 
? ? ? ? ? 
? ? ? ? ? 


Decided in 0.03333333333333333 minutes
Revealing Positions: ['x10']
New board to resolve
1 ? 1 1 ? 
1 ? 2 ? ? 
? ? ? ? ? 
? ? ? ? ? 
? ? ? ? ? 


Board to resolve
1 ? 1 1 ? 
1 ? 2 ? ? 
? ? ? ? ? 
? ? ? ? ? 
? ? ? ? ? 


Decided in 0.016666666666666666 minutes
Revealing Positions: ['x13', 'x20', 'x21']
New board to resolve
1 ? 1 1 ? 
1 ? 2 2 ? 
1 2 ? ? ? 
? ? ? ? ? 
? ? ? ? ? 


Board to resolve
1 ? 1 1 ? 
1 ? 2 2 ? 
1 2 ? ? ? 
? ? ? ? ? 
? ? ? ? ? 


Decided in 0.03333333333333333 minutes
Revealing Positions: ['x24']
New board to resolve
1 ? 1 1 ? 
1 ? 2 2 1 
1 2 ? 1 0 
? ? ? 2 1 
? ? ? ? ? 


Board to resolve
1 ? 1 1 ? 
1 ? 2 2 1 
1 2 ? 1 0 
? ? ? 2 1 
? ? ? ? ? 


Decided in 0.03333333333333333 minutes
Revealing Positions: ['x32', 'x42']
New board to resolve
1 ? 1 1 ? 
1 ? 2 2 1 
1 2 ? 1 0 
? ? 2 2 1 
? ? 1 ? ? 


Board to resolve
1 ? 1 1 ? 
1 ? 2 2 1 
1 2 ? 1 0 
? ? 2 2 1 
? ? 1 ? ? 


Decided in 0.016666666666666666 minutes
Revealing Positions: ['x31']
New board to resolve
1 ? 1 1 ? 
1 ? 2 2 1 
1 2 ? 1 0 
? 2 2 2 1 
? ? 1 ? ? 


Board to resolve
1 ? 1 1 ? 
1 ? 2 2 1 
1 2 ? 1 0 
? 2 2 2 1 
? ? 1 ? ? 


Decided in 0.016666666666666666 minutes
Revealing Positions: ['x01']
Last board to resolve
1 ? 1 1 ? 
1 ? 2 2 1 
1 2 ? 1 0 
? 2 2 2 1 
? ? 1 ? ? 


LOST!
Finished in 0.16666666666666666 minutes


------------------------------
Playing Minesweeper with Bayesian Networks
Minesweeper Board: Num x = 5 ; Num y = 5 ; Mines = 5


Resolved Board Created
1 * 1 0 0 
2 2 1 1 1 
* 2 2 2 * 
2 * 2 * 2 
1 1 2 1 1 


Board to resolve
1 ? ? ? ? 
? ? ? ? ? 
? ? ? ? ? 
? ? ? ? ? 
? ? ? ? ? 


Decided in 0.0 minutes
Revealing Positions: ['x02']
New board to resolve
1 ? 1 ? ? 
? ? ? ? ? 
? ? ? ? ? 
? ? ? ? ? 
? ? ? ? ? 


Board to resolve
1 ? 1 ? ? 
? ? ? ? ? 
? ? ? ? ? 
? ? ? ? ? 
? ? ? ? ? 


Decided in 0.0 minutes
Revealing Positions: ['x03']
New board to resolve
1 ? 1 0 0 
? ? 1 1 1 
? ? ? ? ? 
? ? ? ? ? 
? ? ? ? ? 


Board to resolve
1 ? 1 0 0 
? ? 1 1 1 
? ? ? ? ? 
? ? ? ? ? 
? ? ? ? ? 


Decided in 0.016666666666666666 minutes
Revealing Positions: ['x10', 'x21', 'x22', 'x23']
New board to resolve
1 ? 1 0 0 
2 ? 1 1 1 
? 2 2 2 ? 
? ? ? ? ? 
? ? ? ? ? 


Board to resolve
1 ? 1 0 0 
2 ? 1 1 1 
? 2 2 2 ? 
? ? ? ? ? 
? ? ? ? ? 


Decided in 0.016666666666666666 minutes
Revealing Positions: ['x30', 'x32', 'x34']
New board to resolve
1 ? 1 0 0 
2 ? 1 1 1 
? 2 2 2 ? 
2 ? 2 ? 2 
? ? ? ? ? 


Board to resolve
1 ? 1 0 0 
2 ? 1 1 1 
? 2 2 2 ? 
2 ? 2 ? 2 
? ? ? ? ? 


Decided in 0.03333333333333333 minutes
Revealing Positions: ['x43', 'x44']
New board to resolve
1 ? 1 0 0 
2 ? 1 1 1 
? 2 2 2 ? 
2 ? 2 ? 2 
? ? ? 1 1 


Board to resolve
1 ? 1 0 0 
2 ? 1 1 1 
? 2 2 2 ? 
2 ? 2 ? 2 
? ? ? 1 1 


Decided in 0.016666666666666666 minutes
Revealing Positions: ['x40', 'x42']
New board to resolve
1 ? 1 0 0 
2 ? 1 1 1 
? 2 2 2 ? 
2 ? 2 ? 2 
1 ? 2 1 1 


Board to resolve
1 ? 1 0 0 
2 ? 1 1 1 
? 2 2 2 ? 
2 ? 2 ? 2 
1 ? 2 1 1 


Decided in 0.0 minutes
Revealing Positions: ['x01']
Last board to resolve
1 ? 1 0 0 
2 ? 1 1 1 
? 2 2 2 ? 
2 ? 2 ? 2 
1 ? 2 1 1 


LOST!
Finished in 0.08333333333333333 minutes


------------------------------
Playing Minesweeper with Bayesian Networks
Minesweeper Board: Num x = 5 ; Num y = 5 ; Mines = 5


Resolved Board Created
1 1 1 0 0 
2 * 2 1 1 
* 2 2 * 2 
1 2 2 3 * 
0 1 * 2 1 


Board to resolve
1 ? ? ? ? 
? ? ? ? ? 
? ? ? ? ? 
? ? ? ? ? 
? ? ? ? ? 


Decided in 0.0 minutes
Revealing Positions: ['x02']
New board to resolve
1 ? 1 ? ? 
? ? ? ? ? 
? ? ? ? ? 
? ? ? ? ? 
? ? ? ? ? 


Board to resolve
1 ? 1 ? ? 
? ? ? ? ? 
? ? ? ? ? 
? ? ? ? ? 
? ? ? ? ? 


Decided in 0.0 minutes
Revealing Positions: ['x03']
New board to resolve
1 ? 1 0 0 
? ? 2 1 1 
? ? ? ? ? 
? ? ? ? ? 
? ? ? ? ? 


Board to resolve
1 ? 1 0 0 
? ? 2 1 1 
? ? ? ? ? 
? ? ? ? ? 
? ? ? ? ? 


Decided in 0.016666666666666666 minutes
Revealing Positions: ['x10', 'x22']
New board to resolve
1 ? 1 0 0 
2 ? 2 1 1 
? ? 2 ? ? 
? ? ? ? ? 
? ? ? ? ? 


Board to resolve
1 ? 1 0 0 
2 ? 2 1 1 
? ? 2 ? ? 
? ? ? ? ? 
? ? ? ? ? 


Decided in 0.03333333333333333 minutes
Revealing Positions: ['x31']
New board to resolve
1 ? 1 0 0 
2 ? 2 1 1 
? ? 2 ? ? 
? 2 ? ? ? 
? ? ? ? ? 


Board to resolve
1 ? 1 0 0 
2 ? 2 1 1 
? ? 2 ? ? 
? 2 ? ? ? 
? ? ? ? ? 


Decided in 0.1 minutes
Revealing Positions: ['x32']
New board to resolve
1 ? 1 0 0 
2 ? 2 1 1 
? ? 2 ? ? 
? 2 2 ? ? 
? ? ? ? ? 


Board to resolve
1 ? 1 0 0 
2 ? 2 1 1 
? ? 2 ? ? 
? 2 2 ? ? 
? ? ? ? ? 


Decided in 0.1 minutes
Revealing Positions: ['x41']
New board to resolve
1 ? 1 0 0 
2 ? 2 1 1 
? ? 2 ? ? 
? 2 2 ? ? 
? 1 ? ? ? 


Board to resolve
1 ? 1 0 0 
2 ? 2 1 1 
? ? 2 ? ? 
? 2 2 ? ? 
? 1 ? ? ? 


Decided in 0.05 minutes
Revealing Positions: ['x42']
Last board to resolve
1 ? 1 0 0 
2 ? 2 1 1 
? ? 2 ? ? 
? 2 2 ? ? 
? 1 ? ? ? 


LOST!
Finished in 0.3 minutes


------------------------------
Playing Minesweeper with Bayesian Networks
Minesweeper Board: Num x = 5 ; Num y = 5 ; Mines = 5


Resolved Board Created
1 1 1 1 * 
1 * 1 2 2 
1 2 2 3 * 
0 1 * 3 * 
0 1 1 2 1 


Board to resolve
1 ? ? ? ? 
? ? ? ? ? 
? ? ? ? ? 
? ? ? ? ? 
? ? ? ? ? 


Decided in 0.0 minutes
Revealing Positions: ['x02']
New board to resolve
1 ? 1 ? ? 
? ? ? ? ? 
? ? ? ? ? 
? ? ? ? ? 
? ? ? ? ? 


Board to resolve
1 ? 1 ? ? 
? ? ? ? ? 
? ? ? ? ? 
? ? ? ? ? 
? ? ? ? ? 


Decided in 0.0 minutes
Revealing Positions: ['x03']
New board to resolve
1 ? 1 1 ? 
? ? ? ? ? 
? ? ? ? ? 
? ? ? ? ? 
? ? ? ? ? 


Board to resolve
1 ? 1 1 ? 
? ? ? ? ? 
? ? ? ? ? 
? ? ? ? ? 
? ? ? ? ? 


Decided in 0.0 minutes
Revealing Positions: ['x12']
New board to resolve
1 ? 1 1 ? 
? ? 1 ? ? 
? ? ? ? ? 
? ? ? ? ? 
? ? ? ? ? 


Board to resolve
1 ? 1 1 ? 
? ? 1 ? ? 
? ? ? ? ? 
? ? ? ? ? 
? ? ? ? ? 


Decided in 0.03333333333333333 minutes
Revealing Positions: ['x21', 'x22', 'x23']
New board to resolve
1 ? 1 1 ? 
? ? 1 ? ? 
? 2 2 3 ? 
? ? ? ? ? 
? ? ? ? ? 


Board to resolve
1 ? 1 1 ? 
? ? 1 ? ? 
? 2 2 3 ? 
? ? ? ? ? 
? ? ? ? ? 


Decided in 0.11666666666666667 minutes
Revealing Positions: ['x04']
Last board to resolve
1 ? 1 1 ? 
? ? 1 ? ? 
? 2 2 3 ? 
? ? ? ? ? 
? ? ? ? ? 


LOST!
Finished in 0.15 minutes


------------------------------
Playing Minesweeper with Bayesian Networks
Minesweeper Board: Num x = 5 ; Num y = 5 ; Mines = 5


Resolved Board Created
* 2 1 0 0 
3 * 2 1 1 
* 3 3 * 1 
2 * 2 1 1 
1 1 1 0 0 


Board to resolve
? 2 ? ? ? 
? ? ? ? ? 
? ? ? ? ? 
? ? ? ? ? 
? ? ? ? ? 


Decided in 0.0 minutes
Revealing Positions: ['x03']
New board to resolve
? 2 1 0 0 
? ? 2 1 1 
? ? ? ? ? 
? ? ? ? ? 
? ? ? ? ? 


Board to resolve
? 2 1 0 0 
? ? 2 1 1 
? ? ? ? ? 
? ? ? ? ? 
? ? ? ? ? 


Decided in 0.016666666666666666 minutes
Revealing Positions: ['x22']
New board to resolve
? 2 1 0 0 
? ? 2 1 1 
? ? 3 ? ? 
? ? ? ? ? 
? ? ? ? ? 


Board to resolve
? 2 1 0 0 
? ? 2 1 1 
? ? 3 ? ? 
? ? ? ? ? 
? ? ? ? ? 


Decided in 0.016666666666666666 minutes
Revealing Positions: ['x20']
Last board to resolve
? 2 1 0 0 
? ? 2 1 1 
? ? 3 ? ? 
? ? ? ? ? 
? ? ? ? ? 


LOST!
Finished in 0.03333333333333333 minutes


------------------------------
Playing Minesweeper with Bayesian Networks
Minesweeper Board: Num x = 5 ; Num y = 5 ; Mines = 5


Resolved Board Created
2 * * 2 0 
* 5 * 3 0 
1 3 * 2 0 
0 1 1 1 0 
0 0 0 0 0 


Board to resolve
2 ? ? ? ? 
? ? ? ? ? 
? ? ? ? ? 
? ? ? ? ? 
? ? ? ? ? 


Decided in 0.0 minutes
Revealing Positions: ['x02']
Last board to resolve
2 ? ? ? ? 
? ? ? ? ? 
? ? ? ? ? 
? ? ? ? ? 
? ? ? ? ? 


LOST!
Finished in 0.0 minutes


------------------------------
Playing Minesweeper with Bayesian Networks
Minesweeper Board: Num x = 5 ; Num y = 5 ; Mines = 5


Resolved Board Created
0 0 0 1 1 
2 2 2 2 * 
* * 2 * 2 
2 3 3 2 1 
0 1 * 1 0 


Board to resolve
0 0 0 1 ? 
2 2 2 2 ? 
? ? ? ? ? 
? ? ? ? ? 
? ? ? ? ? 


Decided in 0.016666666666666666 minutes
Revealing Positions: ['x22', 'x24']
New board to resolve
0 0 0 1 ? 
2 2 2 2 ? 
? ? 2 ? 2 
? ? ? ? ? 
? ? ? ? ? 


Board to resolve
0 0 0 1 ? 
2 2 2 2 ? 
? ? 2 ? 2 
? ? ? ? ? 
? ? ? ? ? 


Decided in 0.016666666666666666 minutes
Revealing Positions: ['x31', 'x32', 'x33']
New board to resolve
0 0 0 1 ? 
2 2 2 2 ? 
? ? 2 ? 2 
? 3 3 2 ? 
? ? ? ? ? 


Board to resolve
0 0 0 1 ? 
2 2 2 2 ? 
? ? 2 ? 2 
? 3 3 2 ? 
? ? ? ? ? 


Decided in 0.05 minutes
Revealing Positions: ['x04']
New board to resolve
0 0 0 1 1 
2 2 2 2 ? 
? ? 2 ? 2 
? 3 3 2 ? 
? ? ? ? ? 


Board to resolve
0 0 0 1 1 
2 2 2 2 ? 
? ? 2 ? 2 
? 3 3 2 ? 
? ? ? ? ? 


Decided in 0.03333333333333333 minutes
Revealing Positions: ['x34']
New board to resolve
0 0 0 1 1 
2 2 2 2 ? 
? ? 2 ? 2 
? 3 3 2 1 
? ? ? ? ? 


Board to resolve
0 0 0 1 1 
2 2 2 2 ? 
? ? 2 ? 2 
? 3 3 2 1 
? ? ? ? ? 


Decided in 0.016666666666666666 minutes
Revealing Positions: ['x30', 'x40', 'x41', 'x43', 'x44']
New board to resolve
0 0 0 1 1 
2 2 2 2 ? 
? ? 2 ? 2 
2 3 3 2 1 
0 1 ? 1 0 


WON!
Times lost: 6
Finished in 0.13333333333333333 minutes


------------------------------
Playing Minesweeper with Bayesian Networks
Minesweeper Board: Num x = 5 ; Num y = 5 ; Mines = 5


Resolved Board Created
* * 1 0 0 
3 3 1 0 0 
* 3 1 0 0 
* * 1 0 0 
2 2 1 0 0 


Board to resolve
? ? 1 ? ? 
? ? ? ? ? 
? ? ? ? ? 
? ? ? ? ? 
? ? ? ? ? 


Decided in 0.016666666666666666 minutes
Revealing Positions: ['x01']
Last board to resolve
? ? 1 ? ? 
? ? ? ? ? 
? ? ? ? ? 
? ? ? ? ? 
? ? ? ? ? 


LOST!
Finished in 0.016666666666666666 minutes


------------------------------
Playing Minesweeper with Bayesian Networks
Minesweeper Board: Num x = 5 ; Num y = 5 ; Mines = 5


Resolved Board Created
2 * 2 0 0 
2 * 2 0 0 
1 1 2 2 2 
1 1 1 * * 
* 1 1 2 2 


Board to resolve
2 ? ? ? ? 
? ? ? ? ? 
? ? ? ? ? 
? ? ? ? ? 
? ? ? ? ? 


Decided in 0.0 minutes
Revealing Positions: ['x02']
New board to resolve
2 ? 2 ? ? 
? ? ? ? ? 
? ? ? ? ? 
? ? ? ? ? 
? ? ? ? ? 


Board to resolve
2 ? 2 ? ? 
? ? ? ? ? 
? ? ? ? ? 
? ? ? ? ? 
? ? ? ? ? 


Decided in 0.0 minutes
Revealing Positions: ['x03']
New board to resolve
2 ? 2 0 0 
? ? 2 0 0 
? ? 2 2 2 
? ? ? ? ? 
? ? ? ? ? 


Board to resolve
2 ? 2 0 0 
? ? 2 0 0 
? ? 2 2 2 
? ? ? ? ? 
? ? ? ? ? 


Decided in 0.016666666666666666 minutes
Revealing Positions: ['x10', 'x21', 'x31', 'x32']
New board to resolve
2 ? 2 0 0 
2 ? 2 0 0 
? 1 2 2 2 
? 1 1 ? ? 
? ? ? ? ? 


Board to resolve
2 ? 2 0 0 
2 ? 2 0 0 
? 1 2 2 2 
? 1 1 ? ? 
? ? ? ? ? 


Decided in 0.016666666666666666 minutes
Revealing Positions: ['x20', 'x30', 'x41', 'x42', 'x43']
New board to resolve
2 ? 2 0 0 
2 ? 2 0 0 
1 1 2 2 2 
1 1 1 ? ? 
? 1 1 2 ? 


Board to resolve
2 ? 2 0 0 
2 ? 2 0 0 
1 1 2 2 2 
1 1 1 ? ? 
? 1 1 2 ? 


Decided in 0.0 minutes
Revealing Positions: ['x44']
New board to resolve
2 ? 2 0 0 
2 ? 2 0 0 
1 1 2 2 2 
1 1 1 ? ? 
? 1 1 2 2 


WON!
Times lost: 1
Finished in 0.03333333333333333 minutes


------------------------------
Playing Minesweeper with Bayesian Networks
Minesweeper Board: Num x = 5 ; Num y = 5 ; Mines = 5


Resolved Board Created
0 0 0 1 * 
1 2 1 2 1 
* 2 * 1 0 
1 3 2 3 1 
0 1 * 2 * 


Board to resolve
0 0 0 1 ? 
1 2 1 2 ? 
? ? ? ? ? 
? ? ? ? ? 
? ? ? ? ? 


Decided in 0.016666666666666666 minutes
Revealing Positions: ['x21', 'x23', 'x24']
New board to resolve
0 0 0 1 ? 
1 2 1 2 1 
? 2 ? 1 0 
? ? ? 3 1 
? ? ? ? ? 


Board to resolve
0 0 0 1 ? 
1 2 1 2 1 
? 2 ? 1 0 
? ? ? 3 1 
? ? ? ? ? 


Decided in 0.0 minutes
Revealing Positions: ['x30', 'x31', 'x32']
New board to resolve
0 0 0 1 ? 
1 2 1 2 1 
? 2 ? 1 0 
1 3 2 3 1 
? ? ? ? ? 


Board to resolve
0 0 0 1 ? 
1 2 1 2 1 
? 2 ? 1 0 
1 3 2 3 1 
? ? ? ? ? 


Decided in 0.016666666666666666 minutes
Revealing Positions: ['x40', 'x41', 'x43']
New board to resolve
0 0 0 1 ? 
1 2 1 2 1 
? 2 ? 1 0 
1 3 2 3 1 
0 1 ? 2 ? 


WON!
Times lost: 0
Finished in 0.03333333333333333 minutes


------------------------------
Playing Minesweeper with Bayesian Networks
Minesweeper Board: Num x = 5 ; Num y = 5 ; Mines = 5


Resolved Board Created
2 * 2 2 * 
* 3 3 * 2 
2 * 2 1 1 
1 1 1 0 0 
0 0 0 0 0 


Board to resolve
2 ? ? ? ? 
? ? ? ? ? 
? ? ? ? ? 
? ? ? ? ? 
? ? ? ? ? 


Decided in 0.0 minutes
Revealing Positions: ['x02']
New board to resolve
2 ? 2 ? ? 
? ? ? ? ? 
? ? ? ? ? 
? ? ? ? ? 
? ? ? ? ? 


Board to resolve
2 ? 2 ? ? 
? ? ? ? ? 
? ? ? ? ? 
? ? ? ? ? 
? ? ? ? ? 


Decided in 0.0 minutes
Revealing Positions: ['x03']
New board to resolve
2 ? 2 2 ? 
? ? ? ? ? 
? ? ? ? ? 
? ? ? ? ? 
? ? ? ? ? 


Board to resolve
2 ? 2 2 ? 
? ? ? ? ? 
? ? ? ? ? 
? ? ? ? ? 
? ? ? ? ? 


Decided in 0.016666666666666666 minutes
Revealing Positions: ['x20']
New board to resolve
2 ? 2 2 ? 
? ? ? ? ? 
2 ? ? ? ? 
? ? ? ? ? 
? ? ? ? ? 


Board to resolve
2 ? 2 2 ? 
? ? ? ? ? 
2 ? ? ? ? 
? ? ? ? ? 
? ? ? ? ? 


Decided in 0.016666666666666666 minutes
Revealing Positions: ['x21']
Last board to resolve
2 ? 2 2 ? 
? ? ? ? ? 
2 ? ? ? ? 
? ? ? ? ? 
? ? ? ? ? 


LOST!
Finished in 0.03333333333333333 minutes


------------------------------
Playing Minesweeper with Bayesian Networks
Minesweeper Board: Num x = 5 ; Num y = 5 ; Mines = 5


Resolved Board Created
* 2 0 0 0 
* 2 1 1 1 
1 1 1 * 2 
1 1 2 2 * 
1 * 1 1 1 


Board to resolve
? 2 ? ? ? 
? ? ? ? ? 
? ? ? ? ? 
? ? ? ? ? 
? ? ? ? ? 


Decided in 0.0 minutes
Revealing Positions: ['x03']
New board to resolve
? 2 0 0 0 
? 2 1 1 1 
? ? ? ? ? 
? ? ? ? ? 
? ? ? ? ? 


Board to resolve
? 2 0 0 0 
? 2 1 1 1 
? ? ? ? ? 
? ? ? ? ? 
? ? ? ? ? 


Decided in 0.016666666666666666 minutes
Revealing Positions: ['x20', 'x21', 'x22', 'x24']
New board to resolve
? 2 0 0 0 
? 2 1 1 1 
1 1 1 ? 2 
? ? ? ? ? 
? ? ? ? ? 


Board to resolve
? 2 0 0 0 
? 2 1 1 1 
1 1 1 ? 2 
? ? ? ? ? 
? ? ? ? ? 


Decided in 0.0 minutes
Revealing Positions: ['x30', 'x31', 'x32', 'x33']
New board to resolve
? 2 0 0 0 
? 2 1 1 1 
1 1 1 ? 2 
1 1 2 2 ? 
? ? ? ? ? 


Board to resolve
? 2 0 0 0 
? 2 1 1 1 
1 1 1 ? 2 
1 1 2 2 ? 
? ? ? ? ? 


Decided in 0.0 minutes
Revealing Positions: ['x40', 'x42', 'x43', 'x44']
New board to resolve
? 2 0 0 0 
? 2 1 1 1 
1 1 1 ? 2 
1 1 2 2 ? 
1 ? 1 1 1 


WON!
Times lost: 1
Finished in 0.016666666666666666 minutes


------------------------------
Playing Minesweeper with Bayesian Networks
Minesweeper Board: Num x = 5 ; Num y = 5 ; Mines = 5


Resolved Board Created
1 * 2 * 1 
2 2 2 1 1 
* 1 1 1 1 
2 2 1 * 1 
* 1 1 1 1 


Board to resolve
1 ? ? ? ? 
? ? ? ? ? 
? ? ? ? ? 
? ? ? ? ? 
? ? ? ? ? 


Decided in 0.0 minutes
Revealing Positions: ['x02']
New board to resolve
1 ? 2 ? ? 
? ? ? ? ? 
? ? ? ? ? 
? ? ? ? ? 
? ? ? ? ? 


Board to resolve
1 ? 2 ? ? 
? ? ? ? ? 
? ? ? ? ? 
? ? ? ? ? 
? ? ? ? ? 


Decided in 0.0 minutes
Revealing Positions: ['x10']
New board to resolve
1 ? 2 ? ? 
2 ? ? ? ? 
? ? ? ? ? 
? ? ? ? ? 
? ? ? ? ? 


Board to resolve
1 ? 2 ? ? 
2 ? ? ? ? 
? ? ? ? ? 
? ? ? ? ? 
? ? ? ? ? 


Decided in 0.016666666666666666 minutes
Revealing Positions: ['x04']
New board to resolve
1 ? 2 ? 1 
2 ? ? ? ? 
? ? ? ? ? 
? ? ? ? ? 
? ? ? ? ? 


Board to resolve
1 ? 2 ? 1 
2 ? ? ? ? 
? ? ? ? ? 
? ? ? ? ? 
? ? ? ? ? 


Decided in 0.0 minutes
Revealing Positions: ['x12']
New board to resolve
1 ? 2 ? 1 
2 ? 2 ? ? 
? ? ? ? ? 
? ? ? ? ? 
? ? ? ? ? 


Board to resolve
1 ? 2 ? 1 
2 ? 2 ? ? 
? ? ? ? ? 
? ? ? ? ? 
? ? ? ? ? 


Decided in 0.05 minutes
Revealing Positions: ['x14', 'x21', 'x22', 'x23']
New board to resolve
1 ? 2 ? 1 
2 ? 2 ? 1 
? 1 1 1 ? 
? ? ? ? ? 
? ? ? ? ? 


Board to resolve
1 ? 2 ? 1 
2 ? 2 ? 1 
? 1 1 1 ? 
? ? ? ? ? 
? ? ? ? ? 


Decided in 0.05 minutes
Revealing Positions: ['x11', 'x24', 'x30', 'x31', 'x32', 'x34']
New board to resolve
1 ? 2 ? 1 
2 2 2 ? 1 
? 1 1 1 1 
2 2 1 ? 1 
? ? ? ? ? 


Board to resolve
1 ? 2 ? 1 
2 2 2 ? 1 
? 1 1 1 1 
2 2 1 ? 1 
? ? ? ? ? 


Decided in 0.0 minutes
Revealing Positions: ['x42']
New board to resolve
1 ? 2 ? 1 
2 2 2 ? 1 
? 1 1 1 1 
2 2 1 ? 1 
? ? 1 ? ? 


Board to resolve
1 ? 2 ? 1 
2 2 2 ? 1 
? 1 1 1 1 
2 2 1 ? 1 
? ? 1 ? ? 


Decided in 0.016666666666666666 minutes
Revealing Positions: ['x03']
Last board to resolve
1 ? 2 ? 1 
2 2 2 ? 1 
? 1 1 1 1 
2 2 1 ? 1 
? ? 1 ? ? 


LOST!
Finished in 0.15 minutes


------------------------------
Playing Minesweeper with Bayesian Networks
Minesweeper Board: Num x = 5 ; Num y = 5 ; Mines = 5


Resolved Board Created
1 * 2 * 1 
1 2 3 2 1 
1 2 * 1 0 
2 * 3 1 0 
2 * 2 0 0 


Board to resolve
1 ? ? ? ? 
? ? ? ? ? 
? ? ? ? ? 
? ? ? ? ? 
? ? ? ? ? 


Decided in 0.0 minutes
Revealing Positions: ['x02']
New board to resolve
1 ? 2 ? ? 
? ? ? ? ? 
? ? ? ? ? 
? ? ? ? ? 
? ? ? ? ? 


Board to resolve
1 ? 2 ? ? 
? ? ? ? ? 
? ? ? ? ? 
? ? ? ? ? 
? ? ? ? ? 


Decided in 0.0 minutes
Revealing Positions: ['x10']
New board to resolve
1 ? 2 ? ? 
1 ? ? ? ? 
? ? ? ? ? 
? ? ? ? ? 
? ? ? ? ? 


Board to resolve
1 ? 2 ? ? 
1 ? ? ? ? 
? ? ? ? ? 
? ? ? ? ? 
? ? ? ? ? 


Decided in 0.016666666666666666 minutes
Revealing Positions: ['x20', 'x21']
New board to resolve
1 ? 2 ? ? 
1 ? ? ? ? 
1 2 ? ? ? 
? ? ? ? ? 
? ? ? ? ? 


Board to resolve
1 ? 2 ? ? 
1 ? ? ? ? 
1 2 ? ? ? 
? ? ? ? ? 
? ? ? ? ? 


Decided in 0.03333333333333333 minutes
Revealing Positions: ['x30']
New board to resolve
1 ? 2 ? ? 
1 ? ? ? ? 
1 2 ? ? ? 
2 ? ? ? ? 
? ? ? ? ? 


Board to resolve
1 ? 2 ? ? 
1 ? ? ? ? 
1 2 ? ? ? 
2 ? ? ? ? 
? ? ? ? ? 


Decided in 0.016666666666666666 minutes
Revealing Positions: ['x04']
New board to resolve
1 ? 2 ? 1 
1 ? ? ? ? 
1 2 ? ? ? 
2 ? ? ? ? 
? ? ? ? ? 


Board to resolve
1 ? 2 ? 1 
1 ? ? ? ? 
1 2 ? ? ? 
2 ? ? ? ? 
? ? ? ? ? 


Decided in 0.05 minutes
Revealing Positions: ['x12']
New board to resolve
1 ? 2 ? 1 
1 ? 3 ? ? 
1 2 ? ? ? 
2 ? ? ? ? 
? ? ? ? ? 


Board to resolve
1 ? 2 ? 1 
1 ? 3 ? ? 
1 2 ? ? ? 
2 ? ? ? ? 
? ? ? ? ? 


Decided in 0.05 minutes
Revealing Positions: ['x14']
New board to resolve
1 ? 2 ? 1 
1 ? 3 ? 1 
1 2 ? ? ? 
2 ? ? ? ? 
? ? ? ? ? 


Board to resolve
1 ? 2 ? 1 
1 ? 3 ? 1 
1 2 ? ? ? 
2 ? ? ? ? 
? ? ? ? ? 


Decided in 0.06666666666666667 minutes
Revealing Positions: ['x23', 'x24', 'x32']
New board to resolve
1 ? 2 ? 1 
1 ? 3 2 1 
1 2 ? 1 0 
2 ? 3 1 0 
? ? 2 0 0 


Board to resolve
1 ? 2 ? 1 
1 ? 3 2 1 
1 2 ? 1 0 
2 ? 3 1 0 
? ? 2 0 0 


Decided in 0.016666666666666666 minutes
Revealing Positions: ['x11', 'x40']
New board to resolve
1 ? 2 ? 1 
1 2 3 2 1 
1 2 ? 1 0 
2 ? 3 1 0 
2 ? 2 0 0 


WON!
Times lost: 1
Finished in 0.25 minutes


------------------------------
Playing Minesweeper with Bayesian Networks
Minesweeper Board: Num x = 5 ; Num y = 5 ; Mines = 5


Resolved Board Created
1 1 1 2 * 
* 2 2 * 2 
1 2 * 2 1 
0 1 1 2 1 
0 0 0 1 * 


Board to resolve
1 ? ? ? ? 
? ? ? ? ? 
? ? ? ? ? 
? ? ? ? ? 
? ? ? ? ? 


Decided in 0.0 minutes
Revealing Positions: ['x02']
New board to resolve
1 ? 1 ? ? 
? ? ? ? ? 
? ? ? ? ? 
? ? ? ? ? 
? ? ? ? ? 


Board to resolve
1 ? 1 ? ? 
? ? ? ? ? 
? ? ? ? ? 
? ? ? ? ? 
? ? ? ? ? 


Decided in 0.0 minutes
Revealing Positions: ['x03']
New board to resolve
1 ? 1 2 ? 
? ? ? ? ? 
? ? ? ? ? 
? ? ? ? ? 
? ? ? ? ? 


Board to resolve
1 ? 1 2 ? 
? ? ? ? ? 
? ? ? ? ? 
? ? ? ? ? 
? ? ? ? ? 


Decided in 0.016666666666666666 minutes
Revealing Positions: ['x01']
New board to resolve
1 1 1 2 ? 
? ? ? ? ? 
? ? ? ? ? 
? ? ? ? ? 
? ? ? ? ? 


Board to resolve
1 1 1 2 ? 
? ? ? ? ? 
? ? ? ? ? 
? ? ? ? ? 
? ? ? ? ? 


Decided in 0.0 minutes
Revealing Positions: ['x12']
New board to resolve
1 1 1 2 ? 
? ? 2 ? ? 
? ? ? ? ? 
? ? ? ? ? 
? ? ? ? ? 


Board to resolve
1 1 1 2 ? 
? ? 2 ? ? 
? ? ? ? ? 
? ? ? ? ? 
? ? ? ? ? 


Decided in 0.016666666666666666 minutes
Revealing Positions: ['x20']
New board to resolve
1 1 1 2 ? 
? ? 2 ? ? 
1 ? ? ? ? 
? ? ? ? ? 
? ? ? ? ? 


Board to resolve
1 1 1 2 ? 
? ? 2 ? ? 
1 ? ? ? ? 
? ? ? ? ? 
? ? ? ? ? 


Decided in 0.03333333333333333 minutes
Revealing Positions: ['x21', 'x30', 'x31']
New board to resolve
1 1 1 2 ? 
? ? 2 ? ? 
1 2 ? ? ? 
0 1 1 2 ? 
0 0 0 1 ? 


Board to resolve
1 1 1 2 ? 
? ? 2 ? ? 
1 2 ? ? ? 
0 1 1 2 ? 
0 0 0 1 ? 


Decided in 0.03333333333333333 minutes
Revealing Positions: ['x23', 'x24']
New board to resolve
1 1 1 2 ? 
? ? 2 ? ? 
1 2 ? 2 1 
0 1 1 2 ? 
0 0 0 1 ? 


Board to resolve
1 1 1 2 ? 
? ? 2 ? ? 
1 2 ? 2 1 
0 1 1 2 ? 
0 0 0 1 ? 


Decided in 0.0 minutes
Revealing Positions: ['x34']
New board to resolve
1 1 1 2 ? 
? ? 2 ? ? 
1 2 ? 2 1 
0 1 1 2 1 
0 0 0 1 ? 


Board to resolve
1 1 1 2 ? 
? ? 2 ? ? 
1 2 ? 2 1 
0 1 1 2 1 
0 0 0 1 ? 


Decided in 0.016666666666666666 minutes
Revealing Positions: ['x10']
Last board to resolve
1 1 1 2 ? 
? ? 2 ? ? 
1 2 ? 2 1 
0 1 1 2 1 
0 0 0 1 ? 


LOST!
Finished in 0.11666666666666667 minutes


------------------------------
Playing Minesweeper with Bayesian Networks
Minesweeper Board: Num x = 5 ; Num y = 5 ; Mines = 5


Resolved Board Created
2 * * 1 0 
2 * 4 2 0 
1 2 * 2 1 
0 1 2 * 1 
0 0 1 1 1 


Board to resolve
2 ? ? ? ? 
? ? ? ? ? 
? ? ? ? ? 
? ? ? ? ? 
? ? ? ? ? 


Decided in 0.0 minutes
Revealing Positions: ['x02']
Last board to resolve
2 ? ? ? ? 
? ? ? ? ? 
? ? ? ? ? 
? ? ? ? ? 
? ? ? ? ? 


LOST!
Finished in 0.0 minutes


------------------------------
Playing Minesweeper with Bayesian Networks
Minesweeper Board: Num x = 5 ; Num y = 5 ; Mines = 5


Resolved Board Created
* * 2 0 0 
4 * 2 0 0 
* 2 1 0 0 
2 2 0 0 0 
* 1 0 0 0 


Board to resolve
? ? 2 ? ? 
? ? ? ? ? 
? ? ? ? ? 
? ? ? ? ? 
? ? ? ? ? 


Decided in 0.0 minutes
Revealing Positions: ['x00']
Last board to resolve
? ? 2 ? ? 
? ? ? ? ? 
? ? ? ? ? 
? ? ? ? ? 
? ? ? ? ? 


LOST!
Finished in 0.0 minutes


------------------------------
Playing Minesweeper with Bayesian Networks
Minesweeper Board: Num x = 5 ; Num y = 5 ; Mines = 5


Resolved Board Created
0 0 0 1 * 
1 1 1 1 1 
2 * 2 1 1 
* 3 2 * 1 
* 2 1 1 1 


Board to resolve
0 0 0 1 ? 
1 1 1 1 ? 
? ? ? ? ? 
? ? ? ? ? 
? ? ? ? ? 


Decided in 0.016666666666666666 minutes
Revealing Positions: ['x20', 'x22', 'x23', 'x24']
New board to resolve
0 0 0 1 ? 
1 1 1 1 ? 
2 ? 2 1 1 
? ? ? ? ? 
? ? ? ? ? 


Board to resolve
0 0 0 1 ? 
1 1 1 1 ? 
2 ? 2 1 1 
? ? ? ? ? 
? ? ? ? ? 


Decided in 0.0 minutes
Revealing Positions: ['x32']
New board to resolve
0 0 0 1 ? 
1 1 1 1 ? 
2 ? 2 1 1 
? ? 2 ? ? 
? ? ? ? ? 


Board to resolve
0 0 0 1 ? 
1 1 1 1 ? 
2 ? 2 1 1 
? ? 2 ? ? 
? ? ? ? ? 


Decided in 0.03333333333333333 minutes
Revealing Positions: ['x41', 'x42', 'x43']
New board to resolve
0 0 0 1 ? 
1 1 1 1 ? 
2 ? 2 1 1 
? ? 2 ? ? 
? 2 1 1 ? 


Board to resolve
0 0 0 1 ? 
1 1 1 1 ? 
2 ? 2 1 1 
? ? 2 ? ? 
? 2 1 1 ? 


Decided in 0.016666666666666666 minutes
Revealing Positions: ['x33']
Last board to resolve
0 0 0 1 ? 
1 1 1 1 ? 
2 ? 2 1 1 
? ? 2 ? ? 
? 2 1 1 ? 


LOST!
Finished in 0.06666666666666667 minutes


------------------------------
Playing Minesweeper with Bayesian Networks
Minesweeper Board: Num x = 5 ; Num y = 5 ; Mines = 5


Resolved Board Created
1 2 2 * 2 
* 2 * 3 * 
1 3 2 3 1 
0 1 * 1 0 
0 1 1 1 0 


Board to resolve
1 ? ? ? ? 
? ? ? ? ? 
? ? ? ? ? 
? ? ? ? ? 
? ? ? ? ? 


Decided in 0.0 minutes
Revealing Positions: ['x02']
New board to resolve
1 ? 2 ? ? 
? ? ? ? ? 
? ? ? ? ? 
? ? ? ? ? 
? ? ? ? ? 


Board to resolve
1 ? 2 ? ? 
? ? ? ? ? 
? ? ? ? ? 
? ? ? ? ? 
? ? ? ? ? 


Decided in 0.016666666666666666 minutes
Revealing Positions: ['x10']
Last board to resolve
1 ? 2 ? ? 
? ? ? ? ? 
? ? ? ? ? 
? ? ? ? ? 
? ? ? ? ? 


LOST!
Finished in 0.016666666666666666 minutes


------------------------------
Playing Minesweeper with Bayesian Networks
Minesweeper Board: Num x = 5 ; Num y = 5 ; Mines = 5


Resolved Board Created
* 2 1 1 0 
1 2 * 1 0 
0 1 1 2 1 
2 2 1 1 * 
* * 1 1 1 


Board to resolve
? 2 ? ? ? 
? ? ? ? ? 
? ? ? ? ? 
? ? ? ? ? 
? ? ? ? ? 


Decided in 0.0 minutes
Revealing Positions: ['x03']
New board to resolve
? 2 ? 1 ? 
? ? ? ? ? 
? ? ? ? ? 
? ? ? ? ? 
? ? ? ? ? 


Board to resolve
? 2 ? 1 ? 
? ? ? ? ? 
? ? ? ? ? 
? ? ? ? ? 
? ? ? ? ? 


Decided in 0.03333333333333333 minutes
Revealing Positions: ['x04']
New board to resolve
? 2 ? 1 0 
? ? ? 1 0 
? ? ? 2 1 
? ? ? ? ? 
? ? ? ? ? 


Board to resolve
? 2 ? 1 0 
? ? ? 1 0 
? ? ? 2 1 
? ? ? ? ? 
? ? ? ? ? 


Decided in 0.03333333333333333 minutes
Revealing Positions: ['x22']
New board to resolve
? 2 ? 1 0 
? ? ? 1 0 
? ? 1 2 1 
? ? ? ? ? 
? ? ? ? ? 


Board to resolve
? 2 ? 1 0 
? ? ? 1 0 
? ? 1 2 1 
? ? ? ? ? 
? ? ? ? ? 


Decided in 0.05 minutes
Revealing Positions: ['x11', 'x21', 'x31', 'x33']
New board to resolve
? 2 ? 1 0 
? 2 ? 1 0 
? 1 1 2 1 
? 2 ? 1 ? 
? ? ? ? ? 


Board to resolve
? 2 ? 1 0 
? 2 ? 1 0 
? 1 1 2 1 
? 2 ? 1 ? 
? ? ? ? ? 


Decided in 0.11666666666666667 minutes
Revealing Positions: ['x02', 'x10', 'x20', 'x30', 'x32', 'x42', 'x43', 'x44']
New board to resolve
? 2 1 1 0 
1 2 ? 1 0 
0 1 1 2 1 
2 2 1 1 ? 
? ? 1 1 1 


WON!
Times lost: 5
Finished in 0.23333333333333334 minutes


------------------------------
Playing Minesweeper with Bayesian Networks
Minesweeper Board: Num x = 5 ; Num y = 5 ; Mines = 5


Resolved Board Created
2 * 2 0 0 
2 * 3 1 0 
2 3 * 2 1 
1 * 2 2 * 
1 1 1 1 1 


Board to resolve
2 ? ? ? ? 
? ? ? ? ? 
? ? ? ? ? 
? ? ? ? ? 
? ? ? ? ? 


Decided in 0.0 minutes
Revealing Positions: ['x02']
New board to resolve
2 ? 2 ? ? 
? ? ? ? ? 
? ? ? ? ? 
? ? ? ? ? 
? ? ? ? ? 


Board to resolve
2 ? 2 ? ? 
? ? ? ? ? 
? ? ? ? ? 
? ? ? ? ? 
? ? ? ? ? 


Decided in 0.016666666666666666 minutes
Revealing Positions: ['x03']
New board to resolve
2 ? 2 0 0 
? ? 3 1 0 
? ? ? 2 1 
? ? ? ? ? 
? ? ? ? ? 


Board to resolve
2 ? 2 0 0 
? ? 3 1 0 
? ? ? 2 1 
? ? ? ? ? 
? ? ? ? ? 


Decided in 0.0 minutes
Revealing Positions: ['x10', 'x21', 'x32']
New board to resolve
2 ? 2 0 0 
2 ? 3 1 0 
? 3 ? 2 1 
? ? 2 ? ? 
? ? ? ? ? 


Board to resolve
2 ? 2 0 0 
2 ? 3 1 0 
? 3 ? 2 1 
? ? 2 ? ? 
? ? ? ? ? 


Decided in 0.06666666666666667 minutes
Revealing Positions: ['x20']
New board to resolve
2 ? 2 0 0 
2 ? 3 1 0 
2 3 ? 2 1 
? ? 2 ? ? 
? ? ? ? ? 


Board to resolve
2 ? 2 0 0 
2 ? 3 1 0 
2 3 ? 2 1 
? ? 2 ? ? 
? ? ? ? ? 


Decided in 0.05 minutes
Revealing Positions: ['x41']
New board to resolve
2 ? 2 0 0 
2 ? 3 1 0 
2 3 ? 2 1 
? ? 2 ? ? 
? 1 ? ? ? 


Board to resolve
2 ? 2 0 0 
2 ? 3 1 0 
2 3 ? 2 1 
? ? 2 ? ? 
? 1 ? ? ? 


Decided in 0.016666666666666666 minutes
Revealing Positions: ['x40', 'x42']
New board to resolve
2 ? 2 0 0 
2 ? 3 1 0 
2 3 ? 2 1 
? ? 2 ? ? 
1 1 1 ? ? 


Board to resolve
2 ? 2 0 0 
2 ? 3 1 0 
2 3 ? 2 1 
? ? 2 ? ? 
1 1 1 ? ? 


Decided in 0.016666666666666666 minutes
Revealing Positions: ['x43']
New board to resolve
2 ? 2 0 0 
2 ? 3 1 0 
2 3 ? 2 1 
? ? 2 ? ? 
1 1 1 1 ? 


Board to resolve
2 ? 2 0 0 
2 ? 3 1 0 
2 3 ? 2 1 
? ? 2 ? ? 
1 1 1 1 ? 


Decided in 0.016666666666666666 minutes
Revealing Positions: ['x44']
New board to resolve
2 ? 2 0 0 
2 ? 3 1 0 
2 3 ? 2 1 
? ? 2 ? ? 
1 1 1 1 1 


Board to resolve
2 ? 2 0 0 
2 ? 3 1 0 
2 3 ? 2 1 
? ? 2 ? ? 
1 1 1 1 1 


Decided in 0.0 minutes
Revealing Positions: ['x30']
New board to resolve
2 ? 2 0 0 
2 ? 3 1 0 
2 3 ? 2 1 
1 ? 2 ? ? 
1 1 1 1 1 


Board to resolve
2 ? 2 0 0 
2 ? 3 1 0 
2 3 ? 2 1 
1 ? 2 ? ? 
1 1 1 1 1 


Decided in 0.0 minutes
Revealing Positions: ['x33']
New board to resolve
2 ? 2 0 0 
2 ? 3 1 0 
2 3 ? 2 1 
1 ? 2 2 ? 
1 1 1 1 1 


WON!
Times lost: 0
Finished in 0.18333333333333332 minutes


------------------------------
Playing Minesweeper with Bayesian Networks
Minesweeper Board: Num x = 5 ; Num y = 5 ; Mines = 5


Resolved Board Created
3 * 2 0 0 
* * 3 0 0 
3 * 2 0 0 
2 2 2 0 0 
1 * 1 0 0 


Board to resolve
3 ? ? ? ? 
? ? ? ? ? 
? ? ? ? ? 
? ? ? ? ? 
? ? ? ? ? 


Decided in 0.0 minutes
Revealing Positions: ['x02']
New board to resolve
3 ? 2 ? ? 
? ? ? ? ? 
? ? ? ? ? 
? ? ? ? ? 
? ? ? ? ? 


Board to resolve
3 ? 2 ? ? 
? ? ? ? ? 
? ? ? ? ? 
? ? ? ? ? 
? ? ? ? ? 


Decided in 0.016666666666666666 minutes
Revealing Positions: ['x03', 'x12', 'x13']
New board to resolve
3 ? 2 0 0 
? ? 3 0 0 
? ? 2 0 0 
? ? 2 0 0 
? ? 1 0 0 


Board to resolve
3 ? 2 0 0 
? ? 3 0 0 
? ? 2 0 0 
? ? 2 0 0 
? ? 1 0 0 


Decided in 0.0 minutes
Revealing Positions: ['x31']
New board to resolve
3 ? 2 0 0 
? ? 3 0 0 
? ? 2 0 0 
? 2 2 0 0 
? ? 1 0 0 


Board to resolve
3 ? 2 0 0 
? ? 3 0 0 
? ? 2 0 0 
? 2 2 0 0 
? ? 1 0 0 


Decided in 0.0 minutes
Revealing Positions: ['x20', 'x30', 'x40']
New board to resolve
3 ? 2 0 0 
? ? 3 0 0 
3 ? 2 0 0 
2 2 2 0 0 
1 ? 1 0 0 


WON!
Times lost: 0
Finished in 0.016666666666666666 minutes


------------------------------
Playing Minesweeper with Bayesian Networks
Minesweeper Board: Num x = 5 ; Num y = 5 ; Mines = 5


Resolved Board Created
1 1 2 * 1 
2 * 4 3 3 
2 * 3 * * 
1 1 2 2 2 
0 0 0 0 0 


Board to resolve
1 ? ? ? ? 
? ? ? ? ? 
? ? ? ? ? 
? ? ? ? ? 
? ? ? ? ? 


Decided in 0.0 minutes
Revealing Positions: ['x02']
New board to resolve
1 ? 2 ? ? 
? ? ? ? ? 
? ? ? ? ? 
? ? ? ? ? 
? ? ? ? ? 


Board to resolve
1 ? 2 ? ? 
? ? ? ? ? 
? ? ? ? ? 
? ? ? ? ? 
? ? ? ? ? 


Decided in 0.016666666666666666 minutes
Revealing Positions: ['x10']
New board to resolve
1 ? 2 ? ? 
2 ? ? ? ? 
? ? ? ? ? 
? ? ? ? ? 
? ? ? ? ? 


Board to resolve
1 ? 2 ? ? 
2 ? ? ? ? 
? ? ? ? ? 
? ? ? ? ? 
? ? ? ? ? 


Decided in 0.016666666666666666 minutes
Revealing Positions: ['x04']
New board to resolve
1 ? 2 ? 1 
2 ? ? ? ? 
? ? ? ? ? 
? ? ? ? ? 
? ? ? ? ? 


Board to resolve
1 ? 2 ? 1 
2 ? ? ? ? 
? ? ? ? ? 
? ? ? ? ? 
? ? ? ? ? 


Decided in 0.016666666666666666 minutes
Revealing Positions: ['x12']
New board to resolve
1 ? 2 ? 1 
2 ? 4 ? ? 
? ? ? ? ? 
? ? ? ? ? 
? ? ? ? ? 


Board to resolve
1 ? 2 ? 1 
2 ? 4 ? ? 
? ? ? ? ? 
? ? ? ? ? 
? ? ? ? ? 


Decided in 0.06666666666666667 minutes
Revealing Positions: ['x14']
New board to resolve
1 ? 2 ? 1 
2 ? 4 ? 3 
? ? ? ? ? 
? ? ? ? ? 
? ? ? ? ? 


Board to resolve
1 ? 2 ? 1 
2 ? 4 ? 3 
? ? ? ? ? 
? ? ? ? ? 
? ? ? ? ? 


Decided in 0.06666666666666667 minutes
Revealing Positions: ['x20']
New board to resolve
1 ? 2 ? 1 
2 ? 4 ? 3 
2 ? ? ? ? 
? ? ? ? ? 
? ? ? ? ? 


Board to resolve
1 ? 2 ? 1 
2 ? 4 ? 3 
2 ? ? ? ? 
? ? ? ? ? 
? ? ? ? ? 


Decided in 0.08333333333333333 minutes
Revealing Positions: ['x22']
New board to resolve
1 ? 2 ? 1 
2 ? 4 ? 3 
2 ? 3 ? ? 
? ? ? ? ? 
? ? ? ? ? 


Board to resolve
1 ? 2 ? 1 
2 ? 4 ? 3 
2 ? 3 ? ? 
? ? ? ? ? 
? ? ? ? ? 


Decided in 0.15 minutes
Revealing Positions: ['x32']
New board to resolve
1 ? 2 ? 1 
2 ? 4 ? 3 
2 ? 3 ? ? 
? ? 2 ? ? 
? ? ? ? ? 


Board to resolve
1 ? 2 ? 1 
2 ? 4 ? 3 
2 ? 3 ? ? 
? ? 2 ? ? 
? ? ? ? ? 


Decided in 0.3 minutes
Revealing Positions: ['x31', 'x33', 'x41', 'x42', 'x43']
New board to resolve
1 ? 2 ? 1 
2 ? 4 ? 3 
2 ? 3 ? ? 
1 1 2 2 2 
0 0 0 0 0 


Board to resolve
1 ? 2 ? 1 
2 ? 4 ? 3 
2 ? 3 ? ? 
1 1 2 2 2 
0 0 0 0 0 


Decided in 0.016666666666666666 minutes
Revealing Positions: ['x01', 'x13']
New board to resolve
1 1 2 ? 1 
2 ? 4 3 3 
2 ? 3 ? ? 
1 1 2 2 2 
0 0 0 0 0 


WON!
Times lost: 0
Finished in 0.7333333333333333 minutes

Finished playing 10 times
Board: Num x = 5 ; Num y = 5 ; Mines = 5
Total loses counts: [1, 6, 1, 0, 1, 1, 5, 0, 0, 0]
Total times (mins): [0.03333333333333333, 0.13333333333333333, 0.03333333333333333, 0.03333333333333333, 0.016666666666666666, 0.25, 0.23333333333333334, 0.18333333333333332, 0.016666666666666666, 0.7333333333333333]
Total times (secs): [2.0, 8.0, 2.0, 2.0, 1.0, 15.0, 14.0, 11.0, 1.0, 44.0]
Average loses: 1.5
Average time: 0.16666666666666669 (10.000000000000002 secs)
